EESchema Schematic File Version 4
EELAYER 30 0
EELAYER END
$Descr A4 11693 8268
encoding utf-8
Sheet 1 1
Title "Qwiic power micro double"
Date "2021-01-23"
Rev ""
Comp ""
Comment1 ""
Comment2 ""
Comment3 ""
Comment4 ""
$EndDescr
$Comp
L Regulator_Linear:TLV75533PDBV U1
U 1 1 600AFD34
P 4550 1550
F 0 "U1" H 4550 1892 50  0000 C CNN
F 1 "TLV75533PDBV" H 4550 1801 50  0000 C CNN
F 2 "Package_TO_SOT_SMD:SOT-23-5" H 4550 1875 50  0001 C CIN
F 3 "http://www.ti.com/lit/ds/symlink/tlv755p.pdf" H 4550 1600 50  0001 C CNN
	1    4550 1550
	1    0    0    -1  
$EndComp
$Comp
L power:VBUS #PWR0101
U 1 1 600B3A76
P 2250 1200
F 0 "#PWR0101" H 2250 1050 50  0001 C CNN
F 1 "VBUS" H 2265 1373 50  0000 C CNN
F 2 "" H 2250 1200 50  0001 C CNN
F 3 "" H 2250 1200 50  0001 C CNN
	1    2250 1200
	1    0    0    -1  
$EndComp
NoConn ~ 2000 1900
$Comp
L power:GND #PWR0102
U 1 1 600B4982
P 1400 2850
F 0 "#PWR0102" H 1400 2600 50  0001 C CNN
F 1 "GND" H 1405 2677 50  0000 C CNN
F 2 "" H 1400 2850 50  0001 C CNN
F 3 "" H 1400 2850 50  0001 C CNN
	1    1400 2850
	1    0    0    -1  
$EndComp
NoConn ~ 1100 2700
Wire Wire Line
	1400 2700 1400 2850
Wire Wire Line
	2000 1200 2250 1200
$Comp
L power:VBUS #PWR0103
U 1 1 600B5790
P 4000 1450
F 0 "#PWR0103" H 4000 1300 50  0001 C CNN
F 1 "VBUS" H 4015 1623 50  0000 C CNN
F 2 "" H 4000 1450 50  0001 C CNN
F 3 "" H 4000 1450 50  0001 C CNN
	1    4000 1450
	1    0    0    -1  
$EndComp
$Comp
L power:GND #PWR0104
U 1 1 600B62DB
P 4550 2000
F 0 "#PWR0104" H 4550 1750 50  0001 C CNN
F 1 "GND" H 4555 1827 50  0000 C CNN
F 2 "" H 4550 2000 50  0001 C CNN
F 3 "" H 4550 2000 50  0001 C CNN
	1    4550 2000
	1    0    0    -1  
$EndComp
Wire Wire Line
	4550 1850 4550 1950
Wire Wire Line
	4250 1450 4100 1450
Wire Wire Line
	4250 1550 4250 1450
Connection ~ 4250 1450
$Comp
L power:+3V3 #PWR0105
U 1 1 600B8398
P 5100 1450
F 0 "#PWR0105" H 5100 1300 50  0001 C CNN
F 1 "+3V3" H 5115 1623 50  0000 C CNN
F 2 "" H 5100 1450 50  0001 C CNN
F 3 "" H 5100 1450 50  0001 C CNN
	1    5100 1450
	1    0    0    -1  
$EndComp
$Comp
L power:+3V3 #PWR0106
U 1 1 600B8F94
P 7600 1700
F 0 "#PWR0106" H 7600 1550 50  0001 C CNN
F 1 "+3V3" H 7615 1873 50  0000 C CNN
F 2 "" H 7600 1700 50  0001 C CNN
F 3 "" H 7600 1700 50  0001 C CNN
	1    7600 1700
	1    0    0    -1  
$EndComp
$Comp
L power:GND #PWR0107
U 1 1 600BBA49
P 7500 1800
F 0 "#PWR0107" H 7500 1550 50  0001 C CNN
F 1 "GND" H 7505 1627 50  0000 C CNN
F 2 "" H 7500 1800 50  0001 C CNN
F 3 "" H 7500 1800 50  0001 C CNN
	1    7500 1800
	1    0    0    -1  
$EndComp
Wire Wire Line
	7250 1700 7600 1700
Wire Wire Line
	7250 1800 7500 1800
Wire Wire Line
	4850 1450 5000 1450
$Comp
L OPL_Capacitor:TANTALUM-SMD-100UF-10V_AVX-B_ C2
U 1 1 600BFB51
P 5000 1700
F 0 "C2" V 4958 1828 45  0000 L CNN
F 1 "100uF" V 5042 1828 45  0000 L CNN
F 2 "Capacitor_Tantalum_SMD:CP_EIA-1608-08_AVX-J" H 5000 1700 50  0001 C CNN
F 3 "" H 5000 1700 50  0001 C CNN
F 4 "TAJB107M010#NJ" H 5030 1850 20  0001 C CNN "MPN"
F 5 "302020015" H 5030 1850 20  0001 C CNN "SKU"
	1    5000 1700
	0    1    1    0   
$EndComp
Wire Wire Line
	4100 1550 4100 1450
Connection ~ 4100 1450
Wire Wire Line
	4100 1450 4000 1450
Wire Wire Line
	5000 1550 5000 1450
Connection ~ 5000 1450
Wire Wire Line
	5000 1450 5100 1450
Wire Wire Line
	4100 1850 4100 1950
Wire Wire Line
	4100 1950 4550 1950
Connection ~ 4550 1950
Wire Wire Line
	4550 1950 4550 2000
Wire Wire Line
	5000 1850 5000 1950
Wire Wire Line
	5000 1950 4550 1950
$Comp
L power:+3V3 #PWR0108
U 1 1 600BDC03
P 7600 2650
F 0 "#PWR0108" H 7600 2500 50  0001 C CNN
F 1 "+3V3" H 7615 2823 50  0000 C CNN
F 2 "" H 7600 2650 50  0001 C CNN
F 3 "" H 7600 2650 50  0001 C CNN
	1    7600 2650
	1    0    0    -1  
$EndComp
$Comp
L power:GND #PWR0109
U 1 1 600BE2AF
P 7500 2750
F 0 "#PWR0109" H 7500 2500 50  0001 C CNN
F 1 "GND" H 7505 2577 50  0000 C CNN
F 2 "" H 7500 2750 50  0001 C CNN
F 3 "" H 7500 2750 50  0001 C CNN
	1    7500 2750
	1    0    0    -1  
$EndComp
Wire Wire Line
	7500 2750 7250 2750
Text Label 7450 1600 2    50   ~ 0
SDA
Text Label 7450 2550 2    50   ~ 0
SDA
Text Label 7450 1500 2    50   ~ 0
SCL
Text Label 7450 2450 2    50   ~ 0
SCL
Wire Wire Line
	7250 1500 7450 1500
Wire Wire Line
	7250 1600 7450 1600
Wire Wire Line
	7250 2450 7450 2450
Wire Wire Line
	7250 2550 7450 2550
Wire Wire Line
	7600 2650 7250 2650
$Comp
L SparkFun-Connectors:QWIIC_CONNECTORJS-1MM QWIIC1
U 1 1 6018EDB4
P 7150 1800
F 0 "QWIIC1" H 7108 2410 45  0000 C CNN
F 1 "QWIIC_CONNECTORJS-1MM" H 7108 2326 45  0000 C CNN
F 2 "1X04_1MM_RA" H 7150 2300 20  0001 C CNN
F 3 "" H 7150 1800 50  0001 C CNN
F 4 "CONN-13694" H 7108 2231 60  0000 C CNN "Field4"
	1    7150 1800
	1    0    0    -1  
$EndComp
$Comp
L SparkFun-Connectors:QWIIC_CONNECTORJS-1MM QWIIC2
U 1 1 6018F12D
P 7150 2750
F 0 "QWIIC2" H 7108 3360 45  0000 C CNN
F 1 "QWIIC_CONNECTORJS-1MM" H 7108 3276 45  0000 C CNN
F 2 "1X04_1MM_RA" H 7150 3250 20  0001 C CNN
F 3 "" H 7150 2750 50  0001 C CNN
F 4 "CONN-13694" H 7108 3181 60  0000 C CNN "Field4"
	1    7150 2750
	1    0    0    -1  
$EndComp
NoConn ~ 2000 1700
NoConn ~ 2000 1500
$Comp
L Connector:USB_C_Plug_USB2.0 USB1
U 1 1 601FFA7B
P 1400 1800
F 0 "USB1" H 1507 2667 50  0000 C CNN
F 1 "USB_C_Plug_USB2.0" H 1507 2576 50  0000 C CNN
F 2 "Connector_USB:USB_C_Receptacle_HRO_TYPE-C-31-M-12" H 1550 1800 50  0001 C CNN
F 3 "https://www.usb.org/sites/default/files/documents/usb_type-c.zip" H 1550 1800 50  0001 C CNN
	1    1400 1800
	1    0    0    -1  
$EndComp
$Comp
L Device:R R1
U 1 1 60212C98
P 2500 1400
F 0 "R1" V 2293 1400 50  0000 C CNN
F 1 "5k1" V 2384 1400 50  0000 C CNN
F 2 "Resistor_SMD:R_0603_1608Metric" V 2430 1400 50  0001 C CNN
F 3 "~" H 2500 1400 50  0001 C CNN
	1    2500 1400
	0    1    1    0   
$EndComp
$Comp
L power:GND #PWR0110
U 1 1 602133C8
P 2800 1450
F 0 "#PWR0110" H 2800 1200 50  0001 C CNN
F 1 "GND" H 2805 1277 50  0000 C CNN
F 2 "" H 2800 1450 50  0001 C CNN
F 3 "" H 2800 1450 50  0001 C CNN
	1    2800 1450
	1    0    0    -1  
$EndComp
Wire Wire Line
	2000 1400 2350 1400
Wire Wire Line
	2650 1400 2800 1400
Wire Wire Line
	2800 1400 2800 1450
$Comp
L SparkFun-Capacitors:1.0UF-0603-16V-10% C1
U 1 1 60223ECB
P 4100 1750
F 0 "C1" H 3900 1900 45  0000 L CNN
F 1 "1.0UF-0603-16V-10%" H 3200 1800 45  0000 L CNN
F 2 "0603" H 4100 2000 20  0001 C CNN
F 3 "" H 4100 1750 50  0001 C CNN
F 4 "CAP-00868" H 3450 1700 60  0000 L CNN "Field4"
	1    4100 1750
	1    0    0    -1  
$EndComp
$EndSCHEMATC
