(footprint "1X04_1MM_RA_STRESSRELIEF" (version 20210722) (generator pcbnew) (layer "F.Cu")
  (tedit 200000)
  (descr "QWIIC CONNECTOR WITH MILLED CUTOUT. SLIDING THE CABLE INTO THIS SLOT PREVENTS THE CABLE FROM COMING UNPLUGGED.")
  (tags "QWIIC CONNECTOR WITH MILLED CUTOUT. SLIDING THE CABLE INTO THIS SLOT PREVENTS THE CABLE FROM COMING UNPLUGGED.")
  (attr smd)
  (fp_text reference ">NAME" (at -3.683 0.889 90) (layer "F.SilkS")
    (effects (font (size 0.6096 0.6096) (thickness 0.127)))
    (tstamp eb42593a-967c-4f2e-bf8f-de666cbb3a12)
  )
  (fp_text value ">VALUE" (at 3.683 0.889 90) (layer "F.SilkS")
    (effects (font (size 0.6096 0.6096) (thickness 0.127)))
    (tstamp 75870e8f-d012-4c7f-aad0-81b002f246bf)
  )
  (fp_line (start 3.99796 5.99948) (end -3.99796 5.99948) (layer "F.SilkS") (width 0.3048) (tstamp 06dc5958-7dca-4c98-8042-5ffa4976b9c1))
  (fp_line (start -1.99898 7.99846) (end 3.99796 7.99846) (layer "F.SilkS") (width 0.3048) (tstamp 7753c819-8247-40c1-a4d8-8a7d3fb650bb))
  (fp_line (start 2.99974 0.34798) (end 2.99974 1.99898) (layer "F.SilkS") (width 0.254) (tstamp 834c5f9f-9392-4b81-87be-cdcf7440ee85))
  (fp_line (start -3.99796 5.99948) (end -3.99796 10.16) (layer "F.SilkS") (width 0.3048) (tstamp 862cbda9-8dec-4e3c-b29c-7d45408ccde4))
  (fp_line (start 2.2479 0.34798) (end 2.99974 0.34798) (layer "F.SilkS") (width 0.254) (tstamp 8a9f7e89-5de9-48ae-8c96-909f470cbaad))
  (fp_line (start -1.4986 4.59994) (end 1.4986 4.59994) (layer "F.SilkS") (width 0.254) (tstamp b1428d55-c985-40db-b985-5ae1270c04ad))
  (fp_line (start -2.99974 0.34798) (end -2.2479 0.34798) (layer "F.SilkS") (width 0.254) (tstamp bdb926fd-db28-4a25-8696-45ff5cbe5468))
  (fp_line (start -2.99974 1.99898) (end -2.99974 0.34798) (layer "F.SilkS") (width 0.254) (tstamp ca4edafa-e6ea-47fd-ab0e-60ebca7120e3))
  (fp_line (start 3.99796 7.99846) (end 3.99796 5.99948) (layer "F.SilkS") (width 0.3048) (tstamp e2551abf-f309-428a-8bfa-3d6485fb323c))
  (fp_line (start -1.99898 10.16) (end -1.99898 7.99846) (layer "F.SilkS") (width 0.3048) (tstamp f1e9a696-32ce-4a42-a59f-52913a428a9d))
  (fp_circle (center -2.49936 -0.29972) (end -2.49936 -0.43942) (layer "F.SilkS") (width 0.39878) (fill none) (tstamp 9e68a106-8bb7-402a-bd08-0e95c1714ed5))
  (fp_line (start -3.99796 7.99846) (end -3.99796 5.99948) (layer "Dwgs.User") (width 0.06604) (tstamp 16d25789-4435-466e-be36-1e2d31be8e2c))
  (fp_line (start -3.99796 5.99948) (end 3.99796 5.99948) (layer "Dwgs.User") (width 0.06604) (tstamp 22987868-6f08-431b-977a-b10653866c5d))
  (fp_line (start -3.99796 9.99998) (end -1.99898 9.99998) (layer "Dwgs.User") (width 0.06604) (tstamp 26b0cf56-2ec9-4dc1-9ad6-9ec162049b0b))
  (fp_line (start -1.99898 9.99998) (end -1.99898 7.99846) (layer "Dwgs.User") (width 0.06604) (tstamp 46bb371e-a3f5-4b23-9c18-f8f37a3fb1a1))
  (fp_line (start -3.99796 7.99846) (end -1.99898 7.99846) (layer "Dwgs.User") (width 0.06604) (tstamp 7771f9ad-f773-4f16-9422-1e576fcd371d))
  (fp_line (start 3.99796 7.99846) (end 3.99796 5.99948) (layer "Dwgs.User") (width 0.06604) (tstamp 7d5adae1-372f-408f-a831-44de537ef533))
  (fp_line (start -3.99796 7.99846) (end 3.99796 7.99846) (layer "Dwgs.User") (width 0.06604) (tstamp a0161dcb-9576-4657-bda6-69830a084875))
  (fp_line (start -3.99796 9.99998) (end -3.99796 7.99846) (layer "Dwgs.User") (width 0.06604) (tstamp a6719b3d-f505-4b75-a7b5-684ad8193d9e))
  (pad "1" smd rect (at -1.4986 0) (size 0.59944 1.34874) (layers "F.Cu" "F.Paste" "F.Mask")
    (solder_mask_margin 0.1016) (tstamp 5da12074-fdc8-41f6-8014-848d12c52f21))
  (pad "2" smd rect (at -0.49784 0) (size 0.59944 1.34874) (layers "F.Cu" "F.Paste" "F.Mask")
    (solder_mask_margin 0.1016) (tstamp b4809ba2-a93e-403e-8c49-703559d7bb7c))
  (pad "3" smd rect (at 0.49784 0) (size 0.59944 1.34874) (layers "F.Cu" "F.Paste" "F.Mask")
    (solder_mask_margin 0.1016) (tstamp 7aed675e-8815-4543-8730-5a04073d7b16))
  (pad "4" smd rect (at 1.4986 0) (size 0.59944 1.34874) (layers "F.Cu" "F.Paste" "F.Mask")
    (solder_mask_margin 0.1016) (tstamp 9b643979-2a05-459e-8ef2-934c7940a86a))
  (pad "NC1" smd rect (at 2.79908 3.67284) (size 1.19888 1.99898) (layers "F.Cu" "F.Paste" "F.Mask")
    (solder_mask_margin 0.1016) (tstamp 3c22cc3f-5c26-4433-98fd-6aa6d9a12cca))
  (pad "NC2" smd rect (at -2.79908 3.67284) (size 1.19888 1.99898) (layers "F.Cu" "F.Paste" "F.Mask")
    (solder_mask_margin 0.1016) (tstamp a1958a0e-4aca-4af1-9ff9-c4aa07a1b08c))
)
