(kicad_sch (version 20210621) (generator eeschema)

  (uuid 58f6a705-931c-4ffb-bbc3-3aebbf2920f3)

  (paper "A4")

  (title_block
    (title "Qwiic power micro single")
    (date "2021-01-22")
  )

  (lib_symbols
    (symbol "Connector:USB_B_Micro" (pin_names (offset 1.016)) (in_bom yes) (on_board yes)
      (property "Reference" "J" (id 0) (at -5.08 11.43 0)
        (effects (font (size 1.27 1.27)) (justify left))
      )
      (property "Value" "USB_B_Micro" (id 1) (at -5.08 8.89 0)
        (effects (font (size 1.27 1.27)) (justify left))
      )
      (property "Footprint" "" (id 2) (at 3.81 -1.27 0)
        (effects (font (size 1.27 1.27)) hide)
      )
      (property "Datasheet" "~" (id 3) (at 3.81 -1.27 0)
        (effects (font (size 1.27 1.27)) hide)
      )
      (property "ki_keywords" "connector USB micro" (id 4) (at 0 0 0)
        (effects (font (size 1.27 1.27)) hide)
      )
      (property "ki_description" "USB Micro Type B connector" (id 5) (at 0 0 0)
        (effects (font (size 1.27 1.27)) hide)
      )
      (property "ki_fp_filters" "USB*" (id 6) (at 0 0 0)
        (effects (font (size 1.27 1.27)) hide)
      )
      (symbol "USB_B_Micro_0_1"
        (circle (center -3.81 2.159) (radius 0.635) (stroke (width 0.254)) (fill (type outline)))
        (circle (center -0.635 3.429) (radius 0.381) (stroke (width 0.254)) (fill (type outline)))
        (rectangle (start -0.127 -7.62) (end 0.127 -6.858)
          (stroke (width 0)) (fill (type none))
        )
        (rectangle (start 5.08 -5.207) (end 4.318 -4.953)
          (stroke (width 0)) (fill (type none))
        )
        (rectangle (start 5.08 -2.667) (end 4.318 -2.413)
          (stroke (width 0)) (fill (type none))
        )
        (rectangle (start 5.08 -0.127) (end 4.318 0.127)
          (stroke (width 0)) (fill (type none))
        )
        (rectangle (start 5.08 4.953) (end 4.318 5.207)
          (stroke (width 0)) (fill (type none))
        )
        (rectangle (start 0.254 1.27) (end -0.508 0.508)
          (stroke (width 0.254)) (fill (type outline))
        )
        (rectangle (start -5.08 -7.62) (end 5.08 7.62)
          (stroke (width 0.254)) (fill (type background))
        )
        (polyline
          (pts
            (xy -1.905 2.159)
            (xy 0.635 2.159)
          )
          (stroke (width 0.254)) (fill (type none))
        )
        (polyline
          (pts
            (xy -3.175 2.159)
            (xy -2.54 2.159)
            (xy -1.27 3.429)
            (xy -0.635 3.429)
          )
          (stroke (width 0.254)) (fill (type none))
        )
        (polyline
          (pts
            (xy -2.54 2.159)
            (xy -1.905 2.159)
            (xy -1.27 0.889)
            (xy 0 0.889)
          )
          (stroke (width 0.254)) (fill (type none))
        )
        (polyline
          (pts
            (xy -4.699 5.842)
            (xy -4.699 5.588)
            (xy -4.445 4.826)
            (xy -4.445 4.572)
            (xy -1.651 4.572)
            (xy -1.651 4.826)
            (xy -1.397 5.588)
            (xy -1.397 5.842)
            (xy -4.699 5.842)
          )
          (stroke (width 0)) (fill (type none))
        )
        (polyline
          (pts
            (xy 0.635 2.794)
            (xy 0.635 1.524)
            (xy 1.905 2.159)
            (xy 0.635 2.794)
          )
          (stroke (width 0.254)) (fill (type outline))
        )
        (polyline
          (pts
            (xy -4.318 5.588)
            (xy -1.778 5.588)
            (xy -2.032 4.826)
            (xy -4.064 4.826)
            (xy -4.318 5.588)
          )
          (stroke (width 0)) (fill (type outline))
        )
      )
      (symbol "USB_B_Micro_1_1"
        (pin power_out line (at 7.62 5.08 180) (length 2.54)
          (name "VBUS" (effects (font (size 1.27 1.27))))
          (number "1" (effects (font (size 1.27 1.27))))
        )
        (pin bidirectional line (at 7.62 -2.54 180) (length 2.54)
          (name "D-" (effects (font (size 1.27 1.27))))
          (number "2" (effects (font (size 1.27 1.27))))
        )
        (pin bidirectional line (at 7.62 0 180) (length 2.54)
          (name "D+" (effects (font (size 1.27 1.27))))
          (number "3" (effects (font (size 1.27 1.27))))
        )
        (pin passive line (at 7.62 -5.08 180) (length 2.54)
          (name "ID" (effects (font (size 1.27 1.27))))
          (number "4" (effects (font (size 1.27 1.27))))
        )
        (pin power_out line (at 0 -10.16 90) (length 2.54)
          (name "GND" (effects (font (size 1.27 1.27))))
          (number "5" (effects (font (size 1.27 1.27))))
        )
        (pin passive line (at -2.54 -10.16 90) (length 2.54)
          (name "Shield" (effects (font (size 1.27 1.27))))
          (number "6" (effects (font (size 1.27 1.27))))
        )
      )
    )
    (symbol "Device:C_Polarized" (pin_numbers hide) (pin_names (offset 0.254)) (in_bom yes) (on_board yes)
      (property "Reference" "C" (id 0) (at 0.635 2.54 0)
        (effects (font (size 1.27 1.27)) (justify left))
      )
      (property "Value" "C_Polarized" (id 1) (at 0.635 -2.54 0)
        (effects (font (size 1.27 1.27)) (justify left))
      )
      (property "Footprint" "" (id 2) (at 0.9652 -3.81 0)
        (effects (font (size 1.27 1.27)) hide)
      )
      (property "Datasheet" "~" (id 3) (at 0 0 0)
        (effects (font (size 1.27 1.27)) hide)
      )
      (property "ki_keywords" "cap capacitor" (id 4) (at 0 0 0)
        (effects (font (size 1.27 1.27)) hide)
      )
      (property "ki_description" "Polarized capacitor" (id 5) (at 0 0 0)
        (effects (font (size 1.27 1.27)) hide)
      )
      (property "ki_fp_filters" "CP_*" (id 6) (at 0 0 0)
        (effects (font (size 1.27 1.27)) hide)
      )
      (symbol "C_Polarized_0_1"
        (rectangle (start -2.286 0.508) (end 2.286 1.016)
          (stroke (width 0)) (fill (type none))
        )
        (rectangle (start 2.286 -0.508) (end -2.286 -1.016)
          (stroke (width 0)) (fill (type outline))
        )
        (polyline
          (pts
            (xy -1.778 2.286)
            (xy -0.762 2.286)
          )
          (stroke (width 0)) (fill (type none))
        )
        (polyline
          (pts
            (xy -1.27 2.794)
            (xy -1.27 1.778)
          )
          (stroke (width 0)) (fill (type none))
        )
      )
      (symbol "C_Polarized_1_1"
        (pin passive line (at 0 3.81 270) (length 2.794)
          (name "~" (effects (font (size 1.27 1.27))))
          (number "1" (effects (font (size 1.27 1.27))))
        )
        (pin passive line (at 0 -3.81 90) (length 2.794)
          (name "~" (effects (font (size 1.27 1.27))))
          (number "2" (effects (font (size 1.27 1.27))))
        )
      )
    )
    (symbol "Regulator_Linear:TLV75533PDBV" (pin_names (offset 0.254)) (in_bom yes) (on_board yes)
      (property "Reference" "U" (id 0) (at -3.81 5.715 0)
        (effects (font (size 1.27 1.27)))
      )
      (property "Value" "TLV75533PDBV" (id 1) (at 0 5.715 0)
        (effects (font (size 1.27 1.27)) (justify left))
      )
      (property "Footprint" "Package_TO_SOT_SMD:SOT-23-5" (id 2) (at 0 8.255 0)
        (effects (font (size 1.27 1.27) italic) hide)
      )
      (property "Datasheet" "http://www.ti.com/lit/ds/symlink/tlv755p.pdf" (id 3) (at 0 1.27 0)
        (effects (font (size 1.27 1.27)) hide)
      )
      (property "ki_keywords" "LDO Regulator Fixed Positive" (id 4) (at 0 0 0)
        (effects (font (size 1.27 1.27)) hide)
      )
      (property "ki_description" "500mA Low Dropout Voltage Regulator, Fixed Output 3.3V, SOT-23-5" (id 5) (at 0 0 0)
        (effects (font (size 1.27 1.27)) hide)
      )
      (property "ki_fp_filters" "SOT?23*" (id 6) (at 0 0 0)
        (effects (font (size 1.27 1.27)) hide)
      )
      (symbol "TLV75533PDBV_0_1"
        (rectangle (start -5.08 4.445) (end 5.08 -5.08)
          (stroke (width 0.254)) (fill (type background))
        )
      )
      (symbol "TLV75533PDBV_1_1"
        (pin power_in line (at -7.62 2.54 0) (length 2.54)
          (name "IN" (effects (font (size 1.27 1.27))))
          (number "1" (effects (font (size 1.27 1.27))))
        )
        (pin power_in line (at 0 -7.62 90) (length 2.54)
          (name "GND" (effects (font (size 1.27 1.27))))
          (number "2" (effects (font (size 1.27 1.27))))
        )
        (pin input line (at -7.62 0 0) (length 2.54)
          (name "EN" (effects (font (size 1.27 1.27))))
          (number "3" (effects (font (size 1.27 1.27))))
        )
        (pin no_connect line (at 5.08 0 180) (length 2.54) hide
          (name "NC" (effects (font (size 1.27 1.27))))
          (number "4" (effects (font (size 1.27 1.27))))
        )
        (pin power_out line (at 7.62 2.54 180) (length 2.54)
          (name "OUT" (effects (font (size 1.27 1.27))))
          (number "5" (effects (font (size 1.27 1.27))))
        )
      )
    )
    (symbol "SparkFun-Capacitors:1.0UF-0402-16V-10%" (pin_numbers hide) (pin_names (offset 1.016) hide) (in_bom yes) (on_board yes)
      (property "Reference" "C" (id 0) (at 1.524 2.921 0)
        (effects (font (size 1.143 1.143)) (justify left bottom))
      )
      (property "Value" "1.0UF-0402-16V-10%" (id 1) (at 1.524 -2.159 0)
        (effects (font (size 1.143 1.143)) (justify left bottom))
      )
      (property "Footprint" "0402" (id 2) (at 0 6.35 0)
        (effects (font (size 0.508 0.508)) hide)
      )
      (property "Datasheet" "" (id 3) (at 0 0 0)
        (effects (font (size 1.27 1.27)) hide)
      )
      (property "Field4" "CAP-12417" (id 4) (at 0 7.62 0)
        (effects (font (size 1.524 1.524)))
      )
      (property "ki_locked" "" (id 5) (at 0 0 0)
        (effects (font (size 1.27 1.27)))
      )
      (property "ki_keywords" "PROD_ID:CAP-12417" (id 6) (at 0 0 0)
        (effects (font (size 1.27 1.27)) hide)
      )
      (property "ki_description" "1uF ceramic capacitors A capacitor is a passive two-terminal electrical component used to store electrical energy temporarily in an electric field." (id 7) (at 0 0 0)
        (effects (font (size 1.27 1.27)) hide)
      )
      (property "ki_fp_filters" "*0402* *0603* *0805* *0805* *1206*" (id 8) (at 0 0 0)
        (effects (font (size 1.27 1.27)) hide)
      )
      (symbol "1.0UF-0402-16V-10%_1_0"
        (polyline
          (pts
            (xy 0 0)
            (xy 0 0.508)
          )
          (stroke (width 0)) (fill (type none))
        )
        (polyline
          (pts
            (xy 0 2.54)
            (xy 0 2.032)
          )
          (stroke (width 0)) (fill (type none))
        )
      )
      (symbol "1.0UF-0402-16V-10%_1_1"
        (rectangle (start -2.032 0.508) (end 2.032 1.016)
          (stroke (width 0)) (fill (type outline))
        )
        (rectangle (start -2.032 1.524) (end 2.032 2.032)
          (stroke (width 0)) (fill (type outline))
        )
        (pin passive line (at 0 5.08 270) (length 2.54)
          (name "1" (effects (font (size 1.016 1.016))))
          (number "1" (effects (font (size 1.016 1.016))))
        )
        (pin passive line (at 0 -2.54 90) (length 2.54)
          (name "2" (effects (font (size 1.016 1.016))))
          (number "2" (effects (font (size 1.016 1.016))))
        )
      )
    )
    (symbol "SparkFun-Connectors:QWIIC_CONNECTORJS-1MM" (pin_numbers hide) (pin_names (offset 1.016)) (in_bom yes) (on_board yes)
      (property "Reference" "J" (id 0) (at -5.08 10.16 0)
        (effects (font (size 1.143 1.143)) (justify left bottom))
      )
      (property "Value" "QWIIC_CONNECTORJS-1MM" (id 1) (at -5.08 -3.81 0)
        (effects (font (size 1.143 1.143)) (justify left bottom))
      )
      (property "Footprint" "Connectors:1X04_1MM_RA" (id 2) (at 0 12.7 0)
        (effects (font (size 0.508 0.508)) hide)
      )
      (property "Datasheet" "https://www.jst-mfg.com/product/pdf/eng/eSH.pdf" (id 3) (at 0 0 0)
        (effects (font (size 1.27 1.27)) hide)
      )
      (property "Manufacturer" "JST" (id 4) (at 0 0 0)
        (effects (font (size 1.27 1.27)) hide)
      )
      (property "digikeypn" "455-1804-1-ND" (id 5) (at 0 0 0)
        (effects (font (size 1.27 1.27)) hide)
      )
      (property "LCSC" "C160404" (id 6) (at 0 0 0)
        (effects (font (size 1.27 1.27)) hide)
      )
      (property "ki_keywords" "PROD_ID:XXX-00000" (id 7) (at 0 0 0)
        (effects (font (size 1.27 1.27)) hide)
      )
      (property "ki_description" "SparkFun I<sup>2</sup>C Standard Qwiic Connector" (id 8) (at 0 0 0)
        (effects (font (size 1.27 1.27)) hide)
      )
      (property "ki_fp_filters" "*1X04_1MM_RA* *1X04_1MM_RA_STRESSRELIEF*" (id 9) (at 0 0 0)
        (effects (font (size 1.27 1.27)) hide)
      )
      (symbol "QWIIC_CONNECTORJS-1MM_1_0"
        (rectangle (start 0 -1.27) (end -5.08 8.89)
          (stroke (width 0)) (fill (type background))
        )
      )
      (symbol "QWIIC_CONNECTORJS-1MM_1_1"
        (pin power_in line (at 2.54 0 180) (length 2.54)
          (name "GND" (effects (font (size 1.016 1.016))))
          (number "1" (effects (font (size 1.016 1.016))))
        )
        (pin power_in line (at 2.54 2.54 180) (length 2.54)
          (name "VCC" (effects (font (size 1.016 1.016))))
          (number "2" (effects (font (size 1.016 1.016))))
        )
        (pin passive line (at 2.54 5.08 180) (length 2.54)
          (name "SDA" (effects (font (size 1.016 1.016))))
          (number "3" (effects (font (size 1.016 1.016))))
        )
        (pin passive line (at 2.54 7.62 180) (length 2.54)
          (name "SCL" (effects (font (size 1.016 1.016))))
          (number "4" (effects (font (size 1.016 1.016))))
        )
      )
    )
    (symbol "power:+3V3" (power) (pin_names (offset 0)) (in_bom yes) (on_board yes)
      (property "Reference" "#PWR" (id 0) (at 0 -3.81 0)
        (effects (font (size 1.27 1.27)) hide)
      )
      (property "Value" "+3V3" (id 1) (at 0 3.556 0)
        (effects (font (size 1.27 1.27)))
      )
      (property "Footprint" "" (id 2) (at 0 0 0)
        (effects (font (size 1.27 1.27)) hide)
      )
      (property "Datasheet" "" (id 3) (at 0 0 0)
        (effects (font (size 1.27 1.27)) hide)
      )
      (property "ki_keywords" "power-flag" (id 4) (at 0 0 0)
        (effects (font (size 1.27 1.27)) hide)
      )
      (property "ki_description" "Power symbol creates a global label with name \"+3V3\"" (id 5) (at 0 0 0)
        (effects (font (size 1.27 1.27)) hide)
      )
      (symbol "+3V3_0_1"
        (polyline
          (pts
            (xy -0.762 1.27)
            (xy 0 2.54)
          )
          (stroke (width 0)) (fill (type none))
        )
        (polyline
          (pts
            (xy 0 0)
            (xy 0 2.54)
          )
          (stroke (width 0)) (fill (type none))
        )
        (polyline
          (pts
            (xy 0 2.54)
            (xy 0.762 1.27)
          )
          (stroke (width 0)) (fill (type none))
        )
      )
      (symbol "+3V3_1_1"
        (pin power_in line (at 0 0 90) (length 0) hide
          (name "+3V3" (effects (font (size 1.27 1.27))))
          (number "1" (effects (font (size 1.27 1.27))))
        )
      )
    )
    (symbol "power:GND" (power) (pin_names (offset 0)) (in_bom yes) (on_board yes)
      (property "Reference" "#PWR" (id 0) (at 0 -6.35 0)
        (effects (font (size 1.27 1.27)) hide)
      )
      (property "Value" "GND" (id 1) (at 0 -3.81 0)
        (effects (font (size 1.27 1.27)))
      )
      (property "Footprint" "" (id 2) (at 0 0 0)
        (effects (font (size 1.27 1.27)) hide)
      )
      (property "Datasheet" "" (id 3) (at 0 0 0)
        (effects (font (size 1.27 1.27)) hide)
      )
      (property "ki_keywords" "power-flag" (id 4) (at 0 0 0)
        (effects (font (size 1.27 1.27)) hide)
      )
      (property "ki_description" "Power symbol creates a global label with name \"GND\" , ground" (id 5) (at 0 0 0)
        (effects (font (size 1.27 1.27)) hide)
      )
      (symbol "GND_0_1"
        (polyline
          (pts
            (xy 0 0)
            (xy 0 -1.27)
            (xy 1.27 -1.27)
            (xy 0 -2.54)
            (xy -1.27 -1.27)
            (xy 0 -1.27)
          )
          (stroke (width 0)) (fill (type none))
        )
      )
      (symbol "GND_1_1"
        (pin power_in line (at 0 0 270) (length 0) hide
          (name "GND" (effects (font (size 1.27 1.27))))
          (number "1" (effects (font (size 1.27 1.27))))
        )
      )
    )
    (symbol "power:VBUS" (power) (pin_names (offset 0)) (in_bom yes) (on_board yes)
      (property "Reference" "#PWR" (id 0) (at 0 -3.81 0)
        (effects (font (size 1.27 1.27)) hide)
      )
      (property "Value" "VBUS" (id 1) (at 0 3.81 0)
        (effects (font (size 1.27 1.27)))
      )
      (property "Footprint" "" (id 2) (at 0 0 0)
        (effects (font (size 1.27 1.27)) hide)
      )
      (property "Datasheet" "" (id 3) (at 0 0 0)
        (effects (font (size 1.27 1.27)) hide)
      )
      (property "ki_keywords" "power-flag" (id 4) (at 0 0 0)
        (effects (font (size 1.27 1.27)) hide)
      )
      (property "ki_description" "Power symbol creates a global label with name \"VBUS\"" (id 5) (at 0 0 0)
        (effects (font (size 1.27 1.27)) hide)
      )
      (symbol "VBUS_0_1"
        (polyline
          (pts
            (xy -0.762 1.27)
            (xy 0 2.54)
          )
          (stroke (width 0)) (fill (type none))
        )
        (polyline
          (pts
            (xy 0 0)
            (xy 0 2.54)
          )
          (stroke (width 0)) (fill (type none))
        )
        (polyline
          (pts
            (xy 0 2.54)
            (xy 0.762 1.27)
          )
          (stroke (width 0)) (fill (type none))
        )
      )
      (symbol "VBUS_1_1"
        (pin power_in line (at 0 0 90) (length 0) hide
          (name "VBUS" (effects (font (size 1.27 1.27))))
          (number "1" (effects (font (size 1.27 1.27))))
        )
      )
    )
  )

  (junction (at 74.93 35.56) (diameter 1.016) (color 0 0 0 0))
  (junction (at 78.74 35.56) (diameter 1.016) (color 0 0 0 0))
  (junction (at 86.36 48.26) (diameter 1.016) (color 0 0 0 0))
  (junction (at 97.79 35.56) (diameter 1.016) (color 0 0 0 0))

  (no_connect (at 31.75 48.26) (uuid ffa2e20c-88f8-4fe9-89e2-9cbd40965dc6))
  (no_connect (at 41.91 38.1) (uuid e461159e-66fa-4e46-9a76-3c494161347a))
  (no_connect (at 41.91 40.64) (uuid b1f94ba1-3a56-4ccf-bff3-c09fa91d43cf))
  (no_connect (at 41.91 43.18) (uuid a48853dc-ae20-412e-9073-84ca6bde891c))
  (no_connect (at 137.16 38.1) (uuid 585acede-7e30-45ca-9f5e-bd93456fc02d))
  (no_connect (at 137.16 40.64) (uuid 650c3545-67d4-4f48-94cb-b32b40599a1a))

  (wire (pts (xy 34.29 48.26) (xy 34.29 52.07))
    (stroke (width 0) (type solid) (color 0 0 0 0))
    (uuid 96fce50d-1af3-4fa4-b1b2-6068a9079fdd)
  )
  (wire (pts (xy 41.91 33.02) (xy 48.26 33.02))
    (stroke (width 0) (type solid) (color 0 0 0 0))
    (uuid a167d5d3-a55f-42f2-bda7-6ceb8e7cc14f)
  )
  (wire (pts (xy 74.93 35.56) (xy 72.39 35.56))
    (stroke (width 0) (type solid) (color 0 0 0 0))
    (uuid 37ca626b-018c-4ccd-974c-0219443e96f0)
  )
  (wire (pts (xy 74.93 38.1) (xy 74.93 35.56))
    (stroke (width 0) (type solid) (color 0 0 0 0))
    (uuid 9d4c11bd-896f-48b8-a87e-4ea2d0bf1a53)
  )
  (wire (pts (xy 74.93 45.72) (xy 74.93 48.26))
    (stroke (width 0) (type solid) (color 0 0 0 0))
    (uuid be349f0a-0c98-464f-9f4b-fe47df4f4495)
  )
  (wire (pts (xy 74.93 48.26) (xy 86.36 48.26))
    (stroke (width 0) (type solid) (color 0 0 0 0))
    (uuid 55a0fb8c-a983-43c5-a067-78d91e309b63)
  )
  (wire (pts (xy 78.74 35.56) (xy 74.93 35.56))
    (stroke (width 0) (type solid) (color 0 0 0 0))
    (uuid 043be9c8-e7a9-453a-a920-3908c27fbabd)
  )
  (wire (pts (xy 78.74 38.1) (xy 78.74 35.56))
    (stroke (width 0) (type solid) (color 0 0 0 0))
    (uuid db8a993e-1a9e-4b37-a534-94e325b3af65)
  )
  (wire (pts (xy 86.36 45.72) (xy 86.36 48.26))
    (stroke (width 0) (type solid) (color 0 0 0 0))
    (uuid 74857eb6-e11f-43a8-87a7-3f401c7beb4c)
  )
  (wire (pts (xy 86.36 48.26) (xy 86.36 49.53))
    (stroke (width 0) (type solid) (color 0 0 0 0))
    (uuid 7037d676-1df1-4cc5-a6b8-4ee7ceb1e2e0)
  )
  (wire (pts (xy 93.98 35.56) (xy 97.79 35.56))
    (stroke (width 0) (type solid) (color 0 0 0 0))
    (uuid 6970a33c-ed4f-4ba7-b44f-b7c78b5cd721)
  )
  (wire (pts (xy 97.79 35.56) (xy 100.33 35.56))
    (stroke (width 0) (type solid) (color 0 0 0 0))
    (uuid 1ec0f9bc-059e-4688-84b5-004cac473f6f)
  )
  (wire (pts (xy 97.79 38.1) (xy 97.79 35.56))
    (stroke (width 0) (type solid) (color 0 0 0 0))
    (uuid baf2e2ce-9bfd-420c-b1b8-b1d7dc548aca)
  )
  (wire (pts (xy 97.79 45.72) (xy 97.79 48.26))
    (stroke (width 0) (type solid) (color 0 0 0 0))
    (uuid 5f9a2c44-5f31-4bef-88cb-ef4d5941aec8)
  )
  (wire (pts (xy 97.79 48.26) (xy 86.36 48.26))
    (stroke (width 0) (type solid) (color 0 0 0 0))
    (uuid f25933be-1924-40ce-a11a-e0f290a9fa4f)
  )
  (wire (pts (xy 137.16 43.18) (xy 143.51 43.18))
    (stroke (width 0) (type solid) (color 0 0 0 0))
    (uuid 9babd464-c2f4-4b86-92f6-0c8addadb9d8)
  )
  (wire (pts (xy 137.16 45.72) (xy 143.51 45.72))
    (stroke (width 0) (type solid) (color 0 0 0 0))
    (uuid d8e4d15e-9f1c-4899-98df-d619604756af)
  )

  (symbol (lib_id "power:VBUS") (at 48.26 33.02 0) (unit 1)
    (in_bom yes) (on_board yes)
    (uuid 00000000-0000-0000-0000-0000600b3a76)
    (property "Reference" "#PWR0101" (id 0) (at 48.26 36.83 0)
      (effects (font (size 1.27 1.27)) hide)
    )
    (property "Value" "VBUS" (id 1) (at 48.641 28.6258 0))
    (property "Footprint" "" (id 2) (at 48.26 33.02 0)
      (effects (font (size 1.27 1.27)) hide)
    )
    (property "Datasheet" "" (id 3) (at 48.26 33.02 0)
      (effects (font (size 1.27 1.27)) hide)
    )
    (pin "1" (uuid 048ea106-4fa1-4084-ab88-0c9bdfa25245))
  )

  (symbol (lib_id "power:VBUS") (at 72.39 35.56 0) (unit 1)
    (in_bom yes) (on_board yes)
    (uuid 00000000-0000-0000-0000-0000600b5790)
    (property "Reference" "#PWR0103" (id 0) (at 72.39 39.37 0)
      (effects (font (size 1.27 1.27)) hide)
    )
    (property "Value" "VBUS" (id 1) (at 72.771 31.1658 0))
    (property "Footprint" "" (id 2) (at 72.39 35.56 0)
      (effects (font (size 1.27 1.27)) hide)
    )
    (property "Datasheet" "" (id 3) (at 72.39 35.56 0)
      (effects (font (size 1.27 1.27)) hide)
    )
    (pin "1" (uuid d5f2c2c3-0ac4-48a3-b5b2-1ab06e8af30c))
  )

  (symbol (lib_id "power:+3V3") (at 100.33 35.56 0) (unit 1)
    (in_bom yes) (on_board yes)
    (uuid 00000000-0000-0000-0000-0000600b8398)
    (property "Reference" "#PWR0105" (id 0) (at 100.33 39.37 0)
      (effects (font (size 1.27 1.27)) hide)
    )
    (property "Value" "+3V3" (id 1) (at 100.711 31.1658 0))
    (property "Footprint" "" (id 2) (at 100.33 35.56 0)
      (effects (font (size 1.27 1.27)) hide)
    )
    (property "Datasheet" "" (id 3) (at 100.33 35.56 0)
      (effects (font (size 1.27 1.27)) hide)
    )
    (pin "1" (uuid 9da5e213-14d4-4ced-bdaf-d66a89f5b0e4))
  )

  (symbol (lib_id "power:+3V3") (at 143.51 43.18 0) (unit 1)
    (in_bom yes) (on_board yes)
    (uuid 00000000-0000-0000-0000-0000600b8f94)
    (property "Reference" "#PWR0106" (id 0) (at 143.51 46.99 0)
      (effects (font (size 1.27 1.27)) hide)
    )
    (property "Value" "+3V3" (id 1) (at 143.891 38.7858 0))
    (property "Footprint" "" (id 2) (at 143.51 43.18 0)
      (effects (font (size 1.27 1.27)) hide)
    )
    (property "Datasheet" "" (id 3) (at 143.51 43.18 0)
      (effects (font (size 1.27 1.27)) hide)
    )
    (pin "1" (uuid 5d2e468e-968c-47a6-8636-eed31679d311))
  )

  (symbol (lib_id "power:GND") (at 34.29 52.07 0) (unit 1)
    (in_bom yes) (on_board yes)
    (uuid 00000000-0000-0000-0000-0000600b4982)
    (property "Reference" "#PWR0102" (id 0) (at 34.29 58.42 0)
      (effects (font (size 1.27 1.27)) hide)
    )
    (property "Value" "GND" (id 1) (at 34.417 56.4642 0))
    (property "Footprint" "" (id 2) (at 34.29 52.07 0)
      (effects (font (size 1.27 1.27)) hide)
    )
    (property "Datasheet" "" (id 3) (at 34.29 52.07 0)
      (effects (font (size 1.27 1.27)) hide)
    )
    (pin "1" (uuid 115fdf06-f52a-49f1-8d1e-5c97b743a7bc))
  )

  (symbol (lib_id "power:GND") (at 86.36 49.53 0) (unit 1)
    (in_bom yes) (on_board yes)
    (uuid 00000000-0000-0000-0000-0000600b62db)
    (property "Reference" "#PWR0104" (id 0) (at 86.36 55.88 0)
      (effects (font (size 1.27 1.27)) hide)
    )
    (property "Value" "GND" (id 1) (at 86.487 53.9242 0))
    (property "Footprint" "" (id 2) (at 86.36 49.53 0)
      (effects (font (size 1.27 1.27)) hide)
    )
    (property "Datasheet" "" (id 3) (at 86.36 49.53 0)
      (effects (font (size 1.27 1.27)) hide)
    )
    (pin "1" (uuid b53687ae-3e0d-4c02-8e0e-bb681dac176f))
  )

  (symbol (lib_id "power:GND") (at 143.51 45.72 0) (unit 1)
    (in_bom yes) (on_board yes)
    (uuid 00000000-0000-0000-0000-0000600bba49)
    (property "Reference" "#PWR0107" (id 0) (at 143.51 52.07 0)
      (effects (font (size 1.27 1.27)) hide)
    )
    (property "Value" "GND" (id 1) (at 143.637 50.1142 0))
    (property "Footprint" "" (id 2) (at 143.51 45.72 0)
      (effects (font (size 1.27 1.27)) hide)
    )
    (property "Datasheet" "" (id 3) (at 143.51 45.72 0)
      (effects (font (size 1.27 1.27)) hide)
    )
    (pin "1" (uuid 57629cc0-358d-479f-9a91-57f426f66627))
  )

  (symbol (lib_id "SparkFun-Capacitors:1.0UF-0402-16V-10%") (at 74.93 43.18 0) (unit 1)
    (in_bom yes) (on_board yes)
    (uuid 00000000-0000-0000-0000-0000600bd2fe)
    (property "Reference" "C1" (id 0) (at 69.85 39.37 0)
      (effects (font (size 1.143 1.143)) (justify left))
    )
    (property "Value" "1.0uF" (id 1) (at 67.31 41.91 0)
      (effects (font (size 1.143 1.143)) (justify left))
    )
    (property "Footprint" "Capacitor_SMD:C_0402_1005Metric" (id 2) (at 74.93 36.83 0)
      (effects (font (size 0.508 0.508)) hide)
    )
    (property "Datasheet" "" (id 3) (at 74.93 43.18 0)
      (effects (font (size 1.27 1.27)) hide)
    )
    (property "Field4" "CAP-12417" (id 4) (at 59.69 44.45 0)
      (effects (font (size 1.524 1.524)) (justify left) hide)
    )
    (pin "1" (uuid 4c8d20e3-4dac-47c0-8def-cc4d46de4a54))
    (pin "2" (uuid aef71fd7-245f-4b99-9821-35155c984e0a))
  )

  (symbol (lib_id "Device:C_Polarized") (at 97.79 41.91 0) (unit 1)
    (in_bom yes) (on_board yes) (fields_autoplaced)
    (uuid 55fcaad2-9fcb-48e3-a841-2689be35a4a5)
    (property "Reference" "C2" (id 0) (at 100.7111 41.0015 0)
      (effects (font (size 1.27 1.27)) (justify left))
    )
    (property "Value" "100 u" (id 1) (at 100.7111 43.7766 0)
      (effects (font (size 1.27 1.27)) (justify left))
    )
    (property "Footprint" "Capacitor_Tantalum_SMD:CP_EIA-1608-08_AVX-J" (id 2) (at 98.7552 45.72 0)
      (effects (font (size 1.27 1.27)) hide)
    )
    (property "Datasheet" "~" (id 3) (at 97.79 41.91 0)
      (effects (font (size 1.27 1.27)) hide)
    )
    (pin "1" (uuid 8956a08c-5006-492c-ac8f-09e3b330c011))
    (pin "2" (uuid 7afa2b09-5304-42be-96b6-0842b816a767))
  )

  (symbol (lib_id "SparkFun-Connectors:QWIIC_CONNECTORJS-1MM") (at 134.62 45.72 0) (unit 1)
    (in_bom yes) (on_board yes)
    (uuid 00000000-0000-0000-0000-00006017c5b6)
    (property "Reference" "QWIIC1" (id 0) (at 133.5532 30.226 0)
      (effects (font (size 1.143 1.143)))
    )
    (property "Value" "QWIIC_CONNECTORJS-1MM" (id 1) (at 133.5532 32.3596 0)
      (effects (font (size 1.143 1.143)))
    )
    (property "Footprint" "Connectors:1X04_1MM_RA" (id 2) (at 134.62 33.02 0)
      (effects (font (size 0.508 0.508)) hide)
    )
    (property "Datasheet" "https://www.jst-mfg.com/product/pdf/eng/eSH.pdf" (id 3) (at 134.62 45.72 0)
      (effects (font (size 1.27 1.27)) hide)
    )
    (property "Field4" "CONN-13694" (id 4) (at 133.5532 34.7726 0)
      (effects (font (size 1.524 1.524)))
    )
    (property "Manufacturer" "JST" (id 5) (at 134.62 45.72 0)
      (effects (font (size 1.27 1.27)) hide)
    )
    (property "digikeypn" "455-1804-1-ND" (id 6) (at 134.62 45.72 0)
      (effects (font (size 1.27 1.27)) hide)
    )
    (property "lcscpn" "C160404" (id 7) (at 134.62 45.72 0)
      (effects (font (size 1.27 1.27)) hide)
    )
    (property "LCSC" "C160404" (id 8) (at 134.62 45.72 0)
      (effects (font (size 1.27 1.27)) hide)
    )
    (pin "1" (uuid 54a49373-0ac9-48c4-bd91-e6aa7605ad46))
    (pin "2" (uuid 01f1ca0b-a135-435d-acb0-771790a4ee91))
    (pin "3" (uuid 6dd7bd76-7e96-47f9-a7b8-a82a1242f816))
    (pin "4" (uuid 300daf22-0dc4-4ce6-9c3b-3b1cb24e1d6b))
  )

  (symbol (lib_id "Regulator_Linear:TLV75533PDBV") (at 86.36 38.1 0) (unit 1)
    (in_bom yes) (on_board yes)
    (uuid 00000000-0000-0000-0000-0000600e96b7)
    (property "Reference" "U1" (id 0) (at 86.36 29.4132 0))
    (property "Value" "TLV75533PDBV" (id 1) (at 86.36 31.7246 0))
    (property "Footprint" "Package_TO_SOT_SMD:SOT-23-5" (id 2) (at 86.36 29.845 0)
      (effects (font (size 1.27 1.27) italic) hide)
    )
    (property "Datasheet" "http://www.ti.com/lit/ds/symlink/tlv755p.pdf" (id 3) (at 86.36 36.83 0)
      (effects (font (size 1.27 1.27)) hide)
    )
    (pin "1" (uuid 65683747-6fff-434c-8bac-1c0c94de72be))
    (pin "2" (uuid 7f5d43a7-e01e-4482-8c95-4d626a34571e))
    (pin "3" (uuid 262b0035-43df-443b-844b-86776d311293))
    (pin "4" (uuid 31f7f120-f8da-4d31-98b6-00fa883f2e04))
    (pin "5" (uuid b3aac378-5ffe-41f5-9820-3d862190534b))
  )

  (symbol (lib_id "Connector:USB_B_Micro") (at 34.29 38.1 0) (unit 1)
    (in_bom yes) (on_board yes)
    (uuid 00000000-0000-0000-0000-0000600addb4)
    (property "Reference" "USB1" (id 0) (at 35.7378 26.2382 0))
    (property "Value" "USB_B_Micro" (id 1) (at 35.7378 28.5496 0))
    (property "Footprint" "Connector_USB:USB_Micro-B_Molex_47346-0001" (id 2) (at 38.1 39.37 0)
      (effects (font (size 1.27 1.27)) hide)
    )
    (property "Datasheet" "~" (id 3) (at 38.1 39.37 0)
      (effects (font (size 1.27 1.27)) hide)
    )
    (pin "1" (uuid 48279fbc-0ee2-40fd-bd40-fca6bca17adc))
    (pin "2" (uuid 5e390b7d-743f-47cb-880d-0f36e7f23468))
    (pin "3" (uuid e0ff318b-c6f1-4243-8472-cf4b5e0cc96e))
    (pin "4" (uuid 887ddd4b-494a-4656-b611-783464de2c56))
    (pin "5" (uuid 997e09a3-c657-4a57-936f-ddcd48497219))
    (pin "6" (uuid 517efc68-fe12-4f8f-8d05-6d457279df0d))
  )

  (sheet_instances
    (path "/" (page "1"))
  )

  (symbol_instances
    (path "/00000000-0000-0000-0000-0000600b3a76"
      (reference "#PWR0101") (unit 1) (value "VBUS") (footprint "")
    )
    (path "/00000000-0000-0000-0000-0000600b4982"
      (reference "#PWR0102") (unit 1) (value "GND") (footprint "")
    )
    (path "/00000000-0000-0000-0000-0000600b5790"
      (reference "#PWR0103") (unit 1) (value "VBUS") (footprint "")
    )
    (path "/00000000-0000-0000-0000-0000600b62db"
      (reference "#PWR0104") (unit 1) (value "GND") (footprint "")
    )
    (path "/00000000-0000-0000-0000-0000600b8398"
      (reference "#PWR0105") (unit 1) (value "+3V3") (footprint "")
    )
    (path "/00000000-0000-0000-0000-0000600b8f94"
      (reference "#PWR0106") (unit 1) (value "+3V3") (footprint "")
    )
    (path "/00000000-0000-0000-0000-0000600bba49"
      (reference "#PWR0107") (unit 1) (value "GND") (footprint "")
    )
    (path "/00000000-0000-0000-0000-0000600bd2fe"
      (reference "C1") (unit 1) (value "1.0uF") (footprint "Capacitor_SMD:C_0402_1005Metric")
    )
    (path "/55fcaad2-9fcb-48e3-a841-2689be35a4a5"
      (reference "C2") (unit 1) (value "100 u") (footprint "Capacitor_Tantalum_SMD:CP_EIA-1608-08_AVX-J")
    )
    (path "/00000000-0000-0000-0000-00006017c5b6"
      (reference "QWIIC1") (unit 1) (value "QWIIC_CONNECTORJS-1MM") (footprint "Connectors:1X04_1MM_RA")
    )
    (path "/00000000-0000-0000-0000-0000600e96b7"
      (reference "U1") (unit 1) (value "TLV75533PDBV") (footprint "Package_TO_SOT_SMD:SOT-23-5")
    )
    (path "/00000000-0000-0000-0000-0000600addb4"
      (reference "USB1") (unit 1) (value "USB_B_Micro") (footprint "Connector_USB:USB_Micro-B_Molex_47346-0001")
    )
  )
)
