EESchema Schematic File Version 4
EELAYER 30 0
EELAYER END
$Descr A4 11693 8268
encoding utf-8
Sheet 1 1
Title "Qwiic power micro single"
Date "2021-01-22"
Rev ""
Comp ""
Comment1 ""
Comment2 ""
Comment3 ""
Comment4 ""
$EndDescr
$Comp
L Connector:USB_B_Micro USB1
U 1 1 600ADDB4
P 1350 1500
F 0 "USB1" H 1407 1967 50  0000 C CNN
F 1 "USB_B_Micro" H 1407 1876 50  0000 C CNN
F 2 "Connector_USB:USB_Micro-B_Molex_47346-0001" H 1500 1450 50  0001 C CNN
F 3 "~" H 1500 1450 50  0001 C CNN
	1    1350 1500
	1    0    0    -1  
$EndComp
$Comp
L power:VBUS #PWR0101
U 1 1 600B3A76
P 1900 1300
F 0 "#PWR0101" H 1900 1150 50  0001 C CNN
F 1 "VBUS" H 1915 1473 50  0000 C CNN
F 2 "" H 1900 1300 50  0001 C CNN
F 3 "" H 1900 1300 50  0001 C CNN
	1    1900 1300
	1    0    0    -1  
$EndComp
NoConn ~ 1650 1700
$Comp
L power:GND #PWR0102
U 1 1 600B4982
P 1350 2050
F 0 "#PWR0102" H 1350 1800 50  0001 C CNN
F 1 "GND" H 1355 1877 50  0000 C CNN
F 2 "" H 1350 2050 50  0001 C CNN
F 3 "" H 1350 2050 50  0001 C CNN
	1    1350 2050
	1    0    0    -1  
$EndComp
NoConn ~ 1250 1900
Wire Wire Line
	1350 1900 1350 2050
Wire Wire Line
	1650 1300 1900 1300
$Comp
L power:VBUS #PWR0103
U 1 1 600B5790
P 2850 1400
F 0 "#PWR0103" H 2850 1250 50  0001 C CNN
F 1 "VBUS" H 2865 1573 50  0000 C CNN
F 2 "" H 2850 1400 50  0001 C CNN
F 3 "" H 2850 1400 50  0001 C CNN
	1    2850 1400
	1    0    0    -1  
$EndComp
$Comp
L power:GND #PWR0104
U 1 1 600B62DB
P 3400 1950
F 0 "#PWR0104" H 3400 1700 50  0001 C CNN
F 1 "GND" H 3405 1777 50  0000 C CNN
F 2 "" H 3400 1950 50  0001 C CNN
F 3 "" H 3400 1950 50  0001 C CNN
	1    3400 1950
	1    0    0    -1  
$EndComp
Wire Wire Line
	3400 1800 3400 1900
Wire Wire Line
	3100 1400 2950 1400
Wire Wire Line
	3100 1500 3100 1400
NoConn ~ 5400 1600
NoConn ~ 5400 1500
$Comp
L power:+3V3 #PWR0105
U 1 1 600B8398
P 3950 1400
F 0 "#PWR0105" H 3950 1250 50  0001 C CNN
F 1 "+3V3" H 3965 1573 50  0000 C CNN
F 2 "" H 3950 1400 50  0001 C CNN
F 3 "" H 3950 1400 50  0001 C CNN
	1    3950 1400
	1    0    0    -1  
$EndComp
$Comp
L power:+3V3 #PWR0106
U 1 1 600B8F94
P 5650 1700
F 0 "#PWR0106" H 5650 1550 50  0001 C CNN
F 1 "+3V3" H 5665 1873 50  0000 C CNN
F 2 "" H 5650 1700 50  0001 C CNN
F 3 "" H 5650 1700 50  0001 C CNN
	1    5650 1700
	1    0    0    -1  
$EndComp
$Comp
L power:GND #PWR0107
U 1 1 600BBA49
P 5650 1800
F 0 "#PWR0107" H 5650 1550 50  0001 C CNN
F 1 "GND" H 5655 1627 50  0000 C CNN
F 2 "" H 5650 1800 50  0001 C CNN
F 3 "" H 5650 1800 50  0001 C CNN
	1    5650 1800
	1    0    0    -1  
$EndComp
Wire Wire Line
	5400 1700 5650 1700
Wire Wire Line
	5400 1800 5650 1800
Wire Wire Line
	3700 1400 3850 1400
$Comp
L SparkFun-Capacitors:1.0UF-0402-16V-10% C1
U 1 1 600BD2FE
P 2950 1700
F 0 "C1" H 2750 1850 45  0000 L CNN
F 1 "1.0uF" H 2650 1750 45  0000 L CNN
F 2 "0402" H 2950 1950 20  0001 C CNN
F 3 "" H 2950 1700 50  0001 C CNN
F 4 "CAP-12417" H 2350 1650 60  0001 L CNN "Field4"
	1    2950 1700
	1    0    0    -1  
$EndComp
$Comp
L OPL_Capacitor:TANTALUM-SMD-100UF-10V_AVX-B_ C2
U 1 1 600BFB51
P 3850 1650
F 0 "C2" V 3808 1778 45  0000 L CNN
F 1 "100uF" V 3892 1778 45  0000 L CNN
F 2 "Capacitor_Tantalum_SMD:CP_EIA-1608-08_AVX-J" H 3850 1650 50  0001 C CNN
F 3 "" H 3850 1650 50  0001 C CNN
F 4 "TAJB107M010#NJ" H 3880 1800 20  0001 C CNN "MPN"
F 5 "302020015" H 3880 1800 20  0001 C CNN "SKU"
	1    3850 1650
	0    1    1    0   
$EndComp
Wire Wire Line
	2950 1500 2950 1400
Connection ~ 2950 1400
Wire Wire Line
	2950 1400 2850 1400
Wire Wire Line
	3850 1500 3850 1400
Connection ~ 3850 1400
Wire Wire Line
	3850 1400 3950 1400
Wire Wire Line
	2950 1800 2950 1900
Wire Wire Line
	2950 1900 3400 1900
Connection ~ 3400 1900
Wire Wire Line
	3400 1900 3400 1950
Wire Wire Line
	3850 1800 3850 1900
Wire Wire Line
	3850 1900 3400 1900
$Comp
L Regulator_Linear:TLV75533PDBV U1
U 1 1 600E96B7
P 3400 1500
F 0 "U1" H 3400 1842 50  0000 C CNN
F 1 "TLV75533PDBV" H 3400 1751 50  0000 C CNN
F 2 "Package_TO_SOT_SMD:SOT-23-5" H 3400 1825 50  0001 C CIN
F 3 "http://www.ti.com/lit/ds/symlink/tlv755p.pdf" H 3400 1550 50  0001 C CNN
	1    3400 1500
	1    0    0    -1  
$EndComp
Connection ~ 3100 1400
$Comp
L SparkFun-Connectors:QWIIC_CONNECTORJS-1MM QWIIC1
U 1 1 6017C5B6
P 5300 1800
F 0 "QWIIC1" H 5258 2410 45  0000 C CNN
F 1 "QWIIC_CONNECTORJS-1MM" H 5258 2326 45  0000 C CNN
F 2 "1X04_1MM_RA" H 5300 2300 20  0001 C CNN
F 3 "" H 5300 1800 50  0001 C CNN
F 4 "CONN-13694" H 5258 2231 60  0000 C CNN "Field4"
	1    5300 1800
	1    0    0    -1  
$EndComp
NoConn ~ 1650 1600
NoConn ~ 1650 1500
$EndSCHEMATC
