(kicad_pcb (version 20210722) (generator pcbnew)

  (general
    (thickness 1.6)
  )

  (paper "A4")
  (layers
    (0 "F.Cu" signal)
    (31 "B.Cu" signal)
    (35 "F.Paste" user)
    (36 "B.SilkS" user "B.Silkscreen")
    (37 "F.SilkS" user "F.Silkscreen")
    (38 "B.Mask" user)
    (39 "F.Mask" user)
    (40 "Dwgs.User" user "User.Drawings")
    (41 "Cmts.User" user "User.Comments")
    (42 "Eco1.User" user "User.Eco1")
    (43 "Eco2.User" user "User.Eco2")
    (44 "Edge.Cuts" user)
    (45 "Margin" user)
    (46 "B.CrtYd" user "B.Courtyard")
    (47 "F.CrtYd" user "F.Courtyard")
    (48 "B.Fab" user)
    (49 "F.Fab" user)
  )

  (setup
    (stackup
      (layer "F.SilkS" (type "Top Silk Screen") (color "White"))
      (layer "F.Paste" (type "Top Solder Paste"))
      (layer "F.Mask" (type "Top Solder Mask") (color "Green") (thickness 0.01))
      (layer "F.Cu" (type "copper") (thickness 0.035))
      (layer "dielectric 1" (type "core") (thickness 1.51) (material "FR4") (epsilon_r 4.5) (loss_tangent 0.02))
      (layer "B.Cu" (type "copper") (thickness 0.035))
      (layer "B.Mask" (type "Bottom Solder Mask") (color "Green") (thickness 0.01))
      (layer "B.SilkS" (type "Bottom Silk Screen") (color "White"))
      (copper_finish "None")
      (dielectric_constraints no)
    )
    (pad_to_mask_clearance 0)
    (pcbplotparams
      (layerselection 0x00010fc_ffffffff)
      (disableapertmacros false)
      (usegerberextensions false)
      (usegerberattributes true)
      (usegerberadvancedattributes true)
      (creategerberjobfile true)
      (svguseinch false)
      (svgprecision 6)
      (excludeedgelayer true)
      (plotframeref false)
      (viasonmask false)
      (mode 1)
      (useauxorigin false)
      (hpglpennumber 1)
      (hpglpenspeed 20)
      (hpglpendiameter 15.000000)
      (dxfpolygonmode true)
      (dxfimperialunits true)
      (dxfusepcbnewfont true)
      (psnegative false)
      (psa4output false)
      (plotreference true)
      (plotvalue true)
      (plotinvisibletext false)
      (sketchpadsonfab false)
      (subtractmaskfromsilk false)
      (outputformat 1)
      (mirror false)
      (drillshape 1)
      (scaleselection 1)
      (outputdirectory "")
    )
  )

  (net 0 "")
  (net 1 "GND")
  (net 2 "VBUS")
  (net 3 "+3V3")
  (net 4 "unconnected-(QWIIC1-Pad3)")
  (net 5 "unconnected-(QWIIC1-Pad4)")
  (net 6 "unconnected-(U1-Pad4)")
  (net 7 "Net-(R1-Pad2)")
  (net 8 "unconnected-(USB1-PadA6)")
  (net 9 "unconnected-(USB1-PadA7)")
  (net 10 "unconnected-(USB1-PadB5)")
  (net 11 "unconnected-(USB1-PadS1)")

  (footprint "Capacitor_Tantalum_SMD:CP_EIA-1608-08_AVX-J" (layer "F.Cu")
    (tedit 60E84779) (tstamp 00000000-0000-0000-0000-000060190e65)
    (at 120.1 86.725 -90)
    (descr "Tantalum Capacitor SMD AVX-J (1608-08 Metric), IPC_7351 nominal, (Body size from: https://www.vishay.com/docs/48064/_t58_vmn_pt0471_1601.pdf), generated with kicad-footprint-generator")
    (tags "capacitor tantalum")
    (property "Sheetfile" "Qwiic power C single.kicad_sch")
    (property "Sheetname" "")
    (path "/ad8c9339-04cf-4aab-b4ff-8ce7f7d898f7")
    (attr smd)
    (fp_text reference "C2" (at 2.5 0) (layer "F.SilkS")
      (effects (font (size 1 1) (thickness 0.15)))
      (tstamp 46248d81-9d55-4075-b7b1-8789ff683b99)
    )
    (fp_text value "100 u" (at 2.1 -0.6) (layer "F.Fab")
      (effects (font (size 1 1) (thickness 0.15)))
      (tstamp d66b6aea-e5a0-4383-891d-e2517429ee32)
    )
    (fp_text user "${REFERENCE}" (at 0 0 90) (layer "F.Fab")
      (effects (font (size 0.4 0.4) (thickness 0.06)))
      (tstamp 6b311fb3-8b76-43b9-a576-b6965e6ad4c1)
    )
    (fp_line (start -1.51 -0.785) (end -1.51 0.785) (layer "F.SilkS") (width 0.12) (tstamp 1288d14e-f485-4f24-84d6-39a98bb8e760))
    (fp_line (start -1.51 0.785) (end 0.8 0.785) (layer "F.SilkS") (width 0.12) (tstamp 9995e3aa-6f6c-472a-928b-9704828c4534))
    (fp_line (start 0.8 -0.785) (end -1.51 -0.785) (layer "F.SilkS") (width 0.12) (tstamp 9e17a737-e942-44c0-9906-d44e904965db))
    (fp_line (start 1.5 -0.78) (end 1.5 0.78) (layer "F.CrtYd") (width 0.05) (tstamp 1131fc81-4f22-466e-8a31-1815d962cb86))
    (fp_line (start -1.5 -0.78) (end 1.5 -0.78) (layer "F.CrtYd") (width 0.05) (tstamp 2f7bd26b-7a80-4ac3-90d9-1a8ea694f9cf))
    (fp_line (start -1.5 0.78) (end -1.5 -0.78) (layer "F.CrtYd") (width 0.05) (tstamp b1dc09b4-0107-4ad4-8c8d-9cc0b3c201bd))
    (fp_line (start 1.5 0.78) (end -1.5 0.78) (layer "F.CrtYd") (width 0.05) (tstamp f3413e44-a634-476c-b7b0-bc43ef753949))
    (fp_line (start -0.5 -0.425) (end -0.8 -0.125) (layer "F.Fab") (width 0.1) (tstamp 092a6736-fa71-4b08-a856-fd8c77305a0a))
    (fp_line (start -0.8 -0.125) (end -0.8 0.425) (layer "F.Fab") (width 0.1) (tstamp 69da6469-5dca-4325-a7f9-d4fab3146243))
    (fp_line (start -0.8 0.425) (end 0.8 0.425) (layer "F.Fab") (width 0.1) (tstamp 7a5ab49f-bc19-483f-a41a-2cf218f63cac))
    (fp_line (start 0.8 -0.425) (end -0.5 -0.425) (layer "F.Fab") (width 0.1) (tstamp e41599ba-36ad-479e-89c9-9384f6a77b10))
    (fp_line (start 0.8 0.425) (end 0.8 -0.425) (layer "F.Fab") (width 0.1) (tstamp f2218c78-8e5b-4ef8-8805-bebf56f68de3))
    (pad "1" smd roundrect locked (at -0.7125 0 270) (size 1.075 1.05) (layers "F.Cu" "F.Paste" "F.Mask") (roundrect_rratio 0.238)
      (net 3 "+3V3") (pintype "passive") (tstamp 32890363-bc03-4672-a618-ffd714b3499a))
    (pad "2" smd roundrect locked (at 0.7125 0 270) (size 1.075 1.05) (layers "F.Cu" "F.Paste" "F.Mask") (roundrect_rratio 0.238)
      (net 1 "GND") (pintype "passive") (tstamp 40d5c90b-46d0-433e-80a7-c52096177296))
    (model "${KICAD6_3DMODEL_DIR}/Capacitor_Tantalum_SMD.3dshapes/CP_EIA-1608-08_AVX-J.wrl"
      (offset (xyz 0 0 0))
      (scale (xyz 1 1 1))
      (rotate (xyz 0 0 0))
    )
  )

  (footprint "Connectors:1X04_1MM_RA" (layer "F.Cu")
    (tedit 610149C2) (tstamp 00000000-0000-0000-0000-0000601917c8)
    (at 122.4 85.725 90)
    (descr "SMD- 4 PIN RIGHT ANGLE")
    (tags "SMD- 4 PIN RIGHT ANGLE")
    (property "Field4" "CONN-13694")
    (property "LCSC" "C160404")
    (property "Manufacturer" "JST")
    (property "Sheetfile" "Qwiic power C single.kicad_sch")
    (property "Sheetname" "")
    (property "digikeypn" "455-1804-1-ND")
    (property "lcscpn" "C160404")
    (path "/00000000-0000-0000-0000-00006017c5b6")
    (attr smd)
    (fp_text reference "QWIIC1" (at -4.775 0.8) (layer "F.SilkS")
      (effects (font (size 0.6096 0.6096) (thickness 0.127)))
      (tstamp 572bc821-9516-40c6-bb78-c16897c837fd)
    )
    (fp_text value "QWIIC_CONNECTORJS-1MM" (at 3.683 0.889) (layer "F.Fab")
      (effects (font (size 0.6096 0.6096) (thickness 0.127)))
      (tstamp d6f28076-bc44-4c47-86db-16456c0c18a2)
    )
    (fp_line (start -1.4986 4.59994) (end 1.4986 4.59994) (layer "F.SilkS") (width 0.254) (tstamp 05ec6c02-d18b-4b96-a056-273bf0a7abd1))
    (fp_line (start 2.99974 0.34798) (end 2.99974 1.99898) (layer "F.SilkS") (width 0.254) (tstamp 5194ba1b-597f-46a3-9e8c-7e5edeacb7d8))
    (fp_line (start -2.99974 1.99898) (end -2.99974 0.34798) (layer "F.SilkS") (width 0.254) (tstamp 5c8f0367-dcf0-45fc-a8e1-e6af4c748a97))
    (fp_line (start -2.99974 0.34798) (end -2.2479 0.34798) (layer "F.SilkS") (width 0.254) (tstamp c0579e3a-d689-494f-a954-52a7d340736b))
    (fp_line (start 2.2479 0.34798) (end 2.99974 0.34798) (layer "F.SilkS") (width 0.254) (tstamp f129b06a-1e04-452c-aa67-7e73da8c242d))
    (fp_circle (center -2.49936 -0.29972) (end -2.49936 -0.43942) (layer "F.SilkS") (width 0.39878) (fill none) (tstamp 7a3f613c-b11d-4d91-87c1-cdddb23a6015))
    (pad "1" smd rect locked (at -1.4986 0 90) (size 0.59944 1.34874) (layers "F.Cu" "F.Paste" "F.Mask")
      (net 1 "GND") (pinfunction "GND") (pintype "power_in") (solder_mask_margin 0.1016) (tstamp 98e13fea-e928-4b36-9ca2-31924cc02452))
    (pad "2" smd rect locked (at -0.49784 0 90) (size 0.59944 1.34874) (layers "F.Cu" "F.Paste" "F.Mask")
      (net 3 "+3V3") (pinfunction "VCC") (pintype "power_in") (solder_mask_margin 0.1016) (tstamp 15bdde4d-ffb7-4d9a-8bba-eed8faafc010))
    (pad "3" smd rect locked (at 0.49784 0 90) (size 0.59944 1.34874) (layers "F.Cu" "F.Paste" "F.Mask")
      (net 4 "unconnected-(QWIIC1-Pad3)") (pinfunction "SDA") (pintype "passive+no_connect") (solder_mask_margin 0.1016) (tstamp 907897fb-198b-488e-9be2-489fdb42de86))
    (pad "4" smd rect locked (at 1.4986 0 90) (size 0.59944 1.34874) (layers "F.Cu" "F.Paste" "F.Mask")
      (net 5 "unconnected-(QWIIC1-Pad4)") (pinfunction "SCL") (pintype "passive+no_connect") (solder_mask_margin 0.1016) (tstamp e46d8942-4b83-4ce1-bcd8-93ee06811ed0))
    (pad "NC1" smd rect locked (at 2.79908 3.67284 90) (size 1.19888 1.99898) (layers "F.Cu" "F.Paste" "F.Mask")
      (solder_mask_margin 0.1016) (tstamp 0c86745b-88e7-4c81-be3f-dcddcb2d9d44))
    (pad "NC2" smd rect locked (at -2.79908 3.67284 90) (size 1.19888 1.99898) (layers "F.Cu" "F.Paste" "F.Mask")
      (solder_mask_margin 0.1016) (tstamp affffc34-5639-4d71-a39a-b26db04803ce))
    (model "/Private/home/ian/kicad/external/SnapEDA/SM04B-SRSS-TB(LF)(SN)--3DModel-STEP-56544.step"
      (offset (xyz 0 -0.7 -0.35))
      (scale (xyz 1 1 1))
      (rotate (xyz -90 0 0))
    )
  )

  (footprint "Capacitor_SMD:C_0603_1608Metric" (layer "F.Cu")
    (tedit 5F68FEEE) (tstamp 00000000-0000-0000-0000-0000601a85c9)
    (at 114.05 86.7 -90)
    (descr "Capacitor SMD 0603 (1608 Metric), square (rectangular) end terminal, IPC_7351 nominal, (Body size source: IPC-SM-782 page 76, https://www.pcb-3d.com/wordpress/wp-content/uploads/ipc-sm-782a_amendment_1_and_2.pdf), generated with kicad-footprint-generator")
    (tags "capacitor")
    (property "Sheetfile" "Qwiic power C single.kicad_sch")
    (property "Sheetname" "")
    (path "/3c779aa6-dc22-42db-827e-1c6b15ca95d9")
    (attr smd)
    (fp_text reference "C1" (at 2.2508 0.0548) (layer "F.SilkS")
      (effects (font (size 1 1) (thickness 0.15)))
      (tstamp 7cf829f4-a731-44ea-97d1-2805f13525dd)
    )
    (fp_text value "1 u" (at 0 1.43 -90) (layer "F.Fab")
      (effects (font (size 1 1) (thickness 0.15)))
      (tstamp 6fa1197c-4eba-461e-a164-b0dbb4f37603)
    )
    (fp_text user "${REFERENCE}" (at 0 0 -90) (layer "F.Fab")
      (effects (font (size 0.4 0.4) (thickness 0.06)))
      (tstamp e7a0bf20-57a7-4740-803a-7c61f76ff128)
    )
    (fp_line (start -0.14058 0.51) (end 0.14058 0.51) (layer "F.SilkS") (width 0.12) (tstamp 2e66a985-ffd5-4807-933b-ff3e2e5d48bf))
    (fp_line (start -0.14058 -0.51) (end 0.14058 -0.51) (layer "F.SilkS") (width 0.12) (tstamp eb22f10e-b681-4c42-813c-eae4cd025a47))
    (fp_line (start 1.48 -0.73) (end 1.48 0.73) (layer "F.CrtYd") (width 0.05) (tstamp 725c6498-8f73-4af8-b1e6-54b3b340623c))
    (fp_line (start 1.48 0.73) (end -1.48 0.73) (layer "F.CrtYd") (width 0.05) (tstamp 9d361c43-0ce3-4c97-8e1e-70986c619535))
    (fp_line (start -1.48 -0.73) (end 1.48 -0.73) (layer "F.CrtYd") (width 0.05) (tstamp aae2ee45-6ce3-432d-8b22-fbdb392adb27))
    (fp_line (start -1.48 0.73) (end -1.48 -0.73) (layer "F.CrtYd") (width 0.05) (tstamp e6f03e05-6af7-4a1b-85c5-949dc5cf02fc))
    (fp_line (start 0.8 0.4) (end -0.8 0.4) (layer "F.Fab") (width 0.1) (tstamp 3e35c2a9-e67f-45bf-abd6-c35e2fdea23b))
    (fp_line (start 0.8 -0.4) (end 0.8 0.4) (layer "F.Fab") (width 0.1) (tstamp 81934946-0585-4911-b896-55070bf15a2f))
    (fp_line (start -0.8 -0.4) (end 0.8 -0.4) (layer "F.Fab") (width 0.1) (tstamp 892d1f92-9676-4827-afe5-032c3335ebe7))
    (fp_line (start -0.8 0.4) (end -0.8 -0.4) (layer "F.Fab") (width 0.1) (tstamp d0125997-a65a-461c-b8c2-7b901b584c11))
    (pad "1" smd roundrect locked (at -0.775 0 270) (size 0.9 0.95) (layers "F.Cu" "F.Paste" "F.Mask") (roundrect_rratio 0.25)
      (net 2 "VBUS") (pintype "passive") (tstamp 1a21118d-095f-4298-a40b-fc3d4eaa07f0))
    (pad "2" smd roundrect locked (at 0.775 0 270) (size 0.9 0.95) (layers "F.Cu" "F.Paste" "F.Mask") (roundrect_rratio 0.25)
      (net 1 "GND") (pintype "passive") (tstamp be1861c6-90c6-4055-af3a-5e5fed66463d))
    (model "${KICAD6_3DMODEL_DIR}/Capacitor_SMD.3dshapes/C_0603_1608Metric.wrl"
      (offset (xyz 0 0 0))
      (scale (xyz 1 1 1))
      (rotate (xyz 0 0 0))
    )
  )

  (footprint "Connector_USB:USB_C_Receptacle_HRO_TYPE-C-31-M-12" (layer "F.Cu")
    (tedit 5D3C0721) (tstamp 00000000-0000-0000-0000-0000601a8615)
    (at 105.85 86.7 -90)
    (descr "USB Type-C receptacle for USB 2.0 and PD, http://www.krhro.com/uploads/soft/180320/1-1P320120243.pdf")
    (tags "usb usb-c 2.0 pd")
    (property "Sheetfile" "Qwiic power C single.kicad_sch")
    (property "Sheetname" "")
    (path "/00000000-0000-0000-0000-0000601a56df")
    (attr smd)
    (fp_text reference "USB1" (at 4.5 -7.4 180) (layer "F.SilkS")
      (effects (font (size 1 1) (thickness 0.15)))
      (tstamp 360fe832-a0cb-4421-bc2d-e152a32e168b)
    )
    (fp_text value "USB_C_Plug_USB2.0" (at 0 5.1 90) (layer "F.Fab")
      (effects (font (size 1 1) (thickness 0.15)))
      (tstamp de22b521-19d1-4a54-9e3e-5376ac5207c2)
    )
    (fp_text user "${REFERENCE}" (at 0 0 90) (layer "F.Fab")
      (effects (font (size 1 1) (thickness 0.15)))
      (tstamp d27a6b81-94e7-4ef5-8829-193e77e61ae6)
    )
    (fp_line (start -4.7 -1.9) (end -4.7 0.1) (layer "F.SilkS") (width 0.12) (tstamp 140df0f5-0832-4cfd-a399-1e2bb7313d11))
    (fp_line (start -4.7 2) (end -4.7 3.9) (layer "F.SilkS") (width 0.12) (tstamp 1b794123-cfbb-4d93-bf55-de48ad153f2b))
    (fp_line (start -4.7 3.9) (end 4.7 3.9) (layer "F.SilkS") (width 0.12) (tstamp 309e0590-f23d-48f0-82e7-abbe129ce677))
    (fp_line (start 4.7 2) (end 4.7 3.9) (layer "F.SilkS") (width 0.12) (tstamp 39451273-04b7-46a9-a68b-2bbcef2afd98))
    (fp_line (start 4.7 -1.9) (end 4.7 0.1) (layer "F.SilkS") (width 0.12) (tstamp f0f0869b-1585-4135-a0a4-6fef6c83d7fe))
    (fp_line (start -5.32 -5.27) (end 5.32 -5.27) (layer "F.CrtYd") (width 0.05) (tstamp 4c503c1a-2393-4d40-be69-8065824ba1d8))
    (fp_line (start -5.32 -5.27) (end -5.32 4.15) (layer "F.CrtYd") (width 0.05) (tstamp 50a80f6c-8a00-4ec8-b9a3-ef5e0e66c7ac))
    (fp_line (start -5.32 4.15) (end 5.32 4.15) (layer "F.CrtYd") (width 0.05) (tstamp 5f5d0ae8-bd20-4644-bae1-b337d987ca59))
    (fp_line (start 5.32 -5.27) (end 5.32 4.15) (layer "F.CrtYd") (width 0.05) (tstamp c5735c01-cfaf-424b-80db-ad557589c2af))
    (fp_line (start -4.47 -3.65) (end 4.47 -3.65) (layer "F.Fab") (width 0.1) (tstamp 21df2b9c-ec78-4bd9-bc85-55fde25b7c72))
    (fp_line (start -4.47 -3.65) (end -4.47 3.65) (layer "F.Fab") (width 0.1) (tstamp 453a9a99-94fa-4dd6-9454-f31cd4dfcf27))
    (fp_line (start 4.47 -3.65) (end 4.47 3.65) (layer "F.Fab") (width 0.1) (tstamp 58ba6ce2-0e8a-464d-a6bd-2cff28c3296d))
    (fp_line (start -4.47 3.65) (end 4.47 3.65) (layer "F.Fab") (width 0.1) (tstamp 6ab43b67-9b6a-4316-9bd4-98c932cc2530))
    (pad "" np_thru_hole circle locked (at 2.89 -2.6 270) (size 0.65 0.65) (drill 0.65) (layers *.Cu *.Mask) (tstamp 579be13b-8c57-446b-bfca-5142f3d9b1aa))
    (pad "" np_thru_hole circle locked (at -2.89 -2.6 270) (size 0.65 0.65) (drill 0.65) (layers *.Cu *.Mask) (tstamp 8ab29850-6164-40ed-985e-fe0c017bd6ea))
    (pad "A1" smd rect locked (at -3.25 -4.045 270) (size 0.6 1.45) (layers "F.Cu" "F.Paste" "F.Mask")
      (net 1 "GND") (pinfunction "GND") (pintype "passive") (tstamp 23c46e40-6133-420b-9021-89a58725e0ec))
    (pad "A4" smd rect locked (at -2.45 -4.045 270) (size 0.6 1.45) (layers "F.Cu" "F.Paste" "F.Mask")
      (net 2 "VBUS") (pinfunction "VBUS") (pintype "passive") (tstamp d3530a8d-a5cd-43d8-8014-674f0e158917))
    (pad "A5" smd rect locked (at -1.25 -4.045 270) (size 0.3 1.45) (layers "F.Cu" "F.Paste" "F.Mask")
      (net 7 "Net-(R1-Pad2)") (pinfunction "CC") (pintype "bidirectional") (tstamp 74246b25-2e78-4dfb-91b7-5714aa71c667))
    (pad "A6" smd rect locked (at -0.25 -4.045 270) (size 0.3 1.45) (layers "F.Cu" "F.Paste" "F.Mask")
      (net 8 "unconnected-(USB1-PadA6)") (pinfunction "D+") (pintype "bidirectional+no_connect") (tstamp ae10f17a-0563-4427-aea4-b132aa16c7fd))
    (pad "A7" smd rect locked (at 0.25 -4.045 270) (size 0.3 1.45) (layers "F.Cu" "F.Paste" "F.Mask")
      (net 9 "unconnected-(USB1-PadA7)") (pinfunction "D-") (pintype "bidirectional+no_connect") (tstamp b0d0223d-4651-44cc-9f2e-1fee1ceab88e))
    (pad "A8" smd rect locked (at 1.25 -4.045 270) (size 0.3 1.45) (layers "F.Cu" "F.Paste" "F.Mask") (tstamp a1db270a-f22c-49c0-a530-aa6228ccaf2e))
    (pad "A9" smd rect locked (at 2.45 -4.045 270) (size 0.6 1.45) (layers "F.Cu" "F.Paste" "F.Mask")
      (net 2 "VBUS") (pinfunction "VBUS") (pintype "passive") (tstamp a8c4d9c3-3e20-4f68-87d7-453841be7294))
    (pad "A12" smd rect locked (at 3.25 -4.045 270) (size 0.6 1.45) (layers "F.Cu" "F.Paste" "F.Mask")
      (net 1 "GND") (pinfunction "GND") (pintype "passive") (tstamp 8df06400-a98b-4c13-ab33-aefd5cf7959e))
    (pad "B1" smd rect locked (at 3.25 -4.045 270) (size 0.6 1.45) (layers "F.Cu" "F.Paste" "F.Mask")
      (net 1 "GND") (pinfunction "GND") (pintype "passive") (tstamp af4c55ec-5196-4ca6-b208-de3b793d2768))
    (pad "B4" smd rect locked (at 2.45 -4.045 270) (size 0.6 1.45) (layers "F.Cu" "F.Paste" "F.Mask")
      (net 2 "VBUS") (pinfunction "VBUS") (pintype "passive") (tstamp 2b6f6678-79f6-40c1-bb7b-6b2f10009d55))
    (pad "B5" smd rect locked (at 1.75 -4.045 270) (size 0.3 1.45) (layers "F.Cu" "F.Paste" "F.Mask")
      (net 10 "unconnected-(USB1-PadB5)") (pinfunction "VCONN") (pintype "bidirectional+no_connect") (tstamp 8f21c91b-a0b5-4f93-a65d-74a6f0959b1f))
    (pad "B6" smd rect locked (at 0.75 -4.045 270) (size 0.3 1.45) (layers "F.Cu" "F.Paste" "F.Mask") (tstamp 07424b21-e0ed-442c-aa2d-c8fba6a9a13f))
    (pad "B7" smd rect locked (at -0.75 -4.045 270) (size 0.3 1.45) (layers "F.Cu" "F.Paste" "F.Mask") (tstamp 3f00ddfe-6c69-4e29-85f1-50fb53837ca4))
    (pad "B8" smd rect locked (at -1.75 -4.045 270) (size 0.3 1.45) (layers "F.Cu" "F.Paste" "F.Mask") (tstamp fb976482-9b9d-4597-a084-c972e381be62))
    (pad "B9" smd rect locked (at -2.45 -4.045 270) (size 0.6 1.45) (layers "F.Cu" "F.Paste" "F.Mask")
      (net 2 "VBUS") (pinfunction "VBUS") (pintype "passive") (tstamp 4a3570d7-1c84-4de2-8108-27afe5ae7459))
    (pad "B12" smd rect locked (at -3.25 -4.045 270) (size 0.6 1.45) (layers "F.Cu" "F.Paste" "F.Mask")
      (net 1 "GND") (pinfunction "GND") (pintype "passive") (tstamp 0f65b524-b170-409a-9b9d-e3115f64180e))
    (pad "S1" thru_hole oval locked (at -4.32 1.05 270) (size 1 1.6) (drill oval 0.6 1.2) (layers *.Cu *.Mask)
      (net 11 "unconnected-(USB1-PadS1)") (pinfunction "SHIELD") (pintype "passive+no_connect") (tstamp 257c6608-84b4-4883-b7fb-d6c069cc8bc7))
    (pad "S1" thru_hole oval locked (at 4.32 -3.13 270) (size 1 2.1) (drill oval 0.6 1.7) (layers *.Cu *.Mask)
      (net 11 "unconnected-(USB1-PadS1)") (pinfunction "SHIELD") (pintype "passive+no_connect") (tstamp 2f7cd099-4f1f-4521-b160-0ed887c2a27e))
    (pad "S1" thru_hole oval locked (at 4.32 1.05 270) (size 1 1.6) (drill oval 0.6 1.2) (layers *.Cu *.Mask)
      (net 11 "unconnected-(USB1-PadS1)") (pinfunction "SHIELD") (pintype "passive+no_connect") (tstamp 7a522fdc-7def-428f-8914-ccc55f977b78))
    (pad "S1" thru_hole oval locked (at -4.32 -3.13 270) (size 1 2.1) (drill oval 0.6 1.7) (layers *.Cu *.Mask)
      (net 11 "unconnected-(USB1-PadS1)") (pinfunction "SHIELD") (pintype "passive+no_connect") (tstamp f010adb5-a744-45f9-bbd8-d9263d28eddc))
    (model "${KICAD6_3DMODEL_DIR}/Connector_USB.3dshapes/USB_C_Receptacle_HRO_TYPE-C-31-M-12.wrl"
      (offset (xyz 0 0 0))
      (scale (xyz 1 1 1))
      (rotate (xyz 0 0 0))
    )
  )

  (footprint "Resistor_SMD:R_0603_1608Metric" (layer "F.Cu")
    (tedit 5F68FEEE) (tstamp 00000000-0000-0000-0000-0000601a8635)
    (at 112.6 84.25 -90)
    (descr "Resistor SMD 0603 (1608 Metric), square (rectangular) end terminal, IPC_7351 nominal, (Body size source: IPC-SM-782 page 72, https://www.pcb-3d.com/wordpress/wp-content/uploads/ipc-sm-782a_amendment_1_and_2.pdf), generated with kicad-footprint-generator")
    (tags "resistor")
    (property "Sheetfile" "Qwiic power C single.kicad_sch")
    (property "Sheetname" "")
    (path "/00000000-0000-0000-0000-0000601cdb5f")
    (attr smd)
    (fp_text reference "R1" (at -1.45 -1.75) (layer "F.SilkS")
      (effects (font (size 1 1) (thickness 0.15)))
      (tstamp 35e967ac-8305-4790-b723-fa17f369e086)
    )
    (fp_text value "5k1" (at 0 1.43 90) (layer "F.Fab")
      (effects (font (size 1 1) (thickness 0.15)))
      (tstamp e12ff35e-5b52-45d5-a1cd-509d7b3ae2ac)
    )
    (fp_text user "${REFERENCE}" (at 0 0 90) (layer "F.Fab")
      (effects (font (size 0.4 0.4) (thickness 0.06)))
      (tstamp bcd3863a-7145-48f9-b1c4-fc58c38f1434)
    )
    (fp_line (start -0.237258 0.5225) (end 0.237258 0.5225) (layer "F.SilkS") (width 0.12) (tstamp 95af5985-c648-4554-a18a-64f5fb7f1d0f))
    (fp_line (start -0.237258 -0.5225) (end 0.237258 -0.5225) (layer "F.SilkS") (width 0.12) (tstamp ac6d4876-ed46-4448-b36e-64ce4ad4fdb3))
    (fp_line (start 1.48 -0.73) (end 1.48 0.73) (layer "F.CrtYd") (width 0.05) (tstamp 51cfb3be-b5be-4bf9-9d17-40104ff7b757))
    (fp_line (start -1.48 0.73) (end -1.48 -0.73) (layer "F.CrtYd") (width 0.05) (tstamp 9c37798f-f4a9-4ce9-a98e-42d3b1e71ee7))
    (fp_line (start -1.48 -0.73) (end 1.48 -0.73) (layer "F.CrtYd") (width 0.05) (tstamp a5594743-9572-4e5e-aa79-460ceb9545c0))
    (fp_line (start 1.48 0.73) (end -1.48 0.73) (layer "F.CrtYd") (width 0.05) (tstamp d3477bdc-91af-4f9e-b7ae-f4d294b706f2))
    (fp_line (start -0.8 -0.4125) (end 0.8 -0.4125) (layer "F.Fab") (width 0.1) (tstamp 31909e7e-077b-4aa1-b9dd-cd14fd0381c8))
    (fp_line (start 0.8 0.4125) (end -0.8 0.4125) (layer "F.Fab") (width 0.1) (tstamp 3a8a6119-8f8b-4035-b41b-4d0871b2df71))
    (fp_line (start 0.8 -0.4125) (end 0.8 0.4125) (layer "F.Fab") (width 0.1) (tstamp b0512e9f-7852-43b6-989f-75b0080ea6d1))
    (fp_line (start -0.8 0.4125) (end -0.8 -0.4125) (layer "F.Fab") (width 0.1) (tstamp b3639baa-14b0-4241-8210-7fb4ece879da))
    (pad "1" smd roundrect locked (at -0.825 0 270) (size 0.8 0.95) (layers "F.Cu" "F.Paste" "F.Mask") (roundrect_rratio 0.25)
      (net 1 "GND") (pintype "passive") (tstamp 1baa3030-45b7-43fb-a682-fe3907f1bc57))
    (pad "2" smd roundrect locked (at 0.825 0 270) (size 0.8 0.95) (layers "F.Cu" "F.Paste" "F.Mask") (roundrect_rratio 0.25)
      (net 7 "Net-(R1-Pad2)") (pintype "passive") (tstamp 92eb0dca-3a83-4b63-8a4b-e07be6b32951))
    (model "${KICAD6_3DMODEL_DIR}/Resistor_SMD.3dshapes/R_0603_1608Metric.wrl"
      (offset (xyz 0 0 0))
      (scale (xyz 1 1 1))
      (rotate (xyz 0 0 0))
    )
  )

  (footprint "Package_TO_SOT_SMD:SOT-23-5" (layer "F.Cu")
    (tedit 600BAE9A) (tstamp 00000000-0000-0000-0000-0000601ad0a6)
    (at 117 87.2)
    (descr "5-pin SOT23 package")
    (tags "SOT-23-5")
    (property "Sheetfile" "Qwiic power C single.kicad_sch")
    (property "Sheetname" "")
    (path "/00000000-0000-0000-0000-0000600e96b7")
    (attr smd)
    (fp_text reference "U1" (at 0.1194 -2.745) (layer "F.SilkS")
      (effects (font (size 1 1) (thickness 0.15)))
      (tstamp 6e342135-9688-4a57-9275-0c57d85d69cb)
    )
    (fp_text value "TLV75533PDBV" (at 0 2.9) (layer "F.Fab")
      (effects (font (size 1 1) (thickness 0.15)))
      (tstamp 4f6b5d89-b14f-4130-a9ab-1d5b1a0ed42a)
    )
    (fp_text user "${REFERENCE}" (at 0 0 90) (layer "F.Fab") hide
      (effects (font (size 0.5 0.5) (thickness 0.075)))
      (tstamp 9d1f6814-3227-4d57-8ef5-2083b148c386)
    )
    (fp_line (start 0.9 -1.61) (end -1.55 -1.61) (layer "F.SilkS") (width 0.12) (tstamp a3fd1500-1d3f-4a88-916e-ee295bd4a84d))
    (fp_line (start -0.9 1.61) (end 0.9 1.61) (layer "F.SilkS") (width 0.12) (tstamp c8d32186-5a2f-4c4e-a763-c79f6d49f2ed))
    (fp_line (start 1.9 1.8) (end -1.9 1.8) (layer "F.CrtYd") (width 0.05) (tstamp 1bb5f161-6437-46b2-b2e8-a039d0fbde5f))
    (fp_line (start -1.9 1.8) (end -1.9 -1.8) (layer "F.CrtYd") (width 0.05) (tstamp 8314709e-aba9-4b49-848c-0601e9c087b8))
    (fp_line (start 1.9 -1.8) (end 1.9 1.8) (layer "F.CrtYd") (width 0.05) (tstamp de95ffa5-6597-488e-92e0-9db30a4acbb9))
    (fp_line (start -1.9 -1.8) (end 1.9 -1.8) (layer "F.CrtYd") (width 0.05) (tstamp df5d0ae1-962a-442d-887c-d06667294af3))
    (fp_line (start -0.9 -0.9) (end -0.9 1.55) (layer "F.Fab") (width 0.1) (tstamp 01bd07d2-68ae-42ee-a485-b49019160720))
    (fp_line (start 0.9 -1.55) (end 0.9 1.55) (layer "F.Fab") (width 0.1) (tstamp 1f1ec151-90b7-42b4-9717-8c8cafa8fc44))
    (fp_line (start 0.9 1.55) (end -0.9 1.55) (layer "F.Fab") (width 0.1) (tstamp 501b1a12-24f9-4570-a3d2-82951d4a9c19))
    (fp_line (start 0.9 -1.55) (end -0.25 -1.55) (layer "F.Fab") (width 0.1) (tstamp 7f5b2df7-0ab7-40da-86e6-28c6414c2017))
    (fp_line (start -0.9 -0.9) (end -0.25 -1.55) (layer "F.Fab") (width 0.1) (tstamp 887b2190-0771-40f5-ba5b-6b806bd5af5c))
    (pad "1" smd rect locked (at -1.1 -0.95) (size 1.06 0.65) (layers "F.Cu" "F.Paste" "F.Mask")
      (net 2 "VBUS") (pinfunction "IN") (pintype "power_in") (tstamp 8019f26b-5412-4df6-93c3-afaccb79ce9f))
    (pad "2" smd rect locked (at -1.1 0) (size 1.06 0.65) (layers "F.Cu" "F.Paste" "F.Mask")
      (net 1 "GND") (pinfunction "GND") (pintype "power_in") (tstamp bc834fd0-48cd-42e1-b3dd-36a82ec692e3))
    (pad "3" smd rect locked (at -1.1 0.95) (size 1.06 0.65) (layers "F.Cu" "F.Paste" "F.Mask")
      (net 2 "VBUS") (pinfunction "EN") (pintype "input") (tstamp b8406be2-691a-49c5-99a1-a21c6c1d59de))
    (pad "4" smd rect locked (at 1.1 0.95) (size 1.06 0.65) (layers "F.Cu" "F.Paste" "F.Mask")
      (net 6 "unconnected-(U1-Pad4)") (pinfunction "NC") (pintype "no_connect") (tstamp 78d57e0a-165f-44d3-b940-48d70e8b7a1a))
    (pad "5" smd rect locked (at 1.1 -0.95) (size 1.06 0.65) (layers "F.Cu" "F.Paste" "F.Mask")
      (net 3 "+3V3") (pinfunction "OUT") (pintype "power_out") (tstamp f8b82318-d3d4-4367-956c-623d0da2ea5e))
    (model "${KICAD6_3DMODEL_DIR}/Package_TO_SOT_SMD.3dshapes/SOT-23-5.wrl"
      (offset (xyz 0 0 0))
      (scale (xyz 1 1 1))
      (rotate (xyz 0 0 0))
    )
  )

  (gr_poly
    (pts

      (xy 127.7 92.4564)
      (xy 102.2 92.4564)
      (xy 102.2 81.0706)
      (xy 127.7 81.0706)
    ) (layer "Edge.Cuts") (width 0.1) (fill none) (tstamp 00000000-0000-0000-0000-0000601a8922))
  (gr_text "Qwiic power\nmicro single" (at 115.2652 86.5378) (layer "B.SilkS") (tstamp 00000000-0000-0000-0000-00006019166e)
    (effects (font (size 2 2) (thickness 0.3)) (justify mirror))
  )

  (segment (start 114.25 87.2) (end 114.05 87.4) (width 0.6) (layer "F.Cu") (net 1) (tstamp 0581aa1e-7bd3-44b6-a7ff-677dd2f5e6df))
  (segment (start 119.8625 87.2) (end 120.1 87.4375) (width 0.6) (layer "F.Cu") (net 1) (tstamp 0cc75c9a-722d-4afd-bd11-7b464fce7ddf))
  (segment (start 109.795252 92.1004) (end 110.6338 91.261852) (width 0.6) (layer "F.Cu") (net 1) (tstamp 1037464e-31d2-41a1-9050-083444eee5b4))
  (segment (start 109.895 89.95) (end 111.5 89.95) (width 0.6) (layer "F.Cu") (net 1) (tstamp 4f7b6042-1084-40f0-9911-304b2c370e3a))
  (segment (start 107.442 81.915) (end 107.442 91.377652) (width 0.6) (layer "F.Cu") (net 1) (tstamp 645057b0-293d-4087-8bf0-c13ac57a961a))
  (segment (start 109.9566 81.407) (end 107.95 81.407) (width 0.6) (layer "F.Cu") (net 1) (tstamp 77ee48fa-3185-4b6e-a488-bf630a794fb6))
  (segment (start 115.9 87.2) (end 119.8625 87.2) (width 0.6) (layer "F.Cu") (net 1) (tstamp 786c8aa2-2e44-4951-9ca2-dfa07403aaec))
  (segment (start 109.895 83.45) (end 112.575 83.45) (width 0.6) (layer "F.Cu") (net 1) (tstamp 965527ab-c05b-4ebb-b970-e02103a5dc11))
  (segment (start 115.9 87.2) (end 114.25 87.2) (width 0.6) (layer "F.Cu") (net 1) (tstamp a3cd067e-f593-4f55-b12f-2695d76e61a8))
  (segment (start 107.95 81.407) (end 107.442 81.915) (width 0.6) (layer "F.Cu") (net 1) (tstamp abb3f112-edde-46bf-9a22-f1167862604f))
  (segment (start 108.164748 92.1004) (end 109.795252 92.1004) (width 0.6) (layer "F.Cu") (net 1) (tstamp ae2c3707-caee-4b29-b5b9-cce158d5f1e1))
  (segment (start 122.4 87.2236) (end 120.3139 87.2236) (width 0.6) (layer "F.Cu") (net 1) (tstamp b6cb3aa2-7817-49da-87d4-2655615a4178))
  (segment (start 112.575 83.45) (end 112.6 83.425) (width 0.6) (layer "F.Cu") (net 1) (tstamp bb8829f3-77d3-4866-b1c3-c9206da66415))
  (segment (start 111.5 89.95) (end 114.05 87.4) (width 0.6) (layer "F.Cu") (net 1) (tstamp e2060c6d-d5ca-4ce6-b850-f2e95deb1a02))
  (segment (start 107.442 91.377652) (end 108.164748 92.1004) (width 0.6) (layer "F.Cu") (net 1) (tstamp e3f0206f-4147-4482-a0fd-f0d92a66259e))
  (segment (start 110.6338 91.261852) (end 110.6338 89.95) (width 0.6) (layer "F.Cu") (net 1) (tstamp e9ab8260-21e1-47fd-ab24-36e5b9dc61df))
  (segment (start 110.6314 82.0818) (end 109.9566 81.407) (width 0.6) (layer "F.Cu") (net 1) (tstamp ee4d6739-58b9-4dbc-b5fc-2d35e9e9374d))
  (segment (start 120.3139 87.2236) (end 120.1 87.4375) (width 0.6) (layer "F.Cu") (net 1) (tstamp fc53d6a5-514d-4517-a5a5-3698fc956596))
  (segment (start 110.6314 83.45) (end 110.6314 82.0818) (width 0.6) (layer "F.Cu") (net 1) (tstamp fe6771dc-ed7f-4b42-aa96-63ee2dbbd422))
  (segment (start 109.895 89.15) (end 110.9 89.15) (width 0.6) (layer "F.Cu") (net 2) (tstamp 002e1231-e42e-4692-b289-92d8d6a64dbb))
  (segment (start 108.5088 88.7222) (end 108.9366 89.15) (width 0.6) (layer "F.Cu") (net 2) (tstamp 0685d8f1-38b6-4807-ba34-d8f2d9096dc4))
  (segment (start 115.9 86.25) (end 114.3 86.25) (width 0.6) (layer "F.Cu") (net 2) (tstamp 1110fcaa-d70a-495f-b6c1-fc65adeed346))
  (segment (start 115.9 88.675) (end 115.9 88.15) (width 0.25) (layer "F.Cu") (net 2) (tstamp 2de66ff7-33e0-40e8-83f5-503079c82c55))
  (segment (start 108.9366 89.15) (end 109.895 89.15) (width 0.6) (layer "F.Cu") (net 2) (tstamp 3c0dde2d-018c-4159-9470-6cd617435657))
  (segment (start 115.9 85.725) (end 115.9 86.25) (width 0.25) (layer "F.Cu") (net 2) (tstamp 49c5c3b6-21b2-49c9-aa4a-9b6f65d73adb))
  (segment (start 109.895 84.25) (end 108.8939 84.25) (width 0.6) (layer "F.Cu") (net 2) (tstamp 4c4a7637-8431-40e0-adb2-638fde0b9430))
  (segment (start 114.3 86.25) (end 114.05 86) (width 0.6) (layer "F.Cu") (net 2) (tstamp 5a60858c-d51c-4aef-99a1-cbd469272346))
  (segment (start 108.5088 84.6351) (end 108.5088 88.7222) (width 0.6) (layer "F.Cu") (net 2) (tstamp a8624501-2015-48b3-93a4-f011ebf77b0f))
  (segment (start 110.9 89.15) (end 114.05 86) (width 0.6) (layer "F.Cu") (net 2) (tstamp c9522421-e225-4ebe-93b5-608a1e32929f))
  (segment (start 108.8939 84.25) (end 108.5088 84.6351) (width 0.6) (layer "F.Cu") (net 2) (tstamp e8ec0705-bbb3-4347-a00a-d2f6a34f5c91))
  (via (at 115.9 85.725) (size 0.4) (drill 0.2) (layers "F.Cu" "B.Cu") (net 2) (tstamp 225488dc-4d1f-4507-b3b0-2ab0ad28654e))
  (via (at 115.9 88.675) (size 0.4) (drill 0.2) (layers "F.Cu" "B.Cu") (net 2) (tstamp 35d01448-305a-4df4-8eac-d67f58ae8845))
  (segment (start 115.9 85.725) (end 115.9 88.675) (width 0.25) (layer "B.Cu") (net 2) (tstamp 8e23ac01-f1c5-4014-ba25-b204dfcbadf0))
  (segment (start 122.4 86.22284) (end 120.31034 86.22284) (width 0.6) (layer "F.Cu") (net 3) (tstamp 50ed18b3-c328-4eca-89f1-3df6e4a03a4a))
  (segment (start 119.8625 86.25) (end 120.1 86.0125) (width 0.6) (layer "F.Cu") (net 3) (tstamp 6ab59818-3663-4c6c-8065-a395534eb0be))
  (segment (start 120.31034 86.22284) (end 120.1 86.0125) (width 0.6) (layer "F.Cu") (net 3) (tstamp 8224d3ae-0101-46f7-939a-bf361ad5051e))
  (segment (start 118.1 86.25) (end 119.8625 86.25) (width 0.6) (layer "F.Cu") (net 3) (tstamp e20f2490-cf09-4a90-b32c-7df8f9832ae2))
  (segment (start 109.895 85.45) (end 110.85 85.45) (width 0.25) (layer "F.Cu") (net 7) (tstamp 919562f7-59c5-475f-a4f4-4031eea90138))
  (segment (start 112.6 84.975) (end 111.325 84.975) (width 0.25) (layer "F.Cu") (net 7) (tstamp deb11366-c18b-4577-973b-40bc7677c105))
  (segment (start 111.325 84.975) (end 110.85 85.45) (width 0.25) (layer "F.Cu") (net 7) (tstamp ef38a172-7210-4b4e-85da-322ce2a387ac))

)
