EESchema Schematic File Version 4
EELAYER 30 0
EELAYER END
$Descr A4 11693 8268
encoding utf-8
Sheet 1 1
Title "Qwiic power C single"
Date "2021-01-22"
Rev ""
Comp ""
Comment1 ""
Comment2 ""
Comment3 ""
Comment4 ""
$EndDescr
$Comp
L power:VBUS #PWR0101
U 1 1 600B3A76
P 2200 1050
F 0 "#PWR0101" H 2200 900 50  0001 C CNN
F 1 "VBUS" H 2215 1223 50  0000 C CNN
F 2 "" H 2200 1050 50  0001 C CNN
F 3 "" H 2200 1050 50  0001 C CNN
	1    2200 1050
	1    0    0    -1  
$EndComp
NoConn ~ 1950 1750
NoConn ~ 1050 2550
Wire Wire Line
	1950 1050 2200 1050
$Comp
L power:VBUS #PWR0103
U 1 1 600B5790
P 3950 1400
F 0 "#PWR0103" H 3950 1250 50  0001 C CNN
F 1 "VBUS" H 3965 1573 50  0000 C CNN
F 2 "" H 3950 1400 50  0001 C CNN
F 3 "" H 3950 1400 50  0001 C CNN
	1    3950 1400
	1    0    0    -1  
$EndComp
$Comp
L power:GND #PWR0104
U 1 1 600B62DB
P 4500 1950
F 0 "#PWR0104" H 4500 1700 50  0001 C CNN
F 1 "GND" H 4505 1777 50  0000 C CNN
F 2 "" H 4500 1950 50  0001 C CNN
F 3 "" H 4500 1950 50  0001 C CNN
	1    4500 1950
	1    0    0    -1  
$EndComp
Wire Wire Line
	4500 1800 4500 1900
Wire Wire Line
	4200 1400 4050 1400
Wire Wire Line
	4200 1500 4200 1400
NoConn ~ 6850 1750
NoConn ~ 6850 1650
$Comp
L power:+3V3 #PWR0105
U 1 1 600B8398
P 5050 1400
F 0 "#PWR0105" H 5050 1250 50  0001 C CNN
F 1 "+3V3" H 5065 1573 50  0000 C CNN
F 2 "" H 5050 1400 50  0001 C CNN
F 3 "" H 5050 1400 50  0001 C CNN
	1    5050 1400
	1    0    0    -1  
$EndComp
$Comp
L power:+3V3 #PWR0106
U 1 1 600B8F94
P 7100 1850
F 0 "#PWR0106" H 7100 1700 50  0001 C CNN
F 1 "+3V3" H 7115 2023 50  0000 C CNN
F 2 "" H 7100 1850 50  0001 C CNN
F 3 "" H 7100 1850 50  0001 C CNN
	1    7100 1850
	1    0    0    -1  
$EndComp
$Comp
L power:GND #PWR0107
U 1 1 600BBA49
P 7100 1950
F 0 "#PWR0107" H 7100 1700 50  0001 C CNN
F 1 "GND" H 7105 1777 50  0000 C CNN
F 2 "" H 7100 1950 50  0001 C CNN
F 3 "" H 7100 1950 50  0001 C CNN
	1    7100 1950
	1    0    0    -1  
$EndComp
Wire Wire Line
	6850 1850 7100 1850
Wire Wire Line
	6850 1950 7100 1950
Wire Wire Line
	4800 1400 4950 1400
$Comp
L OPL_Capacitor:TANTALUM-SMD-100UF-10V_AVX-B_ C2
U 1 1 600BFB51
P 4950 1650
F 0 "C2" V 4908 1778 45  0000 L CNN
F 1 "100uF" V 4992 1778 45  0000 L CNN
F 2 "Capacitor_Tantalum_SMD:CP_EIA-1608-08_AVX-J" H 4950 1650 50  0001 C CNN
F 3 "" H 4950 1650 50  0001 C CNN
F 4 "TAJB107M010#NJ" H 4980 1800 20  0001 C CNN "MPN"
F 5 "302020015" H 4980 1800 20  0001 C CNN "SKU"
	1    4950 1650
	0    1    1    0   
$EndComp
Wire Wire Line
	4050 1500 4050 1400
Connection ~ 4050 1400
Wire Wire Line
	4050 1400 3950 1400
Wire Wire Line
	4950 1500 4950 1400
Connection ~ 4950 1400
Wire Wire Line
	4950 1400 5050 1400
Wire Wire Line
	4050 1800 4050 1900
Wire Wire Line
	4050 1900 4500 1900
Connection ~ 4500 1900
Wire Wire Line
	4500 1900 4500 1950
Wire Wire Line
	4950 1800 4950 1900
Wire Wire Line
	4950 1900 4500 1900
$Comp
L Regulator_Linear:TLV75533PDBV U1
U 1 1 600E96B7
P 4500 1500
F 0 "U1" H 4500 1842 50  0000 C CNN
F 1 "TLV75533PDBV" H 4500 1751 50  0000 C CNN
F 2 "Package_TO_SOT_SMD:SOT-23-5" H 4500 1825 50  0001 C CIN
F 3 "http://www.ti.com/lit/ds/symlink/tlv755p.pdf" H 4500 1550 50  0001 C CNN
	1    4500 1500
	1    0    0    -1  
$EndComp
Connection ~ 4200 1400
$Comp
L SparkFun-Connectors:QWIIC_CONNECTORJS-1MM QWIIC1
U 1 1 6017C5B6
P 6750 1950
F 0 "QWIIC1" H 6708 2560 45  0000 C CNN
F 1 "QWIIC_CONNECTORJS-1MM" H 6708 2476 45  0000 C CNN
F 2 "1X04_1MM_RA" H 6750 2450 20  0001 C CNN
F 3 "" H 6750 1950 50  0001 C CNN
F 4 "CONN-13694" H 6708 2381 60  0000 C CNN "Field4"
	1    6750 1950
	1    0    0    -1  
$EndComp
NoConn ~ 1950 1550
$Comp
L Connector:USB_C_Plug_USB2.0 USB1
U 1 1 601A56DF
P 1350 1650
F 0 "USB1" H 1457 2517 50  0000 C CNN
F 1 "USB_C_Plug_USB2.0" H 1457 2426 50  0000 C CNN
F 2 "Connector_USB:USB_C_Receptacle_HRO_TYPE-C-31-M-12" H 1500 1650 50  0001 C CNN
F 3 "https://www.usb.org/sites/default/files/documents/usb_type-c.zip" H 1500 1650 50  0001 C CNN
	1    1350 1650
	1    0    0    -1  
$EndComp
Wire Wire Line
	1350 2550 1350 2700
$Comp
L power:GND #PWR0102
U 1 1 600B4982
P 1350 2700
F 0 "#PWR0102" H 1350 2450 50  0001 C CNN
F 1 "GND" H 1355 2527 50  0000 C CNN
F 2 "" H 1350 2700 50  0001 C CNN
F 3 "" H 1350 2700 50  0001 C CNN
	1    1350 2700
	1    0    0    -1  
$EndComp
$Comp
L Device:R R1
U 1 1 601CDB5F
P 2450 1250
F 0 "R1" V 2243 1250 50  0000 C CNN
F 1 "5k1" V 2334 1250 50  0000 C CNN
F 2 "Resistor_SMD:R_0603_1608Metric" V 2380 1250 50  0001 C CNN
F 3 "~" H 2450 1250 50  0001 C CNN
	1    2450 1250
	0    1    1    0   
$EndComp
$Comp
L power:GND #PWR0108
U 1 1 601CEAB5
P 2750 1300
F 0 "#PWR0108" H 2750 1050 50  0001 C CNN
F 1 "GND" H 2755 1127 50  0000 C CNN
F 2 "" H 2750 1300 50  0001 C CNN
F 3 "" H 2750 1300 50  0001 C CNN
	1    2750 1300
	1    0    0    -1  
$EndComp
Wire Wire Line
	1950 1250 2300 1250
Wire Wire Line
	2600 1250 2750 1250
Wire Wire Line
	2750 1250 2750 1300
NoConn ~ 1950 1350
$Comp
L SparkFun-Capacitors:1.0UF-0603-16V-10% C1
U 1 1 601D4780
P 4050 1700
F 0 "C1" H 3850 1850 45  0000 L CNN
F 1 "1.0UF-0603-16V-10%" H 3150 1750 45  0000 L CNN
F 2 "0603" H 4050 1950 20  0001 C CNN
F 3 "" H 4050 1700 50  0001 C CNN
F 4 "CAP-00868" H 3400 1650 60  0000 L CNN "Field4"
	1    4050 1700
	1    0    0    -1  
$EndComp
$EndSCHEMATC
