EESchema Schematic File Version 4
EELAYER 30 0
EELAYER END
$Descr A4 11693 8268
encoding utf-8
Sheet 1 1
Title "LiFePO4 14500 power"
Date "2021-01-31"
Rev ""
Comp ""
Comment1 ""
Comment2 ""
Comment3 ""
Comment4 ""
$EndDescr
$Comp
L SparkFun-Connectors:QWIIC_CONNECTORJS-1MM QWIIC1
U 1 1 60159022
P 1400 7000
F 0 "QWIIC1" H 1358 7610 45  0000 C CNN
F 1 "QWIIC_CONNECTORJS-1MM" H 1358 7526 45  0000 C CNN
F 2 "1X04_1MM_RA" H 1400 7500 20  0001 C CNN
F 3 "" H 1400 7000 50  0001 C CNN
F 4 "CONN-13694" H 1358 7431 60  0000 C CNN "Field4"
	1    1400 7000
	1    0    0    -1  
$EndComp
Text Label 1700 6700 2    50   ~ 0
SCL
Text Label 1700 6800 2    50   ~ 0
SDA
Wire Wire Line
	1500 6700 1700 6700
Wire Wire Line
	1500 6800 1700 6800
Wire Wire Line
	1500 6900 1850 6900
Wire Wire Line
	1500 7000 1700 7000
$Comp
L SparkFun-Connectors:QWIIC_CONNECTORJS-1MM QWIIC2
U 1 1 6015A778
P 3100 7000
F 0 "QWIIC2" H 3058 7610 45  0000 C CNN
F 1 "QWIIC_CONNECTORJS-1MM" H 3058 7526 45  0000 C CNN
F 2 "1X04_1MM_RA" H 3100 7500 20  0001 C CNN
F 3 "" H 3100 7000 50  0001 C CNN
F 4 "CONN-13694" H 3058 7431 60  0000 C CNN "Field4"
	1    3100 7000
	1    0    0    -1  
$EndComp
Text Label 3400 6700 2    50   ~ 0
SCL
Text Label 3400 6800 2    50   ~ 0
SDA
Wire Wire Line
	3200 6700 3400 6700
Wire Wire Line
	3200 6800 3400 6800
Wire Wire Line
	3200 6900 3550 6900
Wire Wire Line
	3400 7000 3200 7000
$Comp
L LiFePO4_14500_power:CN3801 U1
U 1 1 60162A48
P 2850 2100
F 0 "U1" H 3100 1350 50  0000 C CNN
F 1 "CN3801" H 2850 2100 50  0000 C CNN
F 2 "Package_SO:SSOP-10_3.9x4.9mm_P1.00mm" H 2850 2000 50  0001 C CNN
F 3 "" H 2850 2000 50  0001 C CNN
	1    2850 2100
	1    0    0    -1  
$EndComp
$Comp
L FDS4435BZ:FDS4435BZ Q1
U 1 1 60165B81
P 3500 1250
F 0 "Q1" H 3598 1204 50  0000 L CNN
F 1 "FDS4435BZ" H 3598 1295 50  0000 L CNN
F 2 "SO08-E3" H 3500 1250 50  0001 L BNN
F 3 "" H 3500 1250 50  0001 L BNN
	1    3500 1250
	1    0    0    1   
$EndComp
$Comp
L Device:R R1
U 1 1 60167937
P 2000 1600
F 0 "R1" H 2070 1646 50  0000 L CNN
F 1 "1k5" H 2070 1555 50  0000 L CNN
F 2 "Resistor_SMD:R_0805_2012Metric" V 1930 1600 50  0001 C CNN
F 3 "~" H 2000 1600 50  0001 C CNN
	1    2000 1600
	1    0    0    -1  
$EndComp
$Comp
L Device:R R2
U 1 1 60168314
P 3400 2650
F 0 "R2" H 3470 2696 50  0000 L CNN
F 1 "120" H 3470 2605 50  0000 L CNN
F 2 "Resistor_SMD:R_0805_2012Metric" V 3330 2650 50  0001 C CNN
F 3 "~" H 3400 2650 50  0001 C CNN
	1    3400 2650
	1    0    0    -1  
$EndComp
$Comp
L Device:R R3
U 1 1 60168F42
P 1450 2400
F 0 "R3" H 1520 2446 50  0000 L CNN
F 1 "27k" H 1520 2355 50  0000 L CNN
F 2 "Resistor_SMD:R_0805_2012Metric" V 1380 2400 50  0001 C CNN
F 3 "~" H 1450 2400 50  0001 C CNN
	1    1450 2400
	1    0    0    -1  
$EndComp
$Comp
L Device:R R4
U 1 1 60169B06
P 1450 3000
F 0 "R4" H 1520 3046 50  0000 L CNN
F 1 "10k" H 1520 2955 50  0000 L CNN
F 2 "Resistor_SMD:R_0805_2012Metric" V 1380 3000 50  0001 C CNN
F 3 "~" H 1450 3000 50  0001 C CNN
	1    1450 3000
	1    0    0    -1  
$EndComp
$Comp
L Device:R R5
U 1 1 6016AB3F
P 5450 1450
F 0 "R5" V 5243 1450 50  0000 C CNN
F 1 "50" V 5334 1450 50  0000 C CNN
F 2 "Resistor_SMD:R_2512_6332Metric" V 5380 1450 50  0001 C CNN
F 3 "~" H 5450 1450 50  0001 C CNN
	1    5450 1450
	0    1    1    0   
$EndComp
$Comp
L Device:C C1
U 1 1 6016BF3A
P 900 4850
F 0 "C1" H 1015 4896 50  0000 L CNN
F 1 "100nF" H 1015 4805 50  0000 L CNN
F 2 "Capacitor_SMD:C_0805_2012Metric" H 938 4700 50  0001 C CNN
F 3 "~" H 900 4850 50  0001 C CNN
	1    900  4850
	1    0    0    -1  
$EndComp
$Comp
L Device:C C2
U 1 1 6016C7AB
P 2750 1200
F 0 "C2" H 2550 1250 50  0000 L CNN
F 1 "100nF" H 2400 1150 50  0000 L CNN
F 2 "Capacitor_SMD:C_0805_2012Metric" H 2788 1050 50  0001 C CNN
F 3 "~" H 2750 1200 50  0001 C CNN
	1    2750 1200
	1    0    0    -1  
$EndComp
$Comp
L Device:C C4
U 1 1 6016CF13
P 3400 3100
F 0 "C4" H 3515 3146 50  0000 L CNN
F 1 "220nF" H 3515 3055 50  0000 L CNN
F 2 "Capacitor_SMD:C_0805_2012Metric" H 3438 2950 50  0001 C CNN
F 3 "~" H 3400 3100 50  0001 C CNN
	1    3400 3100
	1    0    0    -1  
$EndComp
$Comp
L Device:C C5
U 1 1 6016E29F
P 1400 4850
F 0 "C5" H 1515 4896 50  0000 L CNN
F 1 "4.7uF" H 1515 4805 50  0000 L CNN
F 2 "Capacitor_SMD:C_0805_2012Metric" H 1438 4700 50  0001 C CNN
F 3 "~" H 1400 4850 50  0001 C CNN
	1    1400 4850
	1    0    0    -1  
$EndComp
$Comp
L Device:CP C6
U 1 1 6016E820
P 1850 4850
F 0 "C6" H 1968 4896 50  0000 L CNN
F 1 "10uF" H 1968 4805 50  0000 L CNN
F 2 "Capacitor_SMD:CP_Elec_5x5.4" H 1888 4700 50  0001 C CNN
F 3 "~" H 1850 4850 50  0001 C CNN
	1    1850 4850
	1    0    0    -1  
$EndComp
$Comp
L Device:LED LED1
U 1 1 6017122B
P 1800 2050
F 0 "LED1" V 1839 1932 50  0000 R CNN
F 1 "DONE" V 1748 1932 50  0000 R CNN
F 2 "LED_SMD:LED_0805_2012Metric_Castellated" H 1800 2050 50  0001 C CNN
F 3 "~" H 1800 2050 50  0001 C CNN
	1    1800 2050
	0    -1   -1   0   
$EndComp
$Comp
L Device:LED LED2
U 1 1 601719D7
P 2200 2050
F 0 "LED2" V 2239 1932 50  0000 R CNN
F 1 "CHRG" V 2148 1932 50  0000 R CNN
F 2 "LED_SMD:LED_0805_2012Metric_Castellated" H 2200 2050 50  0001 C CNN
F 3 "~" H 2200 2050 50  0001 C CNN
	1    2200 2050
	0    -1   -1   0   
$EndComp
Wire Wire Line
	2450 2350 2200 2350
Wire Wire Line
	2200 2350 2200 2200
Wire Wire Line
	2450 2550 1800 2550
Wire Wire Line
	1800 2550 1800 2200
Wire Wire Line
	2200 1900 2000 1900
Wire Wire Line
	2000 1750 2000 1900
Connection ~ 2000 1900
Wire Wire Line
	2000 1900 1800 1900
Wire Wire Line
	2450 2700 1450 2700
Wire Wire Line
	1450 2700 1450 2550
Wire Wire Line
	1450 2850 1450 2700
Connection ~ 1450 2700
Wire Wire Line
	2000 1450 2000 1050
Connection ~ 2000 1050
Wire Wire Line
	2000 1050 2350 1050
Wire Wire Line
	1450 2250 1450 1050
Connection ~ 1450 1050
Wire Wire Line
	1450 1050 2000 1050
Wire Wire Line
	2450 1700 2350 1700
Wire Wire Line
	2350 1700 2350 1050
Connection ~ 2350 1050
Wire Wire Line
	2350 1050 2750 1050
Wire Wire Line
	3250 2350 3400 2350
Wire Wire Line
	3400 2350 3400 2500
Wire Wire Line
	3400 2800 3400 2950
Wire Wire Line
	2750 1050 3500 1050
Connection ~ 2750 1050
Wire Wire Line
	3000 1350 3000 1150
Wire Wire Line
	3000 1150 3300 1150
Wire Wire Line
	900  4700 1400 4700
Wire Wire Line
	1400 4700 1850 4700
Connection ~ 1400 4700
$Comp
L power:GND #PWR0105
U 1 1 601A2D9E
P 1400 5150
F 0 "#PWR0105" H 1400 4900 50  0001 C CNN
F 1 "GND" H 1405 4977 50  0000 C CNN
F 2 "" H 1400 5150 50  0001 C CNN
F 3 "" H 1400 5150 50  0001 C CNN
	1    1400 5150
	1    0    0    -1  
$EndComp
Wire Wire Line
	900  5000 1400 5000
Wire Wire Line
	1400 5000 1850 5000
Connection ~ 1400 5000
Text Label 750  1050 0    50   ~ 0
VIN
$Comp
L power:GND #PWR0106
U 1 1 601A6682
P 1450 3250
F 0 "#PWR0106" H 1450 3000 50  0001 C CNN
F 1 "GND" H 1455 3077 50  0000 C CNN
F 2 "" H 1450 3250 50  0001 C CNN
F 3 "" H 1450 3250 50  0001 C CNN
	1    1450 3250
	1    0    0    -1  
$EndComp
Wire Wire Line
	1450 3250 1450 3150
$Comp
L power:GND #PWR0107
U 1 1 601A784F
P 3400 3350
F 0 "#PWR0107" H 3400 3100 50  0001 C CNN
F 1 "GND" H 3405 3177 50  0000 C CNN
F 2 "" H 3400 3350 50  0001 C CNN
F 3 "" H 3400 3350 50  0001 C CNN
	1    3400 3350
	1    0    0    -1  
$EndComp
Wire Wire Line
	3400 3350 3400 3250
$Comp
L SS34:SS34 D1
U 1 1 601A9E56
P 4400 1450
F 0 "D1" H 4400 1667 50  0000 C CNN
F 1 "SS34" H 4400 1576 50  0000 C CNN
F 2 "DIOM7959X265N" H 4400 1450 50  0001 L BNN
F 3 "" H 4400 1450 50  0001 L BNN
F 4 "IPC-7351B" H 4400 1450 50  0001 L BNN "STANDARD"
F 5 "36301" H 4400 1450 50  0001 L BNN "SNAPEDA_PACKAGE_ID"
F 6 "31 Aug 2016" H 4400 1450 50  0001 L BNN "PARTREV"
F 7 "On Semiconductor" H 4400 1450 50  0001 L BNN "MANUFACTURER"
F 8 "2.65mm" H 4400 1450 50  0001 L BNN "MAXIMUM_PACKAGE_HEIGHT"
	1    4400 1450
	1    0    0    -1  
$EndComp
$Comp
L Device:L L1
U 1 1 601ABDAA
P 4950 1450
F 0 "L1" V 5140 1450 50  0000 C CNN
F 1 "47uH" V 5049 1450 50  0000 C CNN
F 2 "SnapEDA:IND_SRN8040TA-470M" H 4950 1450 50  0001 C CNN
F 3 "~" H 4950 1450 50  0001 C CNN
	1    4950 1450
	0    -1   -1   0   
$EndComp
$Comp
L SS34:SS34 D2
U 1 1 601AC371
P 4700 2300
F 0 "D2" V 4746 2220 50  0000 R CNN
F 1 "SS34" V 4655 2220 50  0000 R CNN
F 2 "DIOM7959X265N" H 4700 2300 50  0001 L BNN
F 3 "" H 4700 2300 50  0001 L BNN
F 4 "IPC-7351B" H 4700 2300 50  0001 L BNN "STANDARD"
F 5 "36301" H 4700 2300 50  0001 L BNN "SNAPEDA_PACKAGE_ID"
F 6 "31 Aug 2016" H 4700 2300 50  0001 L BNN "PARTREV"
F 7 "On Semiconductor" H 4700 2300 50  0001 L BNN "MANUFACTURER"
F 8 "2.65mm" H 4700 2300 50  0001 L BNN "MAXIMUM_PACKAGE_HEIGHT"
	1    4700 2300
	0    -1   -1   0   
$EndComp
Wire Wire Line
	3500 1450 4200 1450
Wire Wire Line
	4600 1450 4700 1450
Wire Wire Line
	4700 2100 4700 1450
Connection ~ 4700 1450
Wire Wire Line
	4700 1450 4800 1450
Wire Wire Line
	5100 1450 5200 1450
$Comp
L power:GND #PWR0108
U 1 1 601C5CE9
P 4700 2600
F 0 "#PWR0108" H 4700 2350 50  0001 C CNN
F 1 "GND" H 4705 2427 50  0000 C CNN
F 2 "" H 4700 2600 50  0001 C CNN
F 3 "" H 4700 2600 50  0001 C CNN
	1    4700 2600
	1    0    0    -1  
$EndComp
Wire Wire Line
	4700 2500 4700 2600
Wire Wire Line
	5200 1450 5200 1800
Wire Wire Line
	5200 1800 3250 1800
Connection ~ 5200 1450
Wire Wire Line
	5200 1450 5300 1450
$Comp
L BHAA-POL:BHAA-POL BT1
U 1 1 6015FC12
P 6000 1750
F 0 "BT1" V 5954 1880 50  0000 L CNN
F 1 "BHAA-POL" V 6045 1880 50  0000 L CNN
F 2 "BAT_BHAA-POL" H 6000 1750 50  0001 L BNN
F 3 "" H 6000 1750 50  0001 L BNN
F 4 "Manufacturer Recommendations" H 6000 1750 50  0001 L BNN "STANDARD"
F 5 "MPD" H 6000 1750 50  0001 L BNN "MANUFACTURER"
F 6 "B" H 6000 1750 50  0001 L BNN "PARTREV"
F 7 "19.81 mm" H 6000 1750 50  0001 L BNN "MAXIMUM_PACKAGE_HEIGHT"
	1    6000 1750
	0    1    1    0   
$EndComp
Wire Wire Line
	5600 1450 6000 1450
Wire Wire Line
	3250 2000 3450 2000
Wire Wire Line
	750  1050 1450 1050
Text Label 1400 4450 3    50   ~ 0
VIN
Wire Wire Line
	1400 4700 1400 4450
Wire Wire Line
	1400 5000 1400 5150
$Comp
L Device:C C8
U 1 1 60201BB2
P 2500 4850
F 0 "C8" H 2615 4896 50  0000 L CNN
F 1 "100nF" H 2615 4805 50  0000 L CNN
F 2 "Capacitor_SMD:C_0805_2012Metric" H 2538 4700 50  0001 C CNN
F 3 "~" H 2500 4850 50  0001 C CNN
	1    2500 4850
	1    0    0    -1  
$EndComp
$Comp
L Device:C C3
U 1 1 602020A6
P 3000 4850
F 0 "C3" H 3115 4896 50  0000 L CNN
F 1 "4.7uF" H 3115 4805 50  0000 L CNN
F 2 "Capacitor_SMD:C_0805_2012Metric" H 3038 4700 50  0001 C CNN
F 3 "~" H 3000 4850 50  0001 C CNN
	1    3000 4850
	1    0    0    -1  
$EndComp
$Comp
L Device:CP C7
U 1 1 6020254C
P 3500 4850
F 0 "C7" H 3618 4896 50  0000 L CNN
F 1 "10uF" H 3618 4805 50  0000 L CNN
F 2 "Capacitor_SMD:CP_Elec_5x5.4" H 3538 4700 50  0001 C CNN
F 3 "~" H 3500 4850 50  0001 C CNN
	1    3500 4850
	1    0    0    -1  
$EndComp
Wire Wire Line
	2500 4700 3000 4700
Connection ~ 3000 4700
Wire Wire Line
	3000 4700 3500 4700
Wire Wire Line
	2500 5000 3000 5000
Connection ~ 3000 5000
Wire Wire Line
	3000 5000 3500 5000
$Comp
L power:GND #PWR0109
U 1 1 60204B76
P 3000 5150
F 0 "#PWR0109" H 3000 4900 50  0001 C CNN
F 1 "GND" H 3005 4977 50  0000 C CNN
F 2 "" H 3000 5150 50  0001 C CNN
F 3 "" H 3000 5150 50  0001 C CNN
	1    3000 5150
	1    0    0    -1  
$EndComp
Wire Notes Line
	550  550  550  3800
Wire Notes Line
	550  3800 6700 3800
Wire Notes Line
	6700 3800 6700 550 
Wire Notes Line
	6700 550  550  550 
Text Notes 2600 850  0    180  ~ 36
Solar battery charger
Text Notes 1300 4250 0    180  ~ 36
Smoothing caps
Wire Notes Line
	550  3900 550  5500
Wire Notes Line
	550  5500 4100 5500
Wire Notes Line
	4100 5500 4100 3900
Wire Notes Line
	4100 3900 550  3900
Text Notes 2450 5900 0    180  ~ 36
Connectors
Wire Notes Line
	550  5600 550  7700
Wire Notes Line
	550  7700 6050 7700
Wire Notes Line
	6050 5600 550  5600
Text Notes 7800 950  0    180  ~ 36
Battery protection
Wire Notes Line
	6800 550  11150 550 
Wire Notes Line
	11150 550  11150 3800
Wire Notes Line
	11150 3800 6800 3800
Wire Notes Line
	6800 3800 6800 550 
$Comp
L LiFePO4_14500_power:HY2112-BB U2
U 1 1 602749FF
P 9350 2000
F 0 "U2" H 9700 2400 50  0000 L CNN
F 1 "HY2112-BB" H 9200 2000 50  0000 L CNN
F 2 "Package_TO_SOT_SMD:SOT-23-6" H 9350 2000 180 0001 C CNN
F 3 "" H 9350 2000 180 0001 C CNN
	1    9350 2000
	1    0    0    -1  
$EndComp
NoConn ~ 9250 2900
$Comp
L power:-BATT #PWR0110
U 1 1 60292477
P 6000 2050
F 0 "#PWR0110" H 6000 1900 50  0001 C CNN
F 1 "-BATT" H 6015 2178 50  0000 L CNN
F 2 "" H 6000 2050 50  0001 C CNN
F 3 "" H 6000 2050 50  0001 C CNN
	1    6000 2050
	-1   0    0    1   
$EndComp
$Comp
L power:+BATT #PWR0111
U 1 1 602934C8
P 6000 1450
F 0 "#PWR0111" H 6000 1300 50  0001 C CNN
F 1 "+BATT" H 6015 1578 50  0000 L CNN
F 2 "" H 6000 1450 50  0001 C CNN
F 3 "" H 6000 1450 50  0001 C CNN
	1    6000 1450
	1    0    0    -1  
$EndComp
Connection ~ 6000 1450
$Comp
L power:+BATT #PWR0112
U 1 1 60299EBC
P 3000 4600
F 0 "#PWR0112" H 3000 4450 50  0001 C CNN
F 1 "+BATT" H 3015 4773 50  0000 C CNN
F 2 "" H 3000 4600 50  0001 C CNN
F 3 "" H 3000 4600 50  0001 C CNN
	1    3000 4600
	1    0    0    -1  
$EndComp
Wire Wire Line
	3000 4700 3000 4600
Wire Wire Line
	3000 5000 3000 5150
$Comp
L power:+BATT #PWR0113
U 1 1 602A029E
P 7850 1800
F 0 "#PWR0113" H 7850 1650 50  0001 C CNN
F 1 "+BATT" H 7865 1927 50  0000 L CNN
F 2 "" H 7850 1800 50  0001 C CNN
F 3 "" H 7850 1800 50  0001 C CNN
	1    7850 1800
	1    0    0    -1  
$EndComp
$Comp
L power:-BATT #PWR0114
U 1 1 602A0B33
P 7850 2100
F 0 "#PWR0114" H 7850 1950 50  0001 C CNN
F 1 "-BATT" H 7865 2227 50  0000 L CNN
F 2 "" H 7850 2100 50  0001 C CNN
F 3 "" H 7850 2100 50  0001 C CNN
	1    7850 2100
	-1   0    0    1   
$EndComp
$Comp
L Device:C C9
U 1 1 602A1B12
P 8650 1950
F 0 "C9" H 8765 1996 50  0000 L CNN
F 1 "100nF" H 8765 1905 50  0000 L CNN
F 2 "Capacitor_SMD:C_0805_2012Metric" H 8688 1800 50  0001 C CNN
F 3 "~" H 8650 1950 50  0001 C CNN
	1    8650 1950
	-1   0    0    1   
$EndComp
$Comp
L Device:R R6
U 1 1 602A54F8
P 8300 1800
F 0 "R6" H 8370 1846 50  0000 L CNN
F 1 "100" H 8370 1755 50  0000 L CNN
F 2 "Resistor_SMD:R_0805_2012Metric" V 8230 1800 50  0001 C CNN
F 3 "~" H 8300 1800 50  0001 C CNN
	1    8300 1800
	0    -1   -1   0   
$EndComp
Wire Wire Line
	8800 1800 8650 1800
Connection ~ 8650 1800
Wire Wire Line
	8650 1800 8450 1800
Wire Wire Line
	8800 2100 8650 2100
Wire Wire Line
	8150 1800 7850 1800
Wire Wire Line
	8650 2100 7850 2100
Connection ~ 8650 2100
Wire Wire Line
	8850 2800 8650 2800
Wire Wire Line
	8650 2800 8650 2100
$Comp
L power:GND #PWR0115
U 1 1 602B87C6
P 10000 2800
F 0 "#PWR0115" H 10000 2550 50  0001 C CNN
F 1 "GND" H 10005 2627 50  0000 C CNN
F 2 "" H 10000 2800 50  0001 C CNN
F 3 "" H 10000 2800 50  0001 C CNN
	1    10000 2800
	1    0    0    -1  
$EndComp
$Comp
L LiFePO4_14500_power:SI7900AEDN-T1-E3 Q2
U 1 1 6027D704
P 9250 2800
F 0 "Q2" V 9400 2950 50  0000 L CNN
F 1 "SI7900AEDN-T1-E3" V 9500 2450 50  0000 L CNN
F 2 "Package_SO:Vishay_PowerPAK_1212-8_Single" H 9350 3075 50  0001 L CIN
F 3 "https://www.diodes.com/assets/Datasheets/ds31770.pdf" H 9150 3000 50  0001 L CNN
	1    9250 2800
	0    1    1    0   
$EndComp
$Comp
L Device:R R7
U 1 1 602B6201
P 9700 2550
F 0 "R7" H 9770 2596 50  0000 L CNN
F 1 "2k" H 9770 2505 50  0000 L CNN
F 2 "Resistor_SMD:R_0805_2012Metric" V 9630 2550 50  0001 C CNN
F 3 "~" H 9700 2550 50  0001 C CNN
	1    9700 2550
	1    0    0    -1  
$EndComp
Wire Wire Line
	9650 2800 9700 2800
Wire Wire Line
	9700 2700 9700 2800
Connection ~ 9700 2800
Wire Wire Line
	9700 2800 10000 2800
Wire Wire Line
	9050 2400 9050 2500
Wire Wire Line
	9450 2400 9450 2500
$Comp
L Connector:Screw_Terminal_01x02 J1
U 1 1 602F6D3A
P 4750 6650
F 0 "J1" H 4830 6642 50  0000 L CNN
F 1 "Screw_Terminal_01x02" H 4830 6551 50  0000 L CNN
F 2 "TerminalBlock:TerminalBlock_bornier-2_P5.08mm" H 4750 6650 50  0001 C CNN
F 3 "~" H 4750 6650 50  0001 C CNN
	1    4750 6650
	1    0    0    -1  
$EndComp
Wire Notes Line
	6050 7700 6050 5600
Text Label 4350 6650 0    50   ~ 0
VIN
$Comp
L power:GND #PWR0116
U 1 1 603046CC
P 4350 6750
F 0 "#PWR0116" H 4350 6500 50  0001 C CNN
F 1 "GND" H 4355 6577 50  0000 C CNN
F 2 "" H 4350 6750 50  0001 C CNN
F 3 "" H 4350 6750 50  0001 C CNN
	1    4350 6750
	1    0    0    -1  
$EndComp
Wire Wire Line
	4550 6650 4350 6650
Wire Wire Line
	4550 6750 4350 6750
$Comp
L power:GND #PWR0102
U 1 1 60340049
P 3400 7000
F 0 "#PWR0102" H 3400 6750 50  0001 C CNN
F 1 "GND" H 3405 6827 50  0000 C CNN
F 2 "" H 3400 7000 50  0001 C CNN
F 3 "" H 3400 7000 50  0001 C CNN
	1    3400 7000
	1    0    0    -1  
$EndComp
$Comp
L power:GND #PWR0104
U 1 1 603403AE
P 1700 7000
F 0 "#PWR0104" H 1700 6750 50  0001 C CNN
F 1 "GND" H 1705 6827 50  0000 C CNN
F 2 "" H 1700 7000 50  0001 C CNN
F 3 "" H 1700 7000 50  0001 C CNN
	1    1700 7000
	1    0    0    -1  
$EndComp
$Comp
L Switch:SW_SPST SW1
U 1 1 60348578
P 5250 4850
F 0 "SW1" H 5250 5085 50  0000 C CNN
F 1 "SW_SPST" H 5250 4994 50  0000 C CNN
F 2 "Switches:SWITCH_SPST_SMD_A" H 5250 4850 50  0001 C CNN
F 3 "~" H 5250 4850 50  0001 C CNN
	1    5250 4850
	1    0    0    -1  
$EndComp
$Comp
L power:+BATT #PWR0118
U 1 1 6034BD5C
P 5650 4850
F 0 "#PWR0118" H 5650 4700 50  0001 C CNN
F 1 "+BATT" H 5665 5023 50  0000 C CNN
F 2 "" H 5650 4850 50  0001 C CNN
F 3 "" H 5650 4850 50  0001 C CNN
	1    5650 4850
	1    0    0    -1  
$EndComp
Wire Wire Line
	5650 4850 5450 4850
Wire Wire Line
	5050 4850 4800 4850
Text Notes 4400 4250 0    180  ~ 36
Power switch
Wire Notes Line
	4200 3900 4200 5500
Wire Notes Line
	4200 5500 6450 5500
Wire Notes Line
	6450 5500 6450 3900
Wire Notes Line
	6450 3900 4200 3900
$Comp
L power:+BATT #PWR0119
U 1 1 603702DC
P 3450 2000
F 0 "#PWR0119" H 3450 1850 50  0001 C CNN
F 1 "+BATT" H 3465 2128 50  0000 L CNN
F 2 "" H 3450 2000 50  0001 C CNN
F 3 "" H 3450 2000 50  0001 C CNN
	1    3450 2000
	1    0    0    -1  
$EndComp
$Comp
L power:+3V3 #PWR?
U 1 1 605BBAC2
P 1850 6900
F 0 "#PWR?" H 1850 6750 50  0001 C CNN
F 1 "+3V3" H 1865 7073 50  0000 C CNN
F 2 "" H 1850 6900 50  0001 C CNN
F 3 "" H 1850 6900 50  0001 C CNN
	1    1850 6900
	1    0    0    -1  
$EndComp
$Comp
L power:+3V3 #PWR?
U 1 1 605BC11F
P 3550 6900
F 0 "#PWR?" H 3550 6750 50  0001 C CNN
F 1 "+3V3" H 3565 7073 50  0000 C CNN
F 2 "" H 3550 6900 50  0001 C CNN
F 3 "" H 3550 6900 50  0001 C CNN
	1    3550 6900
	1    0    0    -1  
$EndComp
$Comp
L power:+3V3 #PWR?
U 1 1 605BF0C8
P 4800 4850
F 0 "#PWR?" H 4800 4700 50  0001 C CNN
F 1 "+3V3" H 4815 5023 50  0000 C CNN
F 2 "" H 4800 4850 50  0001 C CNN
F 3 "" H 4800 4850 50  0001 C CNN
	1    4800 4850
	1    0    0    -1  
$EndComp
$EndSCHEMATC
