(kicad_symbol_lib (version 20210619) (generator kicad_symbol_editor)
  (symbol "PDS1040-13:PDS1040-13" (pin_numbers hide) (pin_names (offset 1.016) hide) (in_bom yes) (on_board yes)
    (property "Reference" "D" (id 0) (at -5.08 2.54 0)
      (effects (font (size 1.27 1.27)) (justify left bottom))
    )
    (property "Value" "PDS1040-13" (id 1) (at -5.08 -3.81 0)
      (effects (font (size 1.27 1.27)) (justify left bottom))
    )
    (property "Footprint" "PDS1040-13:DIO_PDS1040-13" (id 2) (at 0 0 0)
      (effects (font (size 1.27 1.27)) (justify left bottom) hide)
    )
    (property "Datasheet" "https://www.diodes.com/assets/Datasheets/PDS1040.pdf" (id 3) (at 0 0 0)
      (effects (font (size 1.27 1.27)) (justify left bottom) hide)
    )
    (property "digikeypn" "PDS1040DICT-ND" (id 4) (at 0 0 0)
      (effects (font (size 1.27 1.27)))
    )
    (property "ki_description" "Schottky diode" (id 5) (at 0 0 0)
      (effects (font (size 1.27 1.27)) hide)
    )
    (symbol "PDS1040-13_0_0"
      (polyline
        (pts
          (xy -2.54 0)
          (xy -1.27 0)
        )
        (stroke (width 0.254)) (fill (type none))
      )
      (polyline
        (pts
          (xy -1.27 -1.27)
          (xy 1.27 0)
        )
        (stroke (width 0.254)) (fill (type none))
      )
      (polyline
        (pts
          (xy -1.27 0)
          (xy -1.27 -1.27)
        )
        (stroke (width 0.254)) (fill (type none))
      )
      (polyline
        (pts
          (xy -1.27 1.27)
          (xy -1.27 0)
        )
        (stroke (width 0.254)) (fill (type none))
      )
      (polyline
        (pts
          (xy 0.635 -1.016)
          (xy 0.635 -1.27)
        )
        (stroke (width 0.254)) (fill (type none))
      )
      (polyline
        (pts
          (xy 1.27 -1.27)
          (xy 0.635 -1.27)
        )
        (stroke (width 0.254)) (fill (type none))
      )
      (polyline
        (pts
          (xy 1.27 0)
          (xy -1.27 1.27)
        )
        (stroke (width 0.254)) (fill (type none))
      )
      (polyline
        (pts
          (xy 1.27 0)
          (xy 1.27 -1.27)
        )
        (stroke (width 0.254)) (fill (type none))
      )
      (polyline
        (pts
          (xy 1.27 1.27)
          (xy 1.27 0)
        )
        (stroke (width 0.254)) (fill (type none))
      )
      (polyline
        (pts
          (xy 1.905 1.27)
          (xy 1.27 1.27)
        )
        (stroke (width 0.254)) (fill (type none))
      )
      (polyline
        (pts
          (xy 1.905 1.27)
          (xy 1.905 1.016)
        )
        (stroke (width 0.254)) (fill (type none))
      )
      (polyline
        (pts
          (xy 2.54 0)
          (xy 1.27 0)
        )
        (stroke (width 0.254)) (fill (type none))
      )
      (pin passive line (at -5.08 0 0) (length 2.54)
        (name "~" (effects (font (size 1.016 1.016))))
        (number "1" (effects (font (size 1.016 1.016))))
      )
      (pin passive line (at -5.08 0 0) (length 2.54)
        (name "~" (effects (font (size 1.016 1.016))))
        (number "2" (effects (font (size 1.016 1.016))))
      )
      (pin passive line (at 5.08 0 180) (length 2.54)
        (name "~" (effects (font (size 1.016 1.016))))
        (number "3" (effects (font (size 1.016 1.016))))
      )
    )
  )
)
