(kicad_pcb (version 20210722) (generator pcbnew)

  (general
    (thickness 1.6)
  )

  (paper "A4")
  (layers
    (0 "F.Cu" signal)
    (31 "B.Cu" signal)
    (35 "F.Paste" user)
    (36 "B.SilkS" user "B.Silkscreen")
    (37 "F.SilkS" user "F.Silkscreen")
    (38 "B.Mask" user)
    (39 "F.Mask" user)
    (40 "Dwgs.User" user "User.Drawings")
    (41 "Cmts.User" user "User.Comments")
    (44 "Edge.Cuts" user)
    (45 "Margin" user)
    (46 "B.CrtYd" user "B.Courtyard")
    (47 "F.CrtYd" user "F.Courtyard")
    (48 "B.Fab" user)
    (49 "F.Fab" user)
  )

  (setup
    (stackup
      (layer "F.SilkS" (type "Top Silk Screen") (color "White"))
      (layer "F.Paste" (type "Top Solder Paste"))
      (layer "F.Mask" (type "Top Solder Mask") (color "Green") (thickness 0.01))
      (layer "F.Cu" (type "copper") (thickness 0.035))
      (layer "dielectric 1" (type "core") (thickness 1.51) (material "FR4") (epsilon_r 4.5) (loss_tangent 0.02))
      (layer "B.Cu" (type "copper") (thickness 0.035))
      (layer "B.Mask" (type "Bottom Solder Mask") (color "Green") (thickness 0.01))
      (layer "B.SilkS" (type "Bottom Silk Screen") (color "White"))
      (copper_finish "None")
      (dielectric_constraints no)
    )
    (pad_to_mask_clearance 0)
    (pcbplotparams
      (layerselection 0x00010fc_ffffffff)
      (disableapertmacros false)
      (usegerberextensions false)
      (usegerberattributes true)
      (usegerberadvancedattributes true)
      (creategerberjobfile true)
      (svguseinch false)
      (svgprecision 6)
      (excludeedgelayer true)
      (plotframeref false)
      (viasonmask false)
      (mode 1)
      (useauxorigin false)
      (hpglpennumber 1)
      (hpglpenspeed 20)
      (hpglpendiameter 15.000000)
      (dxfpolygonmode true)
      (dxfimperialunits true)
      (dxfusepcbnewfont true)
      (psnegative false)
      (psa4output false)
      (plotreference true)
      (plotvalue true)
      (plotinvisibletext false)
      (sketchpadsonfab false)
      (subtractmaskfromsilk false)
      (outputformat 1)
      (mirror false)
      (drillshape 1)
      (scaleselection 1)
      (outputdirectory "")
    )
  )

  (net 0 "")
  (net 1 "GND")
  (net 2 "VBUS")
  (net 3 "+3V3")
  (net 4 "unconnected-(U1-Pad4)")
  (net 5 "/SCL")
  (net 6 "/SDA")
  (net 7 "unconnected-(USB1-Pad2)")
  (net 8 "unconnected-(USB1-Pad3)")
  (net 9 "unconnected-(USB1-Pad4)")
  (net 10 "unconnected-(USB1-Pad6)")

  (footprint "Connectors:1X04_1MM_RA" (layer "F.Cu")
    (tedit 610149C2) (tstamp 00000000-0000-0000-0000-00006017edca)
    (at 146.9 99.8 180)
    (descr "SMD- 4 PIN RIGHT ANGLE")
    (tags "SMD- 4 PIN RIGHT ANGLE")
    (property "Field4" "CONN-13694")
    (property "LCSC" "C160404")
    (property "Manufacturer" "JST")
    (property "Sheetfile" "Qwiic power micro double.kicad_sch")
    (property "Sheetname" "")
    (property "digikeypn" "455-1804-1-ND")
    (property "lcscpn" "C160404")
    (path "/00000000-0000-0000-0000-00006018edb4")
    (attr smd)
    (fp_text reference "QWIIC1" (at 5.3712 4.3976) (layer "F.SilkS")
      (effects (font (size 0.6096 0.6096) (thickness 0.127)))
      (tstamp b725f7b6-94da-4a5d-a69c-846c3c97c143)
    )
    (fp_text value "QWIIC_CONNECTORJS-1MM" (at 3.683 0.889 270) (layer "F.Fab")
      (effects (font (size 0.6096 0.6096) (thickness 0.127)))
      (tstamp 9cfb982d-ca75-4cf8-aa33-73d22b3df17b)
    )
    (fp_line (start -1.4986 4.59994) (end 1.4986 4.59994) (layer "F.SilkS") (width 0.254) (tstamp 0b635170-789d-4728-9fd8-ea60fdeb978a))
    (fp_line (start -2.99974 1.99898) (end -2.99974 0.34798) (layer "F.SilkS") (width 0.254) (tstamp 7c46ae4d-cb3e-4a7e-87f1-4a509d0cebea))
    (fp_line (start 2.2479 0.34798) (end 2.99974 0.34798) (layer "F.SilkS") (width 0.254) (tstamp a5014601-7300-48e8-b13f-96419f92df10))
    (fp_line (start 2.99974 0.34798) (end 2.99974 1.99898) (layer "F.SilkS") (width 0.254) (tstamp ecdd05c0-efdc-42c7-8ce9-5b1cd1bea178))
    (fp_line (start -2.99974 0.34798) (end -2.2479 0.34798) (layer "F.SilkS") (width 0.254) (tstamp fca43dfa-38a6-4dc7-81ea-134fcc182c97))
    (fp_circle (center -2.49936 -0.29972) (end -2.49936 -0.43942) (layer "F.SilkS") (width 0.39878) (fill none) (tstamp a3c9693b-2926-4563-9fff-07846bc75a35))
    (pad "1" smd rect locked (at -1.4986 0 180) (size 0.59944 1.34874) (layers "F.Cu" "F.Paste" "F.Mask")
      (net 1 "GND") (pinfunction "GND") (pintype "power_in") (solder_mask_margin 0.1016) (tstamp 5a6d6ce1-ca70-4614-9921-c1acd08a4b48))
    (pad "2" smd rect locked (at -0.49784 0 180) (size 0.59944 1.34874) (layers "F.Cu" "F.Paste" "F.Mask")
      (net 3 "+3V3") (pinfunction "VCC") (pintype "power_in") (solder_mask_margin 0.1016) (tstamp 42b81971-beea-47d7-9c0b-cdfb55e4abb0))
    (pad "3" smd rect locked (at 0.49784 0 180) (size 0.59944 1.34874) (layers "F.Cu" "F.Paste" "F.Mask")
      (net 6 "/SDA") (pinfunction "SDA") (pintype "passive") (solder_mask_margin 0.1016) (tstamp 5d5fbae3-a92b-4d14-8904-57ba801420b4))
    (pad "4" smd rect locked (at 1.4986 0 180) (size 0.59944 1.34874) (layers "F.Cu" "F.Paste" "F.Mask")
      (net 5 "/SCL") (pinfunction "SCL") (pintype "passive") (solder_mask_margin 0.1016) (tstamp fb42011e-2467-490c-a574-c14d5865d96d))
    (pad "NC1" smd rect locked (at 2.79908 3.67284 180) (size 1.19888 1.99898) (layers "F.Cu" "F.Paste" "F.Mask")
      (solder_mask_margin 0.1016) (tstamp db665000-481e-4a4f-9733-bbd2cb30cef9))
    (pad "NC2" smd rect locked (at -2.79908 3.67284 180) (size 1.19888 1.99898) (layers "F.Cu" "F.Paste" "F.Mask")
      (solder_mask_margin 0.1016) (tstamp edca6efd-33c2-438b-af40-dcac387e9101))
    (model "/Private/home/ian/kicad/external/SnapEDA/SM04B-SRSS-TB(LF)(SN)--3DModel-STEP-56544.step"
      (offset (xyz 0 -0.7 -0.35))
      (scale (xyz 1 1 1))
      (rotate (xyz -90 0 0))
    )
  )

  (footprint "Connectors:1X04_1MM_RA" (layer "F.Cu")
    (tedit 610149C2) (tstamp 00000000-0000-0000-0000-00006017edda)
    (at 146.9 104.3)
    (descr "SMD- 4 PIN RIGHT ANGLE")
    (tags "SMD- 4 PIN RIGHT ANGLE")
    (property "Field4" "CONN-13694")
    (property "LCSC" "C160404")
    (property "Manufacturer" "JST")
    (property "Sheetfile" "Qwiic power micro double.kicad_sch")
    (property "Sheetname" "")
    (property "digikeypn" "455-1804-1-ND")
    (property "lcscpn" "C160404")
    (path "/00000000-0000-0000-0000-00006018f12d")
    (attr smd)
    (fp_text reference "QWIIC2" (at -5.7268 4.3612 180) (layer "F.SilkS")
      (effects (font (size 0.6096 0.6096) (thickness 0.127)))
      (tstamp 19fa2fe0-6fdd-4b76-a495-7e9bba826c93)
    )
    (fp_text value "QWIIC_CONNECTORJS-1MM" (at 3.683 0.889 90) (layer "F.Fab")
      (effects (font (size 0.6096 0.6096) (thickness 0.127)))
      (tstamp 79f58ea0-09a6-4ec7-9f80-0f9e55313452)
    )
    (fp_line (start -1.4986 4.59994) (end 1.4986 4.59994) (layer "F.SilkS") (width 0.254) (tstamp 05fa7879-c868-4440-a4b3-3a7b68ca42f2))
    (fp_line (start 2.2479 0.34798) (end 2.99974 0.34798) (layer "F.SilkS") (width 0.254) (tstamp 336c30db-2d2b-416f-9b8d-7d63f5d3aa73))
    (fp_line (start 2.99974 0.34798) (end 2.99974 1.99898) (layer "F.SilkS") (width 0.254) (tstamp 71720f3b-a31a-4778-9e3c-9fb9fba122dc))
    (fp_line (start -2.99974 0.34798) (end -2.2479 0.34798) (layer "F.SilkS") (width 0.254) (tstamp b892a5a4-4552-43ba-98db-9df09c3235e9))
    (fp_line (start -2.99974 1.99898) (end -2.99974 0.34798) (layer "F.SilkS") (width 0.254) (tstamp dabcf1ab-5644-43da-be35-9442d1bf6059))
    (fp_circle (center -2.49936 -0.29972) (end -2.49936 -0.43942) (layer "F.SilkS") (width 0.39878) (fill none) (tstamp 4c19632c-2fe3-4213-bcb0-8454546cb10c))
    (pad "1" smd rect locked (at -1.4986 0) (size 0.59944 1.34874) (layers "F.Cu" "F.Paste" "F.Mask")
      (net 1 "GND") (pinfunction "GND") (pintype "power_in") (solder_mask_margin 0.1016) (tstamp 00f9251a-9c75-4286-bb89-3deab917884c))
    (pad "2" smd rect locked (at -0.49784 0) (size 0.59944 1.34874) (layers "F.Cu" "F.Paste" "F.Mask")
      (net 3 "+3V3") (pinfunction "VCC") (pintype "power_in") (solder_mask_margin 0.1016) (tstamp 1dd16f39-080a-4e4a-b008-a772c72054e1))
    (pad "3" smd rect locked (at 0.49784 0) (size 0.59944 1.34874) (layers "F.Cu" "F.Paste" "F.Mask")
      (net 6 "/SDA") (pinfunction "SDA") (pintype "passive") (solder_mask_margin 0.1016) (tstamp c2823850-7a05-4da3-be27-5937edd09e0e))
    (pad "4" smd rect locked (at 1.4986 0) (size 0.59944 1.34874) (layers "F.Cu" "F.Paste" "F.Mask")
      (net 5 "/SCL") (pinfunction "SCL") (pintype "passive") (solder_mask_margin 0.1016) (tstamp bc8179ee-8be0-48c2-814f-f4c6abb1c070))
    (pad "NC1" smd rect locked (at 2.79908 3.67284) (size 1.19888 1.99898) (layers "F.Cu" "F.Paste" "F.Mask")
      (solder_mask_margin 0.1016) (tstamp 1d40118c-e5c5-410f-8562-26c90d2b971f))
    (pad "NC2" smd rect locked (at -2.79908 3.67284) (size 1.19888 1.99898) (layers "F.Cu" "F.Paste" "F.Mask")
      (solder_mask_margin 0.1016) (tstamp 7ae04d13-6313-480e-bcc9-e72808a80265))
    (model "/Private/home/ian/kicad/external/SnapEDA/SM04B-SRSS-TB(LF)(SN)--3DModel-STEP-56544.step"
      (offset (xyz 0 -0.7 -0.35))
      (scale (xyz 1 1 1))
      (rotate (xyz -90 0 0))
    )
  )

  (footprint "Connector_USB:USB_Micro-B_Molex_47346-0001" (layer "F.Cu")
    (tedit 5D8620A7) (tstamp 00000000-0000-0000-0000-00006017f412)
    (at 131 102.1 -90)
    (descr "Micro USB B receptable with flange, bottom-mount, SMD, right-angle (http://www.molex.com/pdm_docs/sd/473460001_sd.pdf)")
    (tags "Micro B USB SMD")
    (property "Sheetfile" "Qwiic power micro double.kicad_sch")
    (property "Sheetname" "")
    (path "/00000000-0000-0000-0000-0000600addb4")
    (attr smd)
    (fp_text reference "USB1" (at -6.1 0) (layer "F.SilkS")
      (effects (font (size 1 1) (thickness 0.15)))
      (tstamp f5506b54-b13a-4c5a-a942-66e9abf80ade)
    )
    (fp_text value "USB_B_Micro" (at 0 4.6 -90) (layer "F.Fab")
      (effects (font (size 1 1) (thickness 0.15)))
      (tstamp 63a72882-bb24-4a63-9ab3-2ce8ec722c4d)
    )
    (fp_text user "PCB Edge" (at 0 2.67 -90) (layer "Dwgs.User")
      (effects (font (size 0.4 0.4) (thickness 0.04)))
      (tstamp 729fbbf5-cb4e-41ba-8944-8ff51edcb52c)
    )
    (fp_text user "${REFERENCE}" (at 0 1.2 90) (layer "F.Fab") hide
      (effects (font (size 1 1) (thickness 0.15)))
      (tstamp 943f9be1-c390-4edc-ac5d-2dc0bd4f7ec7)
    )
    (fp_line (start -3.81 2.6) (end -3.81 2.34) (layer "F.SilkS") (width 0.12) (tstamp 12b85386-45b9-4a13-9dfd-683a0c696e5d))
    (fp_line (start -3.81 0.06) (end -3.81 -1.71) (layer "F.SilkS") (width 0.12) (tstamp 2ca161db-27f2-42f9-8f79-3ba5d7cec50c))
    (fp_line (start -3.81 -1.71) (end -3.43 -1.71) (layer "F.SilkS") (width 0.12) (tstamp 416b5437-9165-4583-9cd2-83eb672cd5d5))
    (fp_line (start 3.81 2.34) (end 3.81 2.6) (layer "F.SilkS") (width 0.12) (tstamp 61029057-dc24-4f69-896e-ddff660f6eb2))
    (fp_line (start 3.81 -1.71) (end 3.43 -1.71) (layer "F.SilkS") (width 0.12) (tstamp 988d4495-f467-4c8b-8005-58e6b54102fc))
    (fp_line (start 3.81 -1.71) (end 3.81 0.06) (layer "F.SilkS") (width 0.12) (tstamp c9b3683c-3cfb-422d-bae2-8bcf392247e3))
    (fp_line (start -4.7 -2.65) (end 4.7 -2.65) (layer "F.CrtYd") (width 0.05) (tstamp 271aa6b5-4231-4379-9402-5fb33810aa49))
    (fp_line (start 4.7 3.85) (end -4.7 3.85) (layer "F.CrtYd") (width 0.05) (tstamp bf7fedf0-3403-4c46-afda-b18533878b24))
    (fp_line (start 4.7 -2.65) (end 4.7 3.85) (layer "F.CrtYd") (width 0.05) (tstamp cb734859-9cd9-4fd7-a92e-b339b315090a))
    (fp_line (start -4.7 3.85) (end -4.7 -2.65) (layer "F.CrtYd") (width 0.05) (tstamp ec494176-b7b3-4885-b6fd-08a677bb2b59))
    (fp_line (start 3.75 -1.65) (end 3.75 3.35) (layer "F.Fab") (width 0.1) (tstamp 04b0f6cb-d42f-4cb8-b1c6-e5aa43ad18e6))
    (fp_line (start -3.75 -1.65) (end 3.75 -1.65) (layer "F.Fab") (width 0.1) (tstamp 3d1383f3-db27-41da-9862-c1cb227df260))
    (fp_line (start -3.75 3.35) (end -3.75 -1.65) (layer "F.Fab") (width 0.1) (tstamp 50a8e1d8-656b-448d-b4d3-ef0756ce9b7a))
    (fp_line (start 3.75 3.35) (end -3.75 3.35) (layer "F.Fab") (width 0.1) (tstamp 9dff423c-bf08-4637-be58-151dda581150))
    (fp_line (start -3.25 2.65) (end 3.25 2.65) (layer "F.Fab") (width 0.1) (tstamp d6687c2d-30e8-4e45-96d5-b65b42c5c40c))
    (pad "1" smd rect locked (at -1.3 -1.46 270) (size 0.45 1.38) (layers "F.Cu" "F.Paste" "F.Mask")
      (net 2 "VBUS") (pinfunction "VBUS") (pintype "power_out") (tstamp e57f9926-6161-4a1c-9eae-55731c5e3601))
    (pad "2" smd rect locked (at -0.65 -1.46 270) (size 0.45 1.38) (layers "F.Cu" "F.Paste" "F.Mask")
      (net 7 "unconnected-(USB1-Pad2)") (pinfunction "D-") (pintype "bidirectional+no_connect") (tstamp 625eaafb-64e5-4bc6-aca1-ba12d96c9bef))
    (pad "3" smd rect locked (at 0 -1.46 270) (size 0.45 1.38) (layers "F.Cu" "F.Paste" "F.Mask")
      (net 8 "unconnected-(USB1-Pad3)") (pinfunction "D+") (pintype "bidirectional+no_connect") (tstamp bf724a99-71a3-4506-898c-7dbc11ae987c))
    (pad "4" smd rect locked (at 0.65 -1.46 270) (size 0.45 1.38) (layers "F.Cu" "F.Paste" "F.Mask")
      (net 9 "unconnected-(USB1-Pad4)") (pinfunction "ID") (pintype "passive+no_connect") (tstamp 6d29fac3-1072-49be-af15-7a9984b870b8))
    (pad "5" smd rect locked (at 1.3 -1.46 270) (size 0.45 1.38) (layers "F.Cu" "F.Paste" "F.Mask")
      (net 1 "GND") (pinfunction "GND") (pintype "power_out") (tstamp e394d3ee-c260-4d12-8d98-a29dea8dbe0b))
    (pad "6" smd rect locked (at 2.4875 -1.375 270) (size 1.425 1.55) (layers "F.Cu" "F.Paste" "F.Mask")
      (net 10 "unconnected-(USB1-Pad6)") (pinfunction "Shield") (pintype "passive+no_connect") (tstamp 1a41f56c-cd6b-4251-9e25-e83253420302))
    (pad "6" smd rect locked (at -3.375 1.2 270) (size 1.65 1.3) (layers "F.Cu" "F.Paste" "F.Mask")
      (net 10 "unconnected-(USB1-Pad6)") (pinfunction "Shield") (pintype "passive+no_connect") (tstamp 47068523-94ab-4913-8a4a-cf86b59a9cbb))
    (pad "6" smd rect locked (at 1.55 1.2 270) (size 1 1.9) (layers "F.Cu" "F.Paste" "F.Mask")
      (net 10 "unconnected-(USB1-Pad6)") (pinfunction "Shield") (pintype "passive+no_connect") (tstamp 547e8a37-9e80-42f5-95a5-aafc7a51f542))
    (pad "6" smd rect locked (at -1.15 1.2 270) (size 1.8 1.9) (layers "F.Cu" "F.Paste" "F.Mask")
      (net 10 "unconnected-(USB1-Pad6)") (pinfunction "Shield") (pintype "passive+no_connect") (tstamp 6dc7d3bc-a809-43a6-9fdc-545e3e7a469a))
    (pad "6" smd rect locked (at 3.375 1.2 270) (size 1.65 1.3) (layers "F.Cu" "F.Paste" "F.Mask")
      (net 10 "unconnected-(USB1-Pad6)") (pinfunction "Shield") (pintype "passive+no_connect") (tstamp 7113d9d1-d84b-4006-8772-4c7016812212))
    (pad "6" smd rect locked (at -2.4875 -1.375 270) (size 1.425 1.55) (layers "F.Cu" "F.Paste" "F.Mask")
      (net 10 "unconnected-(USB1-Pad6)") (pinfunction "Shield") (pintype "passive+no_connect") (tstamp b2b61976-a9fa-4faa-bf82-f8b6774c5951))
    (model "${KICAD6_3DMODEL_DIR}/Connector_USB.3dshapes/USB_Micro-B_Molex_47346-0001.wrl"
      (offset (xyz 0 0 0))
      (scale (xyz 1 1 1))
      (rotate (xyz 0 0 0))
    )
  )

  (footprint "Capacitor_SMD:C_0402_1005Metric" (layer "F.Cu")
    (tedit 5F68FEEE) (tstamp 00000000-0000-0000-0000-00006017f467)
    (at 135 102.1 -90)
    (descr "Capacitor SMD 0402 (1005 Metric), square (rectangular) end terminal, IPC_7351 nominal, (Body size source: IPC-SM-782 page 76, https://www.pcb-3d.com/wordpress/wp-content/uploads/ipc-sm-782a_amendment_1_and_2.pdf), generated with kicad-footprint-generator")
    (tags "capacitor")
    (property "Field4" "CAP-12417")
    (property "Sheetfile" "Qwiic power micro double.kicad_sch")
    (property "Sheetname" "")
    (path "/00000000-0000-0000-0000-0000600bd2fe")
    (attr smd)
    (fp_text reference "C1" (at 1.8622 -0.0518) (layer "F.SilkS")
      (effects (font (size 1 1) (thickness 0.15)))
      (tstamp df11c99c-3399-406e-ab29-89cfa0904f89)
    )
    (fp_text value "1.0uF" (at 0 1.16 -90) (layer "F.Fab")
      (effects (font (size 1 1) (thickness 0.15)))
      (tstamp 5bb8f5fe-bcc7-48e7-8c71-73553ec02fbd)
    )
    (fp_text user "${REFERENCE}" (at 0 0 -90) (layer "F.Fab")
      (effects (font (size 0.25 0.25) (thickness 0.04)))
      (tstamp 860f27ad-51da-4b20-b6f2-cc192d32cb6f)
    )
    (fp_line (start -0.107836 -0.36) (end 0.107836 -0.36) (layer "F.SilkS") (width 0.12) (tstamp 19b3f64d-d75d-46a1-a25b-a2f7ff32b021))
    (fp_line (start -0.107836 0.36) (end 0.107836 0.36) (layer "F.SilkS") (width 0.12) (tstamp 644f5c19-81ce-479e-aeed-cacc06a37a17))
    (fp_line (start -0.91 -0.46) (end 0.91 -0.46) (layer "F.CrtYd") (width 0.05) (tstamp 19d84fc7-d31a-4072-a32f-1437fd9ca368))
    (fp_line (start 0.91 -0.46) (end 0.91 0.46) (layer "F.CrtYd") (width 0.05) (tstamp 3a06d964-71f0-4c82-9700-6016f69781c3))
    (fp_line (start -0.91 0.46) (end -0.91 -0.46) (layer "F.CrtYd") (width 0.05) (tstamp 82037276-52c0-4d57-af88-b7d5b5700b13))
    (fp_line (start 0.91 0.46) (end -0.91 0.46) (layer "F.CrtYd") (width 0.05) (tstamp c42efda6-b0ac-436e-91d1-de0df9e9d4a6))
    (fp_line (start 0.5 0.25) (end -0.5 0.25) (layer "F.Fab") (width 0.1) (tstamp 157c78a0-0e1f-406d-bb7e-713710b8cf2e))
    (fp_line (start -0.5 0.25) (end -0.5 -0.25) (layer "F.Fab") (width 0.1) (tstamp 3a326cab-5eb7-491a-a64e-91356ac958fc))
    (fp_line (start -0.5 -0.25) (end 0.5 -0.25) (layer "F.Fab") (width 0.1) (tstamp 71af6b4b-dc80-473c-b1e2-5c93b56816b2))
    (fp_line (start 0.5 -0.25) (end 0.5 0.25) (layer "F.Fab") (width 0.1) (tstamp b416be02-169c-4ceb-8c86-5593a232bb23))
    (pad "1" smd roundrect locked (at -0.48 0 270) (size 0.56 0.62) (layers "F.Cu" "F.Paste" "F.Mask") (roundrect_rratio 0.25)
      (net 2 "VBUS") (pinfunction "1") (pintype "passive") (tstamp b24e0912-8eff-4cbc-858d-b6c5de485ba3))
    (pad "2" smd roundrect locked (at 0.48 0 270) (size 0.56 0.62) (layers "F.Cu" "F.Paste" "F.Mask") (roundrect_rratio 0.25)
      (net 1 "GND") (pinfunction "2") (pintype "passive") (tstamp 1ce8adcb-b26b-49fd-9c97-12f1c4e38fee))
    (model "${KICAD6_3DMODEL_DIR}/Capacitor_SMD.3dshapes/C_0402_1005Metric.wrl"
      (offset (xyz 0 0 0))
      (scale (xyz 1 1 1))
      (rotate (xyz 0 0 0))
    )
  )

  (footprint "Package_TO_SOT_SMD:SOT-23-5" (layer "F.Cu")
    (tedit 5A02FF57) (tstamp 00000000-0000-0000-0000-00006017fd94)
    (at 138.4 102.6)
    (descr "5-pin SOT23 package")
    (tags "SOT-23-5")
    (property "Sheetfile" "Qwiic power micro double.kicad_sch")
    (property "Sheetname" "")
    (path "/00000000-0000-0000-0000-0000600afd34")
    (attr smd)
    (fp_text reference "U1" (at 0 -2.8) (layer "F.SilkS")
      (effects (font (size 1 1) (thickness 0.15)))
      (tstamp ddd7658e-ac80-4d00-a560-7e18f03c45dd)
    )
    (fp_text value "TLV75533PDBV" (at 0 2.9) (layer "F.Fab")
      (effects (font (size 1 1) (thickness 0.15)))
      (tstamp b1ffcbef-5040-4d49-8129-c635ca295f15)
    )
    (fp_text user "${REFERENCE}" (at 0 0 90) (layer "F.Fab") hide
      (effects (font (size 0.5 0.5) (thickness 0.075)))
      (tstamp 1ca97a75-679b-466d-93e1-bf2e8c55adbd)
    )
    (fp_line (start -0.9 1.61) (end 0.9 1.61) (layer "F.SilkS") (width 0.12) (tstamp 21a1b333-d2ae-428e-8aca-73151d37d752))
    (fp_line (start 0.9 -1.61) (end -1.55 -1.61) (layer "F.SilkS") (width 0.12) (tstamp 758f230d-25f2-4d1a-91e0-f6391e65bd83))
    (fp_line (start -1.9 1.8) (end -1.9 -1.8) (layer "F.CrtYd") (width 0.05) (tstamp 3ddd5aec-ba1d-4279-b65c-00624787c5cb))
    (fp_line (start -1.9 -1.8) (end 1.9 -1.8) (layer "F.CrtYd") (width 0.05) (tstamp 54024bd9-b694-4adf-950e-4d0b195d3e5d))
    (fp_line (start 1.9 1.8) (end -1.9 1.8) (layer "F.CrtYd") (width 0.05) (tstamp 905b1d17-a0e9-47de-892e-ad54ecf7fedc))
    (fp_line (start 1.9 -1.8) (end 1.9 1.8) (layer "F.CrtYd") (width 0.05) (tstamp 9eb04633-0276-4a3d-9167-a6ed205ed561))
    (fp_line (start 0.9 -1.55) (end -0.25 -1.55) (layer "F.Fab") (width 0.1) (tstamp 008fc6b2-0ada-4356-b77f-321f722e73dd))
    (fp_line (start 0.9 1.55) (end -0.9 1.55) (layer "F.Fab") (width 0.1) (tstamp 1bf3e36f-28a2-4702-8407-af8684be8be8))
    (fp_line (start 0.9 -1.55) (end 0.9 1.55) (layer "F.Fab") (width 0.1) (tstamp a0faa1be-427c-46a8-8828-123b4f84968e))
    (fp_line (start -0.9 -0.9) (end -0.9 1.55) (layer "F.Fab") (width 0.1) (tstamp befebd81-a244-45af-a428-e782055a842e))
    (fp_line (start -0.9 -0.9) (end -0.25 -1.55) (layer "F.Fab") (width 0.1) (tstamp d681ccec-3d05-4cd8-9c13-b0078ba128da))
    (pad "1" smd rect locked (at -1.1 -0.95) (size 1.06 0.65) (layers "F.Cu" "F.Paste" "F.Mask")
      (net 2 "VBUS") (pinfunction "IN") (pintype "power_in") (tstamp 45a0c8f6-960c-4d09-9050-2fca204667f1))
    (pad "2" smd rect locked (at -1.1 0) (size 1.06 0.65) (layers "F.Cu" "F.Paste" "F.Mask")
      (net 1 "GND") (pinfunction "GND") (pintype "power_in") (tstamp 43abea24-a277-40c4-8cad-66e1d030c03f))
    (pad "3" smd rect locked (at -1.1 0.95) (size 1.06 0.65) (layers "F.Cu" "F.Paste" "F.Mask")
      (net 2 "VBUS") (pinfunction "EN") (pintype "input") (tstamp 66665884-a204-4b66-9a10-d3657eeb2ea1))
    (pad "4" smd rect locked (at 1.1 0.95) (size 1.06 0.65) (layers "F.Cu" "F.Paste" "F.Mask")
      (net 4 "unconnected-(U1-Pad4)") (pinfunction "NC") (pintype "no_connect") (tstamp 297180df-6b13-4ce7-8169-f25b83222849))
    (pad "5" smd rect locked (at 1.1 -0.95) (size 1.06 0.65) (layers "F.Cu" "F.Paste" "F.Mask")
      (net 3 "+3V3") (pinfunction "OUT") (pintype "power_out") (tstamp 40dccbe4-7d89-4d0f-9307-82da1b0e3704))
    (model "${KICAD6_3DMODEL_DIR}/Package_TO_SOT_SMD.3dshapes/SOT-23-5.wrl"
      (offset (xyz 0 0 0))
      (scale (xyz 1 1 1))
      (rotate (xyz 0 0 0))
    )
  )

  (footprint "Capacitor_Tantalum_SMD:CP_EIA-1608-08_AVX-J" (layer "F.Cu")
    (tedit 60E840DA) (tstamp 00000000-0000-0000-0000-0000601920b9)
    (at 142.1 102.125 -90)
    (descr "Tantalum Capacitor SMD AVX-J (1608-08 Metric), IPC_7351 nominal, (Body size from: https://www.vishay.com/docs/48064/_t58_vmn_pt0471_1601.pdf), generated with kicad-footprint-generator")
    (tags "capacitor tantalum")
    (property "Sheetfile" "Qwiic power micro double.kicad_sch")
    (property "Sheetname" "")
    (path "/d024a5f5-43fd-43f8-9c33-34052b073982")
    (attr smd)
    (fp_text reference "C2" (at 2.5992 -0.0384) (layer "F.SilkS")
      (effects (font (size 1 1) (thickness 0.15)))
      (tstamp e5c419dc-0831-424f-9222-7c0a22a4261f)
    )
    (fp_text value "100 u" (at 2.25 -0.15) (layer "F.Fab")
      (effects (font (size 1 1) (thickness 0.15)))
      (tstamp 1a9365d1-da13-4060-9a58-7f36b3d02e18)
    )
    (fp_text user "${REFERENCE}" (at 0 0 90) (layer "F.Fab")
      (effects (font (size 0.4 0.4) (thickness 0.06)))
      (tstamp daa0a40f-ae94-426d-8b57-d0f0ee96a86c)
    )
    (fp_line (start 0.8 -0.785) (end -1.51 -0.785) (layer "F.SilkS") (width 0.12) (tstamp 38804b3a-5a8c-498d-9577-22da94a3cb30))
    (fp_line (start -1.51 -0.785) (end -1.51 0.785) (layer "F.SilkS") (width 0.12) (tstamp 900cc395-0f3e-4c6e-9c7d-060d56543be7))
    (fp_line (start -1.51 0.785) (end 0.8 0.785) (layer "F.SilkS") (width 0.12) (tstamp ee8c91d6-edd6-4d86-98e3-3515e4568d41))
    (fp_line (start -1.5 0.78) (end -1.5 -0.78) (layer "F.CrtYd") (width 0.05) (tstamp 41936afa-8688-4083-b16f-454afa4c67ac))
    (fp_line (start -1.5 -0.78) (end 1.5 -0.78) (layer "F.CrtYd") (width 0.05) (tstamp 6ca135e1-9c0c-4c25-beb7-770e9c08b1ab))
    (fp_line (start 1.5 0.78) (end -1.5 0.78) (layer "F.CrtYd") (width 0.05) (tstamp 784cb32d-028e-49b6-95bc-0371b2c2827a))
    (fp_line (start 1.5 -0.78) (end 1.5 0.78) (layer "F.CrtYd") (width 0.05) (tstamp bec02cf6-fa81-4032-85a0-d8056dbf82e8))
    (fp_line (start -0.8 0.425) (end 0.8 0.425) (layer "F.Fab") (width 0.1) (tstamp 577f4ea2-80b8-4e7c-a660-12b5bb2cc419))
    (fp_line (start 0.8 -0.425) (end -0.5 -0.425) (layer "F.Fab") (width 0.1) (tstamp 92e7b096-d772-4826-a322-37a3f26a1aa5))
    (fp_line (start -0.5 -0.425) (end -0.8 -0.125) (layer "F.Fab") (width 0.1) (tstamp 9c394f3c-7783-4123-a006-499be0c71fc9))
    (fp_line (start 0.8 0.425) (end 0.8 -0.425) (layer "F.Fab") (width 0.1) (tstamp ea1bb6a8-1ed1-4289-8144-af0bd4e5ddfd))
    (fp_line (start -0.8 -0.125) (end -0.8 0.425) (layer "F.Fab") (width 0.1) (tstamp ede1474f-a3e2-47aa-ab67-8a0821a714ed))
    (pad "1" smd roundrect locked (at -0.7125 0 270) (size 1.075 1.05) (layers "F.Cu" "F.Paste" "F.Mask") (roundrect_rratio 0.238)
      (net 3 "+3V3") (pintype "passive") (tstamp af31614f-9153-4426-9201-eaa114f4cad3))
    (pad "2" smd roundrect locked (at 0.7125 0 270) (size 1.075 1.05) (layers "F.Cu" "F.Paste" "F.Mask") (roundrect_rratio 0.238)
      (net 1 "GND") (pintype "passive") (tstamp 8243f6b8-218d-42a2-97ed-f269210274bb))
    (model "${KICAD6_3DMODEL_DIR}/Capacitor_Tantalum_SMD.3dshapes/CP_EIA-1608-08_AVX-J.wrl"
      (offset (xyz 0 0 0))
      (scale (xyz 1 1 1))
      (rotate (xyz 0 0 0))
    )
  )

  (gr_line (start 128.3 109.55) (end 128.3 94.55) (layer "Edge.Cuts") (width 0.05) (tstamp 00000000-0000-0000-0000-0000600bd717))
  (gr_line (start 150.85 109.55) (end 128.3 109.55) (layer "Edge.Cuts") (width 0.05) (tstamp 00000000-0000-0000-0000-00006017f4a2))
  (gr_line (start 150.85 94.55) (end 150.85 109.55) (layer "Edge.Cuts") (width 0.05) (tstamp 2b606b8a-324b-42a0-9ec0-ad8bca79f71e))
  (gr_line (start 128.3 94.55) (end 150.85 94.55) (layer "Edge.Cuts") (width 0.05) (tstamp 3b83dc9a-268a-4a1e-8dfc-0ffa5fd200a2))
  (gr_text "Qwiic power\nmicro double" (at 139.0904 101.6762) (layer "B.SilkS") (tstamp 35f9ff27-7189-49c0-b3d8-7d3ee18ec6ca)
    (effects (font (size 2 2) (thickness 0.3)) (justify mirror))
  )

  (segment (start 141.8625 102.6) (end 142.1 102.8375) (width 0.6) (layer "F.Cu") (net 1) (tstamp 26a4a56d-9fed-4fc4-8ab1-fada877d1680))
  (segment (start 137.3 102.6) (end 135.07912 102.6) (width 0.6) (layer "F.Cu") (net 1) (tstamp 505cd5b1-303f-4caf-8e1f-49bb38ba8429))
  (segment (start 145.4014 103.3136) (end 145.4014 104.3) (width 0.6) (layer "F.Cu") (net 1) (tstamp 5478a2bf-feb8-42ce-8854-eabd29b762b6))
  (segment (start 134.27912 103.4) (end 135 102.67912) (width 0.45) (layer "F.Cu") (net 1) (tstamp 6af392e9-4e3b-4572-884d-243c9b736d5f))
  (segment (start 149.352 102.4382) (end 148.3986 101.4848) (width 0.6) (layer "F.Cu") (net 1) (tstamp 6c5ab27f-a483-4dfd-9405-4be2e23d0750))
  (segment (start 144.9253 102.8375) (end 145.4014 103.3136) (width 0.6) (layer "F.Cu") (net 1) (tstamp 73a710f1-7cd9-4ed8-947d-728f822f4b7f))
  (segment (start 145.4014 105.176352) (end 145.838248 105.6132) (width 0.6) (layer "F.Cu") (net 1) (tstamp 86c866d7-3490-4dac-ac3f-dff529aee3dc))
  (segment (start 135.07912 102.6) (end 135 102.67912) (width 0.6) (layer "F.Cu") (net 1) (tstamp 92f523d7-8aa9-4734-9b8f-b3be13c36f8a))
  (segment (start 137.3 102.6) (end 141.8625 102.6) (width 0.6) (layer "F.Cu") (net 1) (tstamp 9b1ead67-c8df-466f-ae18-ab9dffc43414))
  (segment (start 142.1 102.8375) (end 144.9253 102.8375) (width 0.6) (layer "F.Cu") (net 1) (tstamp bd9ca80a-b73c-47c7-8247-dc897e50a554))
  (segment (start 145.838248 105.6132) (end 149.352 105.6132) (width 0.6) (layer "F.Cu") (net 1) (tstamp c9424a4c-ddb7-495f-a608-1cf3ee88652c))
  (segment (start 132.46 103.4) (end 134.27912 103.4) (width 0.45) (layer "F.Cu") (net 1) (tstamp d2ab965d-6038-42a5-93d8-b31a203fe3d5))
  (segment (start 149.352 105.6132) (end 149.352 102.4382) (width 0.6) (layer "F.Cu") (net 1) (tstamp d94a8b9f-a639-4652-8f7d-7f80dd225a6f))
  (segment (start 148.3986 101.4848) (end 148.3986 99.8) (width 0.6) (layer "F.Cu") (net 1) (tstamp e97b4d28-220a-41bb-8573-a51a1c8f2a7e))
  (segment (start 145.4014 104.3) (end 145.4014 105.176352) (width 0.6) (layer "F.Cu") (net 1) (tstamp fdc17ced-21d0-4863-bae6-12612baf569b))
  (segment (start 137.3 103.55) (end 137.3 104.075) (width 0.25) (layer "F.Cu") (net 2) (tstamp 22e22ff1-7845-45a6-9e17-e8af7f6cc503))
  (segment (start 134.27912 100.8) (end 135 101.52088) (width 0.45) (layer "F.Cu") (net 2) (tstamp d15f82d6-a180-4773-8c37-2699703e77a1))
  (segment (start 137.3 101.65) (end 135.12912 101.65) (width 0.6) (layer "F.Cu") (net 2) (tstamp d8327298-8c3f-4641-bbe0-69c32f25cf52))
  (segment (start 132.46 100.8) (end 134.27912 100.8) (width 0.45) (layer "F.Cu") (net 2) (tstamp e74fbe44-e01c-4a8c-b74a-c184a80b3ac1))
  (segment (start 135.12912 101.65) (end 135 101.52088) (width 0.6) (layer "F.Cu") (net 2) (tstamp f5b44b1c-7943-49b1-92f0-e21bdb4eb464))
  (via (at 137.3 104.075) (size 0.4) (drill 0.2) (layers "F.Cu" "B.Cu") (net 2) (tstamp 00000000-0000-0000-0000-0000605ab1be))
  (via (at 137.3 101.125) (size 0.4) (drill 0.2) (layers "F.Cu" "B.Cu") (net 2) (tstamp f636f603-e0bc-4fc9-9e29-1bfb114cad46))
  (segment (start 137.3 101.125) (end 137.3 104.075) (width 0.25) (layer "B.Cu") (net 2) (tstamp 29a01cbe-4ed2-4e4f-934f-b83ef541c551))
  (segment (start 146.40216 102.49244) (end 147.39784 101.49676) (width 0.6) (layer "F.Cu") (net 3) (tstamp 1e9b8989-fc0c-4fef-9b37-37d0cdbbaa33))
  (segment (start 147.39784 98.60444) (end 147.39784 99.8) (width 0.6) (layer "F.Cu") (net 3) (tstamp 2c5bfda4-4350-4815-b7ce-7e03272005e0))
  (segment (start 142.1 101.2828) (end 144.8308 98.552) (width 0.6) (layer "F.Cu") (net 3) (tstamp 3a063c69-0d68-4487-98b5-749eca78cc60))
  (segment (start 141.8625 101.65) (end 142.1 101.4125) (width 0.6) (layer "F.Cu") (net 3) (tstamp 5239df6b-2a94-4980-85d8-c6476dcabe22))
  (segment (start 142.1 101.4125) (end 142.1 101.2828) (width 0.6) (layer "F.Cu") (net 3) (tstamp 6ede9319-80a0-40db-8d59-41905b740e30))
  (segment (start 147.39784 101.49676) (end 147.39784 99.8) (width 0.6) (layer "F.Cu") (net 3) (tstamp 79742d7d-2c28-42cd-9a2e-45c71253d7d0))
  (segment (start 144.8308 98.552) (end 147.3454 98.552) (width 0.6) (layer "F.Cu") (net 3) (tstamp 7b80fb24-c005-4f87-8402-b5d9662c7430))
  (segment (start 146.40216 104.3) (end 146.40216 102.49244) (width 0.6) (layer "F.Cu") (net 3) (tstamp 8a85fc9f-2acc-4aac-b532-4f36c1a36f84))
  (segment (start 139.5 101.65) (end 141.8625 101.65) (width 0.6) (layer "F.Cu") (net 3) (tstamp be4a2925-15a8-46ba-9848-1a1c4b529e56))
  (segment (start 147.3454 98.552) (end 147.39784 98.60444) (width 0.6) (layer "F.Cu") (net 3) (tstamp deea3600-ca3f-4e04-8e41-e600dfae42a5))
  (segment (start 145.4014 101.5986) (end 145.4 101.6) (width 0.25) (layer "F.Cu") (net 5) (tstamp 82254a32-84af-4a55-bfa2-b4b414854579))
  (segment (start 148.3986 104.3) (end 148.3986 103.425) (width 0.25) (layer "F.Cu") (net 5) (tstamp df226d76-1159-4198-9a65-1314b643af16))
  (segment (start 145.4014 99.8) (end 145.4014 101.5986) (width 0.25) (layer "F.Cu") (net 5) (tstamp fc02671f-c81b-40e9-b11f-4e6cb00c1843))
  (via (at 145.4 101.6) (size 0.4) (drill 0.2) (layers "F.Cu" "B.Cu") (net 5) (tstamp 68c9687c-2ea0-4fc9-9b95-7f47e5f58610))
  (via (at 148.3986 103.425) (size 0.4) (drill 0.2) (layers "F.Cu" "B.Cu") (net 5) (tstamp a102fb2c-74ed-4875-8582-94f68edb1393))
  (segment (start 147.225 103.425) (end 148.3986 103.425) (width 0.25) (layer "B.Cu") (net 5) (tstamp 4acbec5d-69f6-4bca-ae95-51bce211b047))
  (segment (start 145.4 101.6) (end 147.225 103.425) (width 0.25) (layer "B.Cu") (net 5) (tstamp 71a666c5-742c-475a-a251-e55e4168fa90))
  (segment (start 146.40216 99.8) (end 146.40216 100.675) (width 0.25) (layer "F.Cu") (net 6) (tstamp 48691893-a7c1-4fdc-872e-2555953f1520))
  (segment (start 147.39784 104.3) (end 147.39784 102.9) (width 0.25) (layer "F.Cu") (net 6) (tstamp 93c15862-dc38-4a3a-8bd1-ab7abc502152))
  (via (at 146.40216 100.675) (size 0.4) (drill 0.2) (layers "F.Cu" "B.Cu") (net 6) (tstamp 2123e17e-59c2-47bf-8642-3c4154355042))
  (via (at 147.39784 102.9) (size 0.4) (drill 0.2) (layers "F.Cu" "B.Cu") (net 6) (tstamp ace59570-21f9-4286-842a-e7bbac965a9a))
  (segment (start 147.39784 101.67068) (end 146.40216 100.675) (width 0.25) (layer "B.Cu") (net 6) (tstamp 0d676d07-667a-4403-8b43-c9b83180eb9d))
  (segment (start 147.39784 102.9) (end 147.39784 101.67068) (width 0.25) (layer "B.Cu") (net 6) (tstamp 11422cf7-bb9e-43cf-8f39-ec04edca10e2))

)
