(kicad_sch (version 20210621) (generator eeschema)

  (uuid 068839bb-70ab-474e-931a-01d390f4cefd)

  (paper "A4")

  (title_block
    (title "Qwiic power micro double")
    (date "2021-01-23")
  )

  (lib_symbols
    (symbol "Connector:USB_B_Micro" (pin_names (offset 1.016)) (in_bom yes) (on_board yes)
      (property "Reference" "J" (id 0) (at -5.08 11.43 0)
        (effects (font (size 1.27 1.27)) (justify left))
      )
      (property "Value" "USB_B_Micro" (id 1) (at -5.08 8.89 0)
        (effects (font (size 1.27 1.27)) (justify left))
      )
      (property "Footprint" "" (id 2) (at 3.81 -1.27 0)
        (effects (font (size 1.27 1.27)) hide)
      )
      (property "Datasheet" "~" (id 3) (at 3.81 -1.27 0)
        (effects (font (size 1.27 1.27)) hide)
      )
      (property "ki_keywords" "connector USB micro" (id 4) (at 0 0 0)
        (effects (font (size 1.27 1.27)) hide)
      )
      (property "ki_description" "USB Micro Type B connector" (id 5) (at 0 0 0)
        (effects (font (size 1.27 1.27)) hide)
      )
      (property "ki_fp_filters" "USB*" (id 6) (at 0 0 0)
        (effects (font (size 1.27 1.27)) hide)
      )
      (symbol "USB_B_Micro_0_1"
        (circle (center -3.81 2.159) (radius 0.635) (stroke (width 0.254)) (fill (type outline)))
        (circle (center -0.635 3.429) (radius 0.381) (stroke (width 0.254)) (fill (type outline)))
        (rectangle (start -0.127 -7.62) (end 0.127 -6.858)
          (stroke (width 0)) (fill (type none))
        )
        (rectangle (start 5.08 -5.207) (end 4.318 -4.953)
          (stroke (width 0)) (fill (type none))
        )
        (rectangle (start 5.08 -2.667) (end 4.318 -2.413)
          (stroke (width 0)) (fill (type none))
        )
        (rectangle (start 5.08 -0.127) (end 4.318 0.127)
          (stroke (width 0)) (fill (type none))
        )
        (rectangle (start 5.08 4.953) (end 4.318 5.207)
          (stroke (width 0)) (fill (type none))
        )
        (rectangle (start 0.254 1.27) (end -0.508 0.508)
          (stroke (width 0.254)) (fill (type outline))
        )
        (rectangle (start -5.08 -7.62) (end 5.08 7.62)
          (stroke (width 0.254)) (fill (type background))
        )
        (polyline
          (pts
            (xy -1.905 2.159)
            (xy 0.635 2.159)
          )
          (stroke (width 0.254)) (fill (type none))
        )
        (polyline
          (pts
            (xy -3.175 2.159)
            (xy -2.54 2.159)
            (xy -1.27 3.429)
            (xy -0.635 3.429)
          )
          (stroke (width 0.254)) (fill (type none))
        )
        (polyline
          (pts
            (xy -2.54 2.159)
            (xy -1.905 2.159)
            (xy -1.27 0.889)
            (xy 0 0.889)
          )
          (stroke (width 0.254)) (fill (type none))
        )
        (polyline
          (pts
            (xy -4.699 5.842)
            (xy -4.699 5.588)
            (xy -4.445 4.826)
            (xy -4.445 4.572)
            (xy -1.651 4.572)
            (xy -1.651 4.826)
            (xy -1.397 5.588)
            (xy -1.397 5.842)
            (xy -4.699 5.842)
          )
          (stroke (width 0)) (fill (type none))
        )
        (polyline
          (pts
            (xy 0.635 2.794)
            (xy 0.635 1.524)
            (xy 1.905 2.159)
            (xy 0.635 2.794)
          )
          (stroke (width 0.254)) (fill (type outline))
        )
        (polyline
          (pts
            (xy -4.318 5.588)
            (xy -1.778 5.588)
            (xy -2.032 4.826)
            (xy -4.064 4.826)
            (xy -4.318 5.588)
          )
          (stroke (width 0)) (fill (type outline))
        )
      )
      (symbol "USB_B_Micro_1_1"
        (pin power_out line (at 7.62 5.08 180) (length 2.54)
          (name "VBUS" (effects (font (size 1.27 1.27))))
          (number "1" (effects (font (size 1.27 1.27))))
        )
        (pin bidirectional line (at 7.62 -2.54 180) (length 2.54)
          (name "D-" (effects (font (size 1.27 1.27))))
          (number "2" (effects (font (size 1.27 1.27))))
        )
        (pin bidirectional line (at 7.62 0 180) (length 2.54)
          (name "D+" (effects (font (size 1.27 1.27))))
          (number "3" (effects (font (size 1.27 1.27))))
        )
        (pin passive line (at 7.62 -5.08 180) (length 2.54)
          (name "ID" (effects (font (size 1.27 1.27))))
          (number "4" (effects (font (size 1.27 1.27))))
        )
        (pin power_out line (at 0 -10.16 90) (length 2.54)
          (name "GND" (effects (font (size 1.27 1.27))))
          (number "5" (effects (font (size 1.27 1.27))))
        )
        (pin passive line (at -2.54 -10.16 90) (length 2.54)
          (name "Shield" (effects (font (size 1.27 1.27))))
          (number "6" (effects (font (size 1.27 1.27))))
        )
      )
    )
    (symbol "Device:C_Polarized" (pin_numbers hide) (pin_names (offset 0.254)) (in_bom yes) (on_board yes)
      (property "Reference" "C" (id 0) (at 0.635 2.54 0)
        (effects (font (size 1.27 1.27)) (justify left))
      )
      (property "Value" "C_Polarized" (id 1) (at 0.635 -2.54 0)
        (effects (font (size 1.27 1.27)) (justify left))
      )
      (property "Footprint" "" (id 2) (at 0.9652 -3.81 0)
        (effects (font (size 1.27 1.27)) hide)
      )
      (property "Datasheet" "~" (id 3) (at 0 0 0)
        (effects (font (size 1.27 1.27)) hide)
      )
      (property "ki_keywords" "cap capacitor" (id 4) (at 0 0 0)
        (effects (font (size 1.27 1.27)) hide)
      )
      (property "ki_description" "Polarized capacitor" (id 5) (at 0 0 0)
        (effects (font (size 1.27 1.27)) hide)
      )
      (property "ki_fp_filters" "CP_*" (id 6) (at 0 0 0)
        (effects (font (size 1.27 1.27)) hide)
      )
      (symbol "C_Polarized_0_1"
        (rectangle (start -2.286 0.508) (end 2.286 1.016)
          (stroke (width 0)) (fill (type none))
        )
        (rectangle (start 2.286 -0.508) (end -2.286 -1.016)
          (stroke (width 0)) (fill (type outline))
        )
        (polyline
          (pts
            (xy -1.778 2.286)
            (xy -0.762 2.286)
          )
          (stroke (width 0)) (fill (type none))
        )
        (polyline
          (pts
            (xy -1.27 2.794)
            (xy -1.27 1.778)
          )
          (stroke (width 0)) (fill (type none))
        )
      )
      (symbol "C_Polarized_1_1"
        (pin passive line (at 0 3.81 270) (length 2.794)
          (name "~" (effects (font (size 1.27 1.27))))
          (number "1" (effects (font (size 1.27 1.27))))
        )
        (pin passive line (at 0 -3.81 90) (length 2.794)
          (name "~" (effects (font (size 1.27 1.27))))
          (number "2" (effects (font (size 1.27 1.27))))
        )
      )
    )
    (symbol "Regulator_Linear:TLV75533PDBV" (pin_names (offset 0.254)) (in_bom yes) (on_board yes)
      (property "Reference" "U" (id 0) (at -3.81 5.715 0)
        (effects (font (size 1.27 1.27)))
      )
      (property "Value" "TLV75533PDBV" (id 1) (at 0 5.715 0)
        (effects (font (size 1.27 1.27)) (justify left))
      )
      (property "Footprint" "Package_TO_SOT_SMD:SOT-23-5" (id 2) (at 0 8.255 0)
        (effects (font (size 1.27 1.27) italic) hide)
      )
      (property "Datasheet" "http://www.ti.com/lit/ds/symlink/tlv755p.pdf" (id 3) (at 0 1.27 0)
        (effects (font (size 1.27 1.27)) hide)
      )
      (property "ki_keywords" "LDO Regulator Fixed Positive" (id 4) (at 0 0 0)
        (effects (font (size 1.27 1.27)) hide)
      )
      (property "ki_description" "500mA Low Dropout Voltage Regulator, Fixed Output 3.3V, SOT-23-5" (id 5) (at 0 0 0)
        (effects (font (size 1.27 1.27)) hide)
      )
      (property "ki_fp_filters" "SOT?23*" (id 6) (at 0 0 0)
        (effects (font (size 1.27 1.27)) hide)
      )
      (symbol "TLV75533PDBV_0_1"
        (rectangle (start -5.08 4.445) (end 5.08 -5.08)
          (stroke (width 0.254)) (fill (type background))
        )
      )
      (symbol "TLV75533PDBV_1_1"
        (pin power_in line (at -7.62 2.54 0) (length 2.54)
          (name "IN" (effects (font (size 1.27 1.27))))
          (number "1" (effects (font (size 1.27 1.27))))
        )
        (pin power_in line (at 0 -7.62 90) (length 2.54)
          (name "GND" (effects (font (size 1.27 1.27))))
          (number "2" (effects (font (size 1.27 1.27))))
        )
        (pin input line (at -7.62 0 0) (length 2.54)
          (name "EN" (effects (font (size 1.27 1.27))))
          (number "3" (effects (font (size 1.27 1.27))))
        )
        (pin no_connect line (at 5.08 0 180) (length 2.54) hide
          (name "NC" (effects (font (size 1.27 1.27))))
          (number "4" (effects (font (size 1.27 1.27))))
        )
        (pin power_out line (at 7.62 2.54 180) (length 2.54)
          (name "OUT" (effects (font (size 1.27 1.27))))
          (number "5" (effects (font (size 1.27 1.27))))
        )
      )
    )
    (symbol "SparkFun-Capacitors:1.0UF-0402-16V-10%" (pin_numbers hide) (pin_names (offset 1.016) hide) (in_bom yes) (on_board yes)
      (property "Reference" "C" (id 0) (at 1.524 2.921 0)
        (effects (font (size 1.143 1.143)) (justify left bottom))
      )
      (property "Value" "1.0UF-0402-16V-10%" (id 1) (at 1.524 -2.159 0)
        (effects (font (size 1.143 1.143)) (justify left bottom))
      )
      (property "Footprint" "0402" (id 2) (at 0 6.35 0)
        (effects (font (size 0.508 0.508)) hide)
      )
      (property "Datasheet" "" (id 3) (at 0 0 0)
        (effects (font (size 1.27 1.27)) hide)
      )
      (property "Field4" "CAP-12417" (id 4) (at 0 7.62 0)
        (effects (font (size 1.524 1.524)))
      )
      (property "ki_locked" "" (id 5) (at 0 0 0)
        (effects (font (size 1.27 1.27)))
      )
      (property "ki_keywords" "PROD_ID:CAP-12417" (id 6) (at 0 0 0)
        (effects (font (size 1.27 1.27)) hide)
      )
      (property "ki_description" "1uF ceramic capacitors A capacitor is a passive two-terminal electrical component used to store electrical energy temporarily in an electric field." (id 7) (at 0 0 0)
        (effects (font (size 1.27 1.27)) hide)
      )
      (property "ki_fp_filters" "*0402* *0603* *0805* *0805* *1206*" (id 8) (at 0 0 0)
        (effects (font (size 1.27 1.27)) hide)
      )
      (symbol "1.0UF-0402-16V-10%_1_0"
        (polyline
          (pts
            (xy 0 0)
            (xy 0 0.508)
          )
          (stroke (width 0)) (fill (type none))
        )
        (polyline
          (pts
            (xy 0 2.54)
            (xy 0 2.032)
          )
          (stroke (width 0)) (fill (type none))
        )
      )
      (symbol "1.0UF-0402-16V-10%_1_1"
        (rectangle (start -2.032 0.508) (end 2.032 1.016)
          (stroke (width 0)) (fill (type outline))
        )
        (rectangle (start -2.032 1.524) (end 2.032 2.032)
          (stroke (width 0)) (fill (type outline))
        )
        (pin passive line (at 0 5.08 270) (length 2.54)
          (name "1" (effects (font (size 1.016 1.016))))
          (number "1" (effects (font (size 1.016 1.016))))
        )
        (pin passive line (at 0 -2.54 90) (length 2.54)
          (name "2" (effects (font (size 1.016 1.016))))
          (number "2" (effects (font (size 1.016 1.016))))
        )
      )
    )
    (symbol "SparkFun-Connectors:QWIIC_CONNECTORJS-1MM" (pin_numbers hide) (pin_names (offset 1.016)) (in_bom yes) (on_board yes)
      (property "Reference" "J" (id 0) (at -5.08 10.16 0)
        (effects (font (size 1.143 1.143)) (justify left bottom))
      )
      (property "Value" "QWIIC_CONNECTORJS-1MM" (id 1) (at -5.08 -3.81 0)
        (effects (font (size 1.143 1.143)) (justify left bottom))
      )
      (property "Footprint" "Connectors:1X04_1MM_RA" (id 2) (at 0 12.7 0)
        (effects (font (size 0.508 0.508)) hide)
      )
      (property "Datasheet" "https://www.jst-mfg.com/product/pdf/eng/eSH.pdf" (id 3) (at 0 0 0)
        (effects (font (size 1.27 1.27)) hide)
      )
      (property "Manufacturer" "JST" (id 4) (at 0 0 0)
        (effects (font (size 1.27 1.27)) hide)
      )
      (property "digikeypn" "455-1804-1-ND" (id 5) (at 0 0 0)
        (effects (font (size 1.27 1.27)) hide)
      )
      (property "lcscpn" "C160404" (id 6) (at 0 0 0)
        (effects (font (size 1.27 1.27)) hide)
      )
      (property "ki_keywords" "PROD_ID:XXX-00000" (id 7) (at 0 0 0)
        (effects (font (size 1.27 1.27)) hide)
      )
      (property "ki_description" "SparkFun I<sup>2</sup>C Standard Qwiic Connector" (id 8) (at 0 0 0)
        (effects (font (size 1.27 1.27)) hide)
      )
      (property "ki_fp_filters" "*1X04_1MM_RA* *1X04_1MM_RA_STRESSRELIEF*" (id 9) (at 0 0 0)
        (effects (font (size 1.27 1.27)) hide)
      )
      (symbol "QWIIC_CONNECTORJS-1MM_1_0"
        (rectangle (start 0 -1.27) (end -5.08 8.89)
          (stroke (width 0)) (fill (type background))
        )
      )
      (symbol "QWIIC_CONNECTORJS-1MM_1_1"
        (pin power_in line (at 2.54 0 180) (length 2.54)
          (name "GND" (effects (font (size 1.016 1.016))))
          (number "1" (effects (font (size 1.016 1.016))))
        )
        (pin power_in line (at 2.54 2.54 180) (length 2.54)
          (name "VCC" (effects (font (size 1.016 1.016))))
          (number "2" (effects (font (size 1.016 1.016))))
        )
        (pin passive line (at 2.54 5.08 180) (length 2.54)
          (name "SDA" (effects (font (size 1.016 1.016))))
          (number "3" (effects (font (size 1.016 1.016))))
        )
        (pin passive line (at 2.54 7.62 180) (length 2.54)
          (name "SCL" (effects (font (size 1.016 1.016))))
          (number "4" (effects (font (size 1.016 1.016))))
        )
      )
    )
    (symbol "power:+3V3" (power) (pin_names (offset 0)) (in_bom yes) (on_board yes)
      (property "Reference" "#PWR" (id 0) (at 0 -3.81 0)
        (effects (font (size 1.27 1.27)) hide)
      )
      (property "Value" "+3V3" (id 1) (at 0 3.556 0)
        (effects (font (size 1.27 1.27)))
      )
      (property "Footprint" "" (id 2) (at 0 0 0)
        (effects (font (size 1.27 1.27)) hide)
      )
      (property "Datasheet" "" (id 3) (at 0 0 0)
        (effects (font (size 1.27 1.27)) hide)
      )
      (property "ki_keywords" "power-flag" (id 4) (at 0 0 0)
        (effects (font (size 1.27 1.27)) hide)
      )
      (property "ki_description" "Power symbol creates a global label with name \"+3V3\"" (id 5) (at 0 0 0)
        (effects (font (size 1.27 1.27)) hide)
      )
      (symbol "+3V3_0_1"
        (polyline
          (pts
            (xy -0.762 1.27)
            (xy 0 2.54)
          )
          (stroke (width 0)) (fill (type none))
        )
        (polyline
          (pts
            (xy 0 0)
            (xy 0 2.54)
          )
          (stroke (width 0)) (fill (type none))
        )
        (polyline
          (pts
            (xy 0 2.54)
            (xy 0.762 1.27)
          )
          (stroke (width 0)) (fill (type none))
        )
      )
      (symbol "+3V3_1_1"
        (pin power_in line (at 0 0 90) (length 0) hide
          (name "+3V3" (effects (font (size 1.27 1.27))))
          (number "1" (effects (font (size 1.27 1.27))))
        )
      )
    )
    (symbol "power:GND" (power) (pin_names (offset 0)) (in_bom yes) (on_board yes)
      (property "Reference" "#PWR" (id 0) (at 0 -6.35 0)
        (effects (font (size 1.27 1.27)) hide)
      )
      (property "Value" "GND" (id 1) (at 0 -3.81 0)
        (effects (font (size 1.27 1.27)))
      )
      (property "Footprint" "" (id 2) (at 0 0 0)
        (effects (font (size 1.27 1.27)) hide)
      )
      (property "Datasheet" "" (id 3) (at 0 0 0)
        (effects (font (size 1.27 1.27)) hide)
      )
      (property "ki_keywords" "power-flag" (id 4) (at 0 0 0)
        (effects (font (size 1.27 1.27)) hide)
      )
      (property "ki_description" "Power symbol creates a global label with name \"GND\" , ground" (id 5) (at 0 0 0)
        (effects (font (size 1.27 1.27)) hide)
      )
      (symbol "GND_0_1"
        (polyline
          (pts
            (xy 0 0)
            (xy 0 -1.27)
            (xy 1.27 -1.27)
            (xy 0 -2.54)
            (xy -1.27 -1.27)
            (xy 0 -1.27)
          )
          (stroke (width 0)) (fill (type none))
        )
      )
      (symbol "GND_1_1"
        (pin power_in line (at 0 0 270) (length 0) hide
          (name "GND" (effects (font (size 1.27 1.27))))
          (number "1" (effects (font (size 1.27 1.27))))
        )
      )
    )
    (symbol "power:VBUS" (power) (pin_names (offset 0)) (in_bom yes) (on_board yes)
      (property "Reference" "#PWR" (id 0) (at 0 -3.81 0)
        (effects (font (size 1.27 1.27)) hide)
      )
      (property "Value" "VBUS" (id 1) (at 0 3.81 0)
        (effects (font (size 1.27 1.27)))
      )
      (property "Footprint" "" (id 2) (at 0 0 0)
        (effects (font (size 1.27 1.27)) hide)
      )
      (property "Datasheet" "" (id 3) (at 0 0 0)
        (effects (font (size 1.27 1.27)) hide)
      )
      (property "ki_keywords" "power-flag" (id 4) (at 0 0 0)
        (effects (font (size 1.27 1.27)) hide)
      )
      (property "ki_description" "Power symbol creates a global label with name \"VBUS\"" (id 5) (at 0 0 0)
        (effects (font (size 1.27 1.27)) hide)
      )
      (symbol "VBUS_0_1"
        (polyline
          (pts
            (xy -0.762 1.27)
            (xy 0 2.54)
          )
          (stroke (width 0)) (fill (type none))
        )
        (polyline
          (pts
            (xy 0 0)
            (xy 0 2.54)
          )
          (stroke (width 0)) (fill (type none))
        )
        (polyline
          (pts
            (xy 0 2.54)
            (xy 0.762 1.27)
          )
          (stroke (width 0)) (fill (type none))
        )
      )
      (symbol "VBUS_1_1"
        (pin power_in line (at 0 0 90) (length 0) hide
          (name "VBUS" (effects (font (size 1.27 1.27))))
          (number "1" (effects (font (size 1.27 1.27))))
        )
      )
    )
  )

  (junction (at 74.93 35.56) (diameter 1.016) (color 0 0 0 0))
  (junction (at 78.74 35.56) (diameter 1.016) (color 0 0 0 0))
  (junction (at 86.36 48.26) (diameter 1.016) (color 0 0 0 0))
  (junction (at 97.79 35.56) (diameter 1.016) (color 0 0 0 0))

  (no_connect (at 31.75 48.26) (uuid 94d3180a-e10f-47fd-9fbf-6571505d7a91))
  (no_connect (at 41.91 38.1) (uuid f90870b3-6262-41a1-8d07-6d59980c83c5))
  (no_connect (at 41.91 40.64) (uuid 508c5922-1084-4b29-8e6e-3ee90fa9a1a6))
  (no_connect (at 41.91 43.18) (uuid dfcdb0a4-6ba5-4b92-89b8-088739702f59))

  (wire (pts (xy 34.29 48.26) (xy 34.29 52.07))
    (stroke (width 0) (type solid) (color 0 0 0 0))
    (uuid ae2a357d-3e2b-494b-86e4-4198de52dde0)
  )
  (wire (pts (xy 41.91 33.02) (xy 48.26 33.02))
    (stroke (width 0) (type solid) (color 0 0 0 0))
    (uuid 29928e5f-e85a-41fb-9ae6-94b87cd255e8)
  )
  (wire (pts (xy 74.93 35.56) (xy 72.39 35.56))
    (stroke (width 0) (type solid) (color 0 0 0 0))
    (uuid f1beed9a-e5fa-4112-937b-99f5c18257dd)
  )
  (wire (pts (xy 74.93 38.1) (xy 74.93 35.56))
    (stroke (width 0) (type solid) (color 0 0 0 0))
    (uuid a2531137-ccb5-4931-9f31-c4706e0948cb)
  )
  (wire (pts (xy 74.93 45.72) (xy 74.93 48.26))
    (stroke (width 0) (type solid) (color 0 0 0 0))
    (uuid 9b8a7042-3d22-476c-bd5a-ef1b850ccc2d)
  )
  (wire (pts (xy 74.93 48.26) (xy 86.36 48.26))
    (stroke (width 0) (type solid) (color 0 0 0 0))
    (uuid d8dbb96b-a194-4b26-b364-088a58a7b5d4)
  )
  (wire (pts (xy 78.74 35.56) (xy 74.93 35.56))
    (stroke (width 0) (type solid) (color 0 0 0 0))
    (uuid bd828129-f194-4567-847d-aa080fea99ad)
  )
  (wire (pts (xy 78.74 38.1) (xy 78.74 35.56))
    (stroke (width 0) (type solid) (color 0 0 0 0))
    (uuid 569b3e33-786c-4306-b7b4-871b7e117213)
  )
  (wire (pts (xy 86.36 45.72) (xy 86.36 48.26))
    (stroke (width 0) (type solid) (color 0 0 0 0))
    (uuid 88724375-8ffe-4172-b30c-bd5a41668015)
  )
  (wire (pts (xy 86.36 48.26) (xy 86.36 49.53))
    (stroke (width 0) (type solid) (color 0 0 0 0))
    (uuid 4e2ab6d4-1eec-416c-9771-f7bfd71003e1)
  )
  (wire (pts (xy 93.98 35.56) (xy 97.79 35.56))
    (stroke (width 0) (type solid) (color 0 0 0 0))
    (uuid dea2ae9e-e873-4f7b-9dc5-d43ea1fb5ad2)
  )
  (wire (pts (xy 97.79 35.56) (xy 100.33 35.56))
    (stroke (width 0) (type solid) (color 0 0 0 0))
    (uuid f90bf3b1-a409-4efe-8ec6-a1edaf5adc8a)
  )
  (wire (pts (xy 97.79 38.1) (xy 97.79 35.56))
    (stroke (width 0) (type solid) (color 0 0 0 0))
    (uuid 24368ccd-33dc-43a4-b235-26b8a6e336ca)
  )
  (wire (pts (xy 97.79 45.72) (xy 97.79 48.26))
    (stroke (width 0) (type solid) (color 0 0 0 0))
    (uuid 64b29ced-b49e-42d1-920d-49c0eba53891)
  )
  (wire (pts (xy 97.79 48.26) (xy 86.36 48.26))
    (stroke (width 0) (type solid) (color 0 0 0 0))
    (uuid 9a79cac0-28f2-4c25-bfc8-30311f218753)
  )
  (wire (pts (xy 143.51 38.1) (xy 148.59 38.1))
    (stroke (width 0) (type solid) (color 0 0 0 0))
    (uuid dc4fca27-ee86-4e7a-80d8-f64767b8cbd9)
  )
  (wire (pts (xy 143.51 40.64) (xy 148.59 40.64))
    (stroke (width 0) (type solid) (color 0 0 0 0))
    (uuid 70485e25-eae5-4cbe-8bac-b1a0a722b2ba)
  )
  (wire (pts (xy 143.51 43.18) (xy 152.4 43.18))
    (stroke (width 0) (type solid) (color 0 0 0 0))
    (uuid c595a540-ac5a-4a91-b9da-847d82534196)
  )
  (wire (pts (xy 143.51 45.72) (xy 149.86 45.72))
    (stroke (width 0) (type solid) (color 0 0 0 0))
    (uuid 706553bb-5278-4de3-9cb7-75ca798f5d38)
  )
  (wire (pts (xy 143.51 62.23) (xy 148.59 62.23))
    (stroke (width 0) (type solid) (color 0 0 0 0))
    (uuid 773f8b6c-af21-4abd-ad72-a93305849fd0)
  )
  (wire (pts (xy 143.51 64.77) (xy 148.59 64.77))
    (stroke (width 0) (type solid) (color 0 0 0 0))
    (uuid 14776c2a-7651-4746-b1c5-ecc307f30f39)
  )
  (wire (pts (xy 149.86 69.85) (xy 143.51 69.85))
    (stroke (width 0) (type solid) (color 0 0 0 0))
    (uuid b5180861-27b5-46ce-a3f9-92bdfbc40f6d)
  )
  (wire (pts (xy 152.4 67.31) (xy 143.51 67.31))
    (stroke (width 0) (type solid) (color 0 0 0 0))
    (uuid 5aea5a60-0a79-4d07-97e7-86299373f78c)
  )

  (label "SCL" (at 148.59 38.1 180)
    (effects (font (size 1.27 1.27)) (justify right bottom))
    (uuid 8da96520-ead4-491a-836e-990c06e40eb6)
  )
  (label "SDA" (at 148.59 40.64 180)
    (effects (font (size 1.27 1.27)) (justify right bottom))
    (uuid e3227393-3d93-4661-81a9-9670a09ec65f)
  )
  (label "SCL" (at 148.59 62.23 180)
    (effects (font (size 1.27 1.27)) (justify right bottom))
    (uuid 0331d5c9-cf9c-4ffb-ab1f-28a78ff38db7)
  )
  (label "SDA" (at 148.59 64.77 180)
    (effects (font (size 1.27 1.27)) (justify right bottom))
    (uuid 778841b7-a524-46f6-af6d-783973ee4112)
  )

  (symbol (lib_id "power:VBUS") (at 48.26 33.02 0) (unit 1)
    (in_bom yes) (on_board yes)
    (uuid 00000000-0000-0000-0000-0000600b3a76)
    (property "Reference" "#PWR0101" (id 0) (at 48.26 36.83 0)
      (effects (font (size 1.27 1.27)) hide)
    )
    (property "Value" "VBUS" (id 1) (at 48.641 28.6258 0))
    (property "Footprint" "" (id 2) (at 48.26 33.02 0)
      (effects (font (size 1.27 1.27)) hide)
    )
    (property "Datasheet" "" (id 3) (at 48.26 33.02 0)
      (effects (font (size 1.27 1.27)) hide)
    )
    (pin "1" (uuid 6140cddf-d752-4a97-94bf-0cfb30d93511))
  )

  (symbol (lib_id "power:VBUS") (at 72.39 35.56 0) (unit 1)
    (in_bom yes) (on_board yes)
    (uuid 00000000-0000-0000-0000-0000600b5790)
    (property "Reference" "#PWR0103" (id 0) (at 72.39 39.37 0)
      (effects (font (size 1.27 1.27)) hide)
    )
    (property "Value" "VBUS" (id 1) (at 72.771 31.1658 0))
    (property "Footprint" "" (id 2) (at 72.39 35.56 0)
      (effects (font (size 1.27 1.27)) hide)
    )
    (property "Datasheet" "" (id 3) (at 72.39 35.56 0)
      (effects (font (size 1.27 1.27)) hide)
    )
    (pin "1" (uuid 6a8d463a-7c49-422c-9056-75a0a5903bd5))
  )

  (symbol (lib_id "power:+3V3") (at 100.33 35.56 0) (unit 1)
    (in_bom yes) (on_board yes)
    (uuid 00000000-0000-0000-0000-0000600b8398)
    (property "Reference" "#PWR0105" (id 0) (at 100.33 39.37 0)
      (effects (font (size 1.27 1.27)) hide)
    )
    (property "Value" "+3V3" (id 1) (at 100.711 31.1658 0))
    (property "Footprint" "" (id 2) (at 100.33 35.56 0)
      (effects (font (size 1.27 1.27)) hide)
    )
    (property "Datasheet" "" (id 3) (at 100.33 35.56 0)
      (effects (font (size 1.27 1.27)) hide)
    )
    (pin "1" (uuid 145c147b-9fe0-48b9-a5fb-264398baab5a))
  )

  (symbol (lib_id "power:+3V3") (at 152.4 43.18 0) (unit 1)
    (in_bom yes) (on_board yes)
    (uuid 00000000-0000-0000-0000-0000600b8f94)
    (property "Reference" "#PWR0106" (id 0) (at 152.4 46.99 0)
      (effects (font (size 1.27 1.27)) hide)
    )
    (property "Value" "+3V3" (id 1) (at 152.781 38.7858 0))
    (property "Footprint" "" (id 2) (at 152.4 43.18 0)
      (effects (font (size 1.27 1.27)) hide)
    )
    (property "Datasheet" "" (id 3) (at 152.4 43.18 0)
      (effects (font (size 1.27 1.27)) hide)
    )
    (pin "1" (uuid 95dac448-de72-43f6-ab2a-a26258af11e4))
  )

  (symbol (lib_id "power:+3V3") (at 152.4 67.31 0) (unit 1)
    (in_bom yes) (on_board yes)
    (uuid 00000000-0000-0000-0000-0000600bdc03)
    (property "Reference" "#PWR0108" (id 0) (at 152.4 71.12 0)
      (effects (font (size 1.27 1.27)) hide)
    )
    (property "Value" "+3V3" (id 1) (at 152.781 62.9158 0))
    (property "Footprint" "" (id 2) (at 152.4 67.31 0)
      (effects (font (size 1.27 1.27)) hide)
    )
    (property "Datasheet" "" (id 3) (at 152.4 67.31 0)
      (effects (font (size 1.27 1.27)) hide)
    )
    (pin "1" (uuid c55e0147-fdac-476d-b88e-982aa3864b1f))
  )

  (symbol (lib_id "power:GND") (at 34.29 52.07 0) (unit 1)
    (in_bom yes) (on_board yes)
    (uuid 00000000-0000-0000-0000-0000600b4982)
    (property "Reference" "#PWR0102" (id 0) (at 34.29 58.42 0)
      (effects (font (size 1.27 1.27)) hide)
    )
    (property "Value" "GND" (id 1) (at 34.417 56.4642 0))
    (property "Footprint" "" (id 2) (at 34.29 52.07 0)
      (effects (font (size 1.27 1.27)) hide)
    )
    (property "Datasheet" "" (id 3) (at 34.29 52.07 0)
      (effects (font (size 1.27 1.27)) hide)
    )
    (pin "1" (uuid 4341268f-a44c-432b-a96e-1a5d619828c8))
  )

  (symbol (lib_id "power:GND") (at 86.36 49.53 0) (unit 1)
    (in_bom yes) (on_board yes)
    (uuid 00000000-0000-0000-0000-0000600b62db)
    (property "Reference" "#PWR0104" (id 0) (at 86.36 55.88 0)
      (effects (font (size 1.27 1.27)) hide)
    )
    (property "Value" "GND" (id 1) (at 86.487 53.9242 0))
    (property "Footprint" "" (id 2) (at 86.36 49.53 0)
      (effects (font (size 1.27 1.27)) hide)
    )
    (property "Datasheet" "" (id 3) (at 86.36 49.53 0)
      (effects (font (size 1.27 1.27)) hide)
    )
    (pin "1" (uuid 2d956459-5919-4fcf-98b3-e94ee70e1059))
  )

  (symbol (lib_id "power:GND") (at 149.86 45.72 0) (unit 1)
    (in_bom yes) (on_board yes)
    (uuid 00000000-0000-0000-0000-0000600bba49)
    (property "Reference" "#PWR0107" (id 0) (at 149.86 52.07 0)
      (effects (font (size 1.27 1.27)) hide)
    )
    (property "Value" "GND" (id 1) (at 149.987 50.1142 0))
    (property "Footprint" "" (id 2) (at 149.86 45.72 0)
      (effects (font (size 1.27 1.27)) hide)
    )
    (property "Datasheet" "" (id 3) (at 149.86 45.72 0)
      (effects (font (size 1.27 1.27)) hide)
    )
    (pin "1" (uuid 094efc23-0161-4387-b4bd-0f789774fe45))
  )

  (symbol (lib_id "power:GND") (at 149.86 69.85 0) (unit 1)
    (in_bom yes) (on_board yes)
    (uuid 00000000-0000-0000-0000-0000600be2af)
    (property "Reference" "#PWR0109" (id 0) (at 149.86 76.2 0)
      (effects (font (size 1.27 1.27)) hide)
    )
    (property "Value" "GND" (id 1) (at 149.987 74.2442 0))
    (property "Footprint" "" (id 2) (at 149.86 69.85 0)
      (effects (font (size 1.27 1.27)) hide)
    )
    (property "Datasheet" "" (id 3) (at 149.86 69.85 0)
      (effects (font (size 1.27 1.27)) hide)
    )
    (pin "1" (uuid c81ab960-451f-4d4d-9a34-a070a21daec7))
  )

  (symbol (lib_id "SparkFun-Capacitors:1.0UF-0402-16V-10%") (at 74.93 43.18 0) (unit 1)
    (in_bom yes) (on_board yes)
    (uuid 00000000-0000-0000-0000-0000600bd2fe)
    (property "Reference" "C1" (id 0) (at 69.85 39.37 0)
      (effects (font (size 1.143 1.143)) (justify left))
    )
    (property "Value" "1.0uF" (id 1) (at 67.31 41.91 0)
      (effects (font (size 1.143 1.143)) (justify left))
    )
    (property "Footprint" "Capacitor_SMD:C_0402_1005Metric" (id 2) (at 74.93 36.83 0)
      (effects (font (size 0.508 0.508)) hide)
    )
    (property "Datasheet" "" (id 3) (at 74.93 43.18 0)
      (effects (font (size 1.27 1.27)) hide)
    )
    (property "Field4" "CAP-12417" (id 4) (at 59.69 44.45 0)
      (effects (font (size 1.524 1.524)) (justify left) hide)
    )
    (pin "1" (uuid 7f650158-f3ab-4064-a7ec-9307fedc2a73))
    (pin "2" (uuid 3c1a29ce-3d3f-4d9b-b1f1-e7bac177cfb8))
  )

  (symbol (lib_id "Device:C_Polarized") (at 97.79 41.91 0) (unit 1)
    (in_bom yes) (on_board yes) (fields_autoplaced)
    (uuid d024a5f5-43fd-43f8-9c33-34052b073982)
    (property "Reference" "C2" (id 0) (at 100.7111 41.0015 0)
      (effects (font (size 1.27 1.27)) (justify left))
    )
    (property "Value" "100 u" (id 1) (at 100.7111 43.7766 0)
      (effects (font (size 1.27 1.27)) (justify left))
    )
    (property "Footprint" "Capacitor_Tantalum_SMD:CP_EIA-1608-08_AVX-J" (id 2) (at 98.7552 45.72 0)
      (effects (font (size 1.27 1.27)) hide)
    )
    (property "Datasheet" "~" (id 3) (at 97.79 41.91 0)
      (effects (font (size 1.27 1.27)) hide)
    )
    (pin "1" (uuid bef3b51b-2cff-49c3-bc4b-3eb0ab1be69a))
    (pin "2" (uuid 29055455-c349-4d11-b7bf-f4a1a765fef3))
  )

  (symbol (lib_id "SparkFun-Connectors:QWIIC_CONNECTORJS-1MM") (at 140.97 45.72 0) (unit 1)
    (in_bom yes) (on_board yes)
    (uuid 00000000-0000-0000-0000-00006018edb4)
    (property "Reference" "QWIIC1" (id 0) (at 139.9032 30.226 0)
      (effects (font (size 1.143 1.143)))
    )
    (property "Value" "QWIIC_CONNECTORJS-1MM" (id 1) (at 139.9032 32.3596 0)
      (effects (font (size 1.143 1.143)))
    )
    (property "Footprint" "Connectors:1X04_1MM_RA" (id 2) (at 140.97 33.02 0)
      (effects (font (size 0.508 0.508)) hide)
    )
    (property "Datasheet" "https://www.jst-mfg.com/product/pdf/eng/eSH.pdf" (id 3) (at 140.97 45.72 0)
      (effects (font (size 1.27 1.27)) hide)
    )
    (property "Field4" "CONN-13694" (id 4) (at 139.9032 34.7726 0)
      (effects (font (size 1.524 1.524)))
    )
    (property "Manufacturer" "JST" (id 5) (at 140.97 45.72 0)
      (effects (font (size 1.27 1.27)) hide)
    )
    (property "digikeypn" "455-1804-1-ND" (id 6) (at 140.97 45.72 0)
      (effects (font (size 1.27 1.27)) hide)
    )
    (property "lcscpn" "C160404" (id 7) (at 140.97 45.72 0)
      (effects (font (size 1.27 1.27)) hide)
    )
    (property "LCSC" "C160404" (id 8) (at 140.97 45.72 0)
      (effects (font (size 1.27 1.27)) hide)
    )
    (pin "1" (uuid d627ed11-2304-448a-9371-e8dd53a35b96))
    (pin "2" (uuid 1248683d-6fe8-4641-8996-a623366f55a0))
    (pin "3" (uuid 215a9d46-8022-411e-9686-2ce97adc4238))
    (pin "4" (uuid c614c531-5d04-408c-af62-451907467507))
  )

  (symbol (lib_id "SparkFun-Connectors:QWIIC_CONNECTORJS-1MM") (at 140.97 69.85 0) (unit 1)
    (in_bom yes) (on_board yes)
    (uuid 00000000-0000-0000-0000-00006018f12d)
    (property "Reference" "QWIIC2" (id 0) (at 139.9032 54.356 0)
      (effects (font (size 1.143 1.143)))
    )
    (property "Value" "QWIIC_CONNECTORJS-1MM" (id 1) (at 139.9032 56.4896 0)
      (effects (font (size 1.143 1.143)))
    )
    (property "Footprint" "Connectors:1X04_1MM_RA" (id 2) (at 140.97 57.15 0)
      (effects (font (size 0.508 0.508)) hide)
    )
    (property "Datasheet" "https://www.jst-mfg.com/product/pdf/eng/eSH.pdf" (id 3) (at 140.97 69.85 0)
      (effects (font (size 1.27 1.27)) hide)
    )
    (property "Field4" "CONN-13694" (id 4) (at 139.9032 58.9026 0)
      (effects (font (size 1.524 1.524)))
    )
    (property "Manufacturer" "JST" (id 5) (at 140.97 69.85 0)
      (effects (font (size 1.27 1.27)) hide)
    )
    (property "digikeypn" "455-1804-1-ND" (id 6) (at 140.97 69.85 0)
      (effects (font (size 1.27 1.27)) hide)
    )
    (property "lcscpn" "C160404" (id 7) (at 140.97 69.85 0)
      (effects (font (size 1.27 1.27)) hide)
    )
    (property "LCSC" "C160404" (id 8) (at 140.97 69.85 0)
      (effects (font (size 1.27 1.27)) hide)
    )
    (pin "1" (uuid 41cde673-b296-4661-81f6-9d712d2c0587))
    (pin "2" (uuid 7c9b8609-4edb-42da-81de-e21cb4d42563))
    (pin "3" (uuid 5a9c5f5d-e59a-4027-9e8c-8e7837284ea0))
    (pin "4" (uuid 53225d5a-60b0-4ddf-a227-ae108e99357f))
  )

  (symbol (lib_id "Regulator_Linear:TLV75533PDBV") (at 86.36 38.1 0) (unit 1)
    (in_bom yes) (on_board yes)
    (uuid 00000000-0000-0000-0000-0000600afd34)
    (property "Reference" "U1" (id 0) (at 86.36 29.4132 0))
    (property "Value" "TLV75533PDBV" (id 1) (at 86.36 31.7246 0))
    (property "Footprint" "Package_TO_SOT_SMD:SOT-23-5" (id 2) (at 86.36 29.845 0)
      (effects (font (size 1.27 1.27) italic) hide)
    )
    (property "Datasheet" "http://www.ti.com/lit/ds/symlink/tlv755p.pdf" (id 3) (at 86.36 36.83 0)
      (effects (font (size 1.27 1.27)) hide)
    )
    (pin "1" (uuid c4d978df-0a50-4e1a-b509-fc57e5d4408f))
    (pin "2" (uuid dc0848e7-ebb4-4dd2-9601-29f561e9b7d9))
    (pin "3" (uuid 5ee5487f-ac8c-4b93-acb5-893a22cdc68a))
    (pin "4" (uuid 97e63569-3319-41e4-ab2d-1e94502226e0))
    (pin "5" (uuid 36d7ff1d-c611-47a0-85a6-2bde89cf8564))
  )

  (symbol (lib_id "Connector:USB_B_Micro") (at 34.29 38.1 0) (unit 1)
    (in_bom yes) (on_board yes)
    (uuid 00000000-0000-0000-0000-0000600addb4)
    (property "Reference" "USB1" (id 0) (at 35.7378 26.2382 0))
    (property "Value" "USB_B_Micro" (id 1) (at 35.7378 28.5496 0))
    (property "Footprint" "Connector_USB:USB_Micro-B_Molex_47346-0001" (id 2) (at 38.1 39.37 0)
      (effects (font (size 1.27 1.27)) hide)
    )
    (property "Datasheet" "~" (id 3) (at 38.1 39.37 0)
      (effects (font (size 1.27 1.27)) hide)
    )
    (pin "1" (uuid 402fc4b7-4ba8-4e1a-8f2e-c8fcc32af1c3))
    (pin "2" (uuid 83cbb7f4-4d1f-473b-b048-02c122efd861))
    (pin "3" (uuid bcb80ac8-3da1-4896-abca-0fbb5b470968))
    (pin "4" (uuid 3e4f2339-b4cd-4337-8637-1bb96b22ad59))
    (pin "5" (uuid 72a34444-8e4a-4a07-adac-7ec2ccfc4daa))
    (pin "6" (uuid 2420090a-b845-488a-bd3c-f2c5726c1052))
  )

  (sheet_instances
    (path "/" (page "1"))
  )

  (symbol_instances
    (path "/00000000-0000-0000-0000-0000600b3a76"
      (reference "#PWR0101") (unit 1) (value "VBUS") (footprint "")
    )
    (path "/00000000-0000-0000-0000-0000600b4982"
      (reference "#PWR0102") (unit 1) (value "GND") (footprint "")
    )
    (path "/00000000-0000-0000-0000-0000600b5790"
      (reference "#PWR0103") (unit 1) (value "VBUS") (footprint "")
    )
    (path "/00000000-0000-0000-0000-0000600b62db"
      (reference "#PWR0104") (unit 1) (value "GND") (footprint "")
    )
    (path "/00000000-0000-0000-0000-0000600b8398"
      (reference "#PWR0105") (unit 1) (value "+3V3") (footprint "")
    )
    (path "/00000000-0000-0000-0000-0000600b8f94"
      (reference "#PWR0106") (unit 1) (value "+3V3") (footprint "")
    )
    (path "/00000000-0000-0000-0000-0000600bba49"
      (reference "#PWR0107") (unit 1) (value "GND") (footprint "")
    )
    (path "/00000000-0000-0000-0000-0000600bdc03"
      (reference "#PWR0108") (unit 1) (value "+3V3") (footprint "")
    )
    (path "/00000000-0000-0000-0000-0000600be2af"
      (reference "#PWR0109") (unit 1) (value "GND") (footprint "")
    )
    (path "/00000000-0000-0000-0000-0000600bd2fe"
      (reference "C1") (unit 1) (value "1.0uF") (footprint "Capacitor_SMD:C_0402_1005Metric")
    )
    (path "/d024a5f5-43fd-43f8-9c33-34052b073982"
      (reference "C2") (unit 1) (value "100 u") (footprint "Capacitor_Tantalum_SMD:CP_EIA-1608-08_AVX-J")
    )
    (path "/00000000-0000-0000-0000-00006018edb4"
      (reference "QWIIC1") (unit 1) (value "QWIIC_CONNECTORJS-1MM") (footprint "Connectors:1X04_1MM_RA")
    )
    (path "/00000000-0000-0000-0000-00006018f12d"
      (reference "QWIIC2") (unit 1) (value "QWIIC_CONNECTORJS-1MM") (footprint "Connectors:1X04_1MM_RA")
    )
    (path "/00000000-0000-0000-0000-0000600afd34"
      (reference "U1") (unit 1) (value "TLV75533PDBV") (footprint "Package_TO_SOT_SMD:SOT-23-5")
    )
    (path "/00000000-0000-0000-0000-0000600addb4"
      (reference "USB1") (unit 1) (value "USB_B_Micro") (footprint "Connector_USB:USB_Micro-B_Molex_47346-0001")
    )
  )
)
